<svg xmlns="http://www.w3.org/2000/svg" width="121" height="121" viewBox="0 0 121 121">
  <g fill="none" fill-rule="evenodd">
    <circle cx="60.5" cy="60.5" r="60.5" fill="#E2A94A"/>
    <path fill="#FFFFFF" d="M19.9939544,26.6536826 L7.02828473,13.688013 C6.83428029,13.4940085 6.51474383,13.4921946 6.31877853,13.6881599 L0.428768365,19.5781701 C0.237080452,19.769858 0.232737285,20.0917921 0.42862144,20.2876763 L18.3050486,38.1641034 C18.3377838,38.1968386 18.3740931,38.2241019 18.4127797,38.2458665 L19.6521119,39.4851986 C19.8437998,39.6768866 20.1640031,39.6829605 20.3577523,39.4892114 L52.8964865,6.95047714 C53.0841286,6.76283507 53.0884391,6.44080203 52.8924738,6.24483673 L47.0024636,0.354826563 C46.8107757,0.163138649 46.4905723,0.157064711 46.2968232,0.350813851 L19.9939544,26.6536826 Z" transform="translate(36 42)"/>
  </g>
</svg>
