<svg xmlns="http://www.w3.org/2000/svg" width="22" height="20" viewBox="0 0 22 20">
  <g fill="#000000" fill-rule="evenodd">
    <path d="M9.54761905,4.23809524 C9.16666667,4.23809524 8.85714286,4.54761905 8.85714286,4.92857143 L8.85714286,10.4761905 C8.85714286,10.6904762 8.95238095,10.9047619 9.14285714,11.0238095 L12.3095238,13.4047619 C12.4285714,13.5 12.5714286,13.547619 12.7142857,13.547619 C12.9285714,13.547619 13.1428571,13.452381 13.2619048,13.2619048 C13.5,12.952381 13.4285714,12.5238095 13.1190476,12.2857143 L10.2380952,10.1428571 L10.2380952,4.92857143 C10.2380952,4.54761905 9.92857143,4.23809524 9.54761905,4.23809524 Z"/>
    <path d="M10,19.8333333 C13.0714286,19.8333333 15.9047619,18.4285714 17.7857143,16 C18.0238095,15.6904762 17.952381,15.2619048 17.6666667,15.0238095 C17.3571429,14.7857143 16.9285714,14.8571429 16.6904762,15.1428571 C15.0714286,17.2380952 12.6428571,18.452381 10,18.452381 C5.33333333,18.452381 1.54761905,14.6666667 1.54761905,10 C1.54761905,5.33333333 5.33333333,1.54761905 10,1.54761905 C14.2857143,1.54761905 17.8333333,4.76190476 18.3809524,8.9047619 L17.3809524,7.92857143 C17.1190476,7.66666667 16.6666667,7.66666667 16.4047619,7.92857143 C16.1428571,8.19047619 16.1428571,8.64285714 16.4047619,8.9047619 L18.452381,10.952381 C18.5952381,11.0952381 18.7619048,11.1428571 18.952381,11.1428571 C19.1428571,11.1428571 19.3095238,11.0714286 19.452381,10.952381 L21.5,8.9047619 C21.7619048,8.64285714 21.7619048,8.19047619 21.5,7.92857143 C21.2380952,7.66666667 20.7857143,7.66666667 20.5238095,7.92857143 L19.7619048,8.69047619 C19.0952381,3.88095238 14.9761905,0.166666667 10,0.166666667 C4.57142857,0.166666667 0.166666667,4.57142857 0.166666667,10 C0.166666667,15.4285714 4.57142857,19.8333333 10,19.8333333 Z"/>
  </g>
</svg>
