<svg xmlns="http://www.w3.org/2000/svg" width="13" height="20" viewBox="0 0 13 20">
  <path fill="#000000" fill-rule="evenodd" d="M7.62363636,4.01151515 C8.52606061,4.13575758 9.45333333,4.53515152 10.1448485,5.08666667 C10.7224242,4.45575758 11.290303,3.81878788 11.8678788,3.15454545 C10.7163636,2.35575758 9.16242424,1.84 7.53393939,1.72484848 L7.13272727,1.69515152 L7.13272727,0 L5.40606061,0 L5.40606061,1.71030303 L5.02545455,1.7569697 C2.8430303,2.0169697 0.490909091,3.55212121 0.490909091,6.31272727 C0.490909091,8.9769697 2.32787879,10.0381818 5.09151515,10.8133333 L5.40666667,10.9066667 L5.40666667,15.9618182 L4.92242424,15.8981818 C3.90545455,15.7739394 2.72606061,15.2018182 1.89575758,14.4666667 C1.27333333,15.1345455 0.62969697,15.7981818 0,16.4490909 C1.30424242,17.4660606 3.1030303,18.1054545 5.00545455,18.229697 L5.40666667,18.2557576 L5.40666667,19.9842424 L5.70787879,19.9963636 L7.13333333,19.9842424 L7.13333333,18.2575758 L7.52060606,18.2163636 C9.75212121,17.9848485 12.1387879,16.6078788 12.1387879,13.4430303 C12.1387879,10.4854545 9.71393939,9.48242424 7.43393939,8.76969697 L7.13333333,8.67636364 L7.13333333,3.94606061 L7.62363636,4.01151515 Z M5.40606061,8.31151515 L4.82181818,8.08969697 C3.80424242,7.70606061 3.28606061,7.02121212 3.28606061,6.05090909 C3.28606061,5.08060606 3.87030303,4.32121212 4.84909091,4.03090909 L5.40606061,3.86363636 L5.40606061,8.31151515 Z M7.7369697,11.5472727 C8.73636364,11.989697 9.22121212,12.68 9.22121212,13.6569697 C9.22121212,14.7448485 8.64727273,15.5630303 7.68181818,15.850303 L7.13212121,16.0090909 L7.13212121,11.2769697 L7.7369697,11.5472727 Z" transform="translate(.703)"/>
</svg>
