<svg xmlns="http://www.w3.org/2000/svg" width="26" height="18" viewBox="0 0 26 18">
  <path fill="#000000" fill-rule="evenodd" d="M12.999543,5.78952518 C11.6528242,5.78952518 10.5573711,7.18614388 10.5573711,8.90261871 C10.5573711,10.620518 11.6528242,12.0183022 12.999543,12.0183022 C14.3470234,12.0183022 15.4431875,10.620518 15.4431875,8.90261871 C15.4431875,7.18614388 14.3470234,5.78952518 12.999543,5.78952518 M12.999543,0.0203956835 C6.52259766,0.0203956835 0,9.00006475 0,9.00006475 C0,9.00006475 6.52259766,17.9796043 12.999543,17.9796043 C19.4773516,17.9796043 26,9.00006475 26,9.00006475 C26,9.00006475 19.4773516,0.0203956835 12.999543,0.0203956835 M12.999543,15.2588849 C10.2471992,15.2588849 8.01576953,12.4165036 8.01576953,8.90261871 C8.01576953,5.39326619 10.2471992,2.54900719 12.999543,2.54900719 C15.7533086,2.54900719 17.9847383,5.39326619 17.9847383,8.90261871 C17.9847383,12.4165036 15.7533086,15.2588849 12.999543,15.2588849"/>
</svg>
