<svg xmlns="http://www.w3.org/2000/svg" width="17" height="20" viewBox="0 0 17 20">
  <path fill="#000000" fill-rule="evenodd" d="M14.1318681,5.97802198 C13.2527473,7.38461538 13.3406593,8.94505495 13.3846154,9.25274725 C10.3076923,5.0989011 9.36263736,2.35164835 9.78021978,0.10989011 C7.42857143,1.01098901 4.87912088,4.59340659 4.57142857,7.45054945 C3.40659341,6.52747253 3.84615385,4.3956044 4.1978022,3.84615385 C0.747252747,7.27472527 -0.285714286,11.3846154 0.351648352,13.8021978 C0.945054945,16 2.46153846,18.1098901 4.68131868,19.5824176 C3.31868132,16.7912088 6.79120879,16.0659341 6.94505495,14 C7.27472527,14.2857143 7.86813187,14.8571429 7.45054945,15.978022 C8.28571429,15.5164835 9.6043956,13.5384615 8.98901099,12.2417582 C11.2087912,13.0989011 14.3736264,17.1428571 12.2417582,19.8901099 C15.010989,18.2417582 16.8131868,16.043956 16.4835165,13.2527473 C16.1538462,10.3736264 13.9120879,7.56043956 14.1318681,5.97802198 Z"/>
</svg>
