<svg xmlns="http://www.w3.org/2000/svg" width="20" height="20" viewBox="0 0 20 20">
  <path fill="#FFFFFF" fill-rule="evenodd" d="M16.5333652,19.348015 C16.5367234,19.3234458 16.5384615,19.2983856 16.5384615,19.272937 L16.5384615,8.12358475 L18.8030411,10.3881644 C19.0253332,10.6104565 19.3900821,10.6099179 19.6153846,10.3846154 C19.834098,10.165902 19.842276,9.79561435 19.6189336,9.57227192 L10.4277281,0.381066414 C10.3804094,0.333747763 10.3266357,0.296526096 10.2691261,0.26942006 C10.0490891,0.0611571067 9.68402065,0.0600269536 9.46040375,0.283643855 L0.411620051,9.33242756 C0.188391589,9.55565602 0.182643744,9.92669135 0.40794622,10.1519938 C0.626659574,10.3707072 1.00018101,10.3756515 1.22751249,10.14832 L9.89535464,1.48047785 L15.3991176,6.98424083 C15.3896434,7.02477158 15.3846154,7.06693089 15.3846154,7.1102135 L15.3846154,18.8461538 L3.84615385,18.8461538 L3.84615385,10.4447034 C3.84615385,10.1319505 3.58785659,9.8650184 3.26923077,9.8650184 C2.95992338,9.8650184 2.69230769,10.1245522 2.69230769,10.4447034 L2.69230769,19.265004 C2.69230769,19.2916685 2.69418521,19.3179999 2.69781755,19.3438612 C2.69418739,19.3697581 2.69230769,19.3962029 2.69230769,19.4230769 C2.69230769,19.7323843 2.95078437,20 3.26963152,20 L15.9611377,20 C16.2742301,20 16.5384615,19.7417027 16.5384615,19.4230769 C16.5384615,19.397735 16.5367265,19.3726729 16.5333652,19.348015 Z"/>
</svg>
