<svg xmlns="http://www.w3.org/2000/svg" viewBox="0 0 121 121">
  <g fill="none" fill-rule="evenodd">
    <circle cx="60.5" cy="60.5" r="60.5" fill="#232627"/>
    <g fill="#FFFFFF" transform="translate(25 22)">
      <path d="M23.6438974 23.8125C23.6447179 23.815 23.6438974 23.8166667 23.6438974 23.8191667 23.6438974 25.085 29.4227692 26.11 36.5522051 26.11 43.6808205 26.11 50.2022564 25.085 50.2022564 23.8191667 50.2022564 23.8166667 50.2006154 23.815 50.2006154 23.8125L50.2022564 23.8125C50.1604103 22.8408333 50.3318974 22.1316667 50.0373333 21.2541667 49.5146667 19.7033333 46.1062564 18.5708333 44.5538462 17.8683333 43.7932308 17.5233333 42.9333333 17.3158333 42.4795897 16.965 42.0201026 16.6108333 41.952 15.8483333 41.3686154 15.3091667 41.1364103 15.0958333 40.4603077 15.36 40.4053333 14.9341667 40.3232821 14.2866667 41.0034872 13.8825 41.2192821 13.2783333 41.441641 12.6616667 41.3005128 12.7433333 41.4629744 11.9916667 42.7273846 11.625 43.294359 8.6125 42.4787692 8.5375 42.8742564 6.34083333 43.2525128 3.01166667 41.7386667 2.14083333 41.4211282 1.95833333 41.0412308 2.06 40.7753846 1.915 40.6227692 1.83166667 40.481641 1.51083333 40.3298462 1.3875 39.6135385.801666667 37.6853333.463333333 36.5522051.46 35.4190769.463333333 34.2326154.801666667 33.5146667 1.3875L32.1074872 2.14C30.5911795 3.01083333 30.9694359 6.34 31.3665641 8.53666667 30.5509744 8.61166667 31.1384615 11.6308333 32.4036923 11.9975 32.5661538 12.7491667 32.4028718 12.66 32.6260513 13.2766667 32.8443077 13.8816667 33.5228718 14.285 33.4408205 14.9325 33.3874872 15.3583333 32.7097436 15.0941667 32.4775385 15.3075 31.8933333 15.8466667 31.8252308 16.61 31.3665641 16.9633333 30.912 17.3141667 30.0512821 17.5216667 29.2914872 17.8666667 27.7398974 18.57 24.3306667 19.7016667 23.8088205 21.2525 23.5134359 22.1325 23.6849231 22.8408333 23.6438974 23.8125zM26.4073846 59.685C25.8855385 58.1333333 22.4754872 57 20.9247179 56.2991667 20.1649231 55.9541667 19.3042051 55.7458333 18.849641 55.3958333 18.3909744 55.0425 18.3228718 54.2791667 17.7386667 53.7408333 17.5064615 53.5275 16.8295385 53.7916667 16.7753846 53.3658333 16.6933333 52.7191667 17.3727179 52.3133333 17.5901538 51.7116667 17.8125128 51.095 17.6705641 51.175 17.8330256 50.4241667 19.0982564 50.0583333 19.6644103 47.045 18.849641 46.9691667 19.2459487 44.7716667 19.6250256 41.4433333 18.1087179 40.5725 17.7911795 40.3891667 17.4112821 40.4916667 17.1454359 40.3466667 16.993641 40.2641667 16.8508718 39.9441667 16.7007179 39.82 15.9827692 39.2333333 14.0553846 38.895 12.9222564 38.8925 11.7891282 38.895 10.6026667 39.2333333 9.88471795 39.82L8.47671795 40.5716667C6.96041026 41.4425 7.33948718 44.7708333 7.73579487 46.9683333 6.92102564 47.0441667 7.50851282 50.0625 8.77374359 50.43 8.93620513 51.1791667 8.77292308 51.0908333 8.99610256 51.7075 9.21435897 52.3133333 9.89292308 52.7166667 9.81087179 53.3625 9.75671795 53.7883333 9.07979487 53.5233333 8.84758974 53.7366667 8.26338462 54.275 8.19528205 55.0391667 7.73661538 55.3933333 7.28287179 55.7433333 6.42215385 55.9516667 5.66235897 56.295 4.11076923 56.9983333.701538462 58.13.178871795 59.6816667-.116512821 60.56.054974359 61.2666667.0147692308 62.2383333L.0147692308 62.2466667C.0147692308 63.5116667 5.79364103 64.5366667 12.9230769 64.5366667 20.0525128 64.5366667 26.5731282 63.5116667 26.5731282 62.2466667 26.5731282 62.2433333 26.5723077 62.2416667 26.5723077 62.2383333L26.5731282 62.2383333C26.5304615 61.2708333 26.7027692 60.5633333 26.4073846 59.685zM73.6681026 59.685C73.1454359 58.1333333 69.7353846 57 68.1846154 56.2991667 67.424 55.9541667 66.5632821 55.7458333 66.1111795 55.3958333 65.6525128 55.0425 65.5835897 54.2791667 65.0002051 53.7408333 64.768 53.5275 64.0902564 53.7916667 64.0361026 53.3658333 63.9532308 52.7191667 64.6334359 52.3133333 64.8508718 51.7116667 65.0732308 51.095 64.9312821 51.175 65.0937436 50.4241667 66.3589744 50.0583333 66.9243077 47.045 66.110359 46.9691667 66.5058462 44.7716667 66.8841026 41.4433333 65.3694359 40.5725 65.0510769 40.3891667 64.6711795 40.4916667 64.4061538 40.3466667 64.254359 40.2641667 64.1124103 39.9441667 63.9614359 39.82 63.2443077 39.2333333 61.3152821 38.895 60.1829744 38.8925 59.0498462 38.895 57.8642051 39.2333333 57.1462564 39.82L55.7374359 40.5716667C54.2211282 41.4425 54.6002051 44.7708333 54.9973333 46.9683333 54.1842051 47.0441667 54.7716923 50.0625 56.0369231 50.43 56.1993846 51.1791667 56.0361026 51.0908333 56.2592821 51.7075 56.478359 52.3133333 57.1569231 52.7166667 57.0732308 53.3625 57.0207179 53.7883333 56.3413333 53.5233333 56.1099487 53.7366667 55.5249231 54.275 55.4568205 55.0391667 54.9989744 55.3933333 54.5435897 55.7433333 53.6828718 55.9516667 52.9247179 56.295 51.3723077 56.9983333 47.9638974 58.13 47.4412308 59.6816667 47.1458462 60.56 47.3173333 61.2666667 47.2771282 62.2383333L47.2771282 62.2466667C47.2771282 63.5116667 53.056 64.5366667 60.1846154 64.5366667 67.3132308 64.5366667 73.8338462 63.5116667 73.8338462 62.2466667L73.8338462 62.2383333C73.792 61.2708333 73.9651282 60.5633333 73.6681026 59.685z"/>
      <polygon points="48.885 47.3 38.519 42.39 38.519 30.777 35.326 30.777 35.326 42.39 24.962 47.3 26.311 50.239 36.923 45.215 47.534 50.239"/>
    </g>
  </g>
</svg>
