<svg xmlns="http://www.w3.org/2000/svg" width="40" height="56" viewBox="0 0 40 56">
  <g fill="none" fill-rule="evenodd" transform="translate(-1)">
    <rect width="40" height="56" x="1" fill="#F6F6F6"/>
    <polygon fill="#E2A94A" stroke="#E2A94A" points="20.687 25 25.374 32.515 16 32.515" transform="matrix(1 0 0 -1 0 57.515)"/>
    <path stroke="#E2A94A" d="M1.40604027,0.536764706 L1.40604027,55.2867647" stroke-linecap="square"/>
  </g>
</svg>
