<?xml version="1.0" encoding="UTF-8" standalone="no"?>
<svg width="233px" height="148px" viewBox="0 0 233 148" version="1.1" xmlns="http://www.w3.org/2000/svg" xmlns:xlink="http://www.w3.org/1999/xlink" xmlns:sketch="http://www.bohemiancoding.com/sketch/ns">
    <!-- Generator: Sketch 3.3.2 (12043) - http://www.bohemiancoding.com/sketch -->
    <title>image</title>
    <desc>Created with Sketch.</desc>
    <defs></defs>
    <g id="Page-1" stroke="none" stroke-width="1" fill="none" fill-rule="evenodd" sketch:type="MSPage">
        <g id="page-services" sketch:type="MSArtboardGroup" transform="translate(-437.000000, -2092.000000)">
            <g id="Services" sketch:type="MSLayerGroup" transform="translate(436.000000, 112.000000)">
                <g id="Services-non-activés" transform="translate(0.000000, 879.000000)" sketch:type="MSShapeGroup">
                    <g id="Visite-virtuelle" transform="translate(0.000000, 1100.000000)">
                        <g id="picto">
                            <g id="image" transform="translate(1.000000, 1.000000)">
                                <rect id="Rectangle-209" fill="#FFFFFF" x="0" y="0" width="233" height="148"></rect>
                                <rect id="Rectangle-151" fill="#D8D8D8" x="44" y="26" width="145" height="90" rx="3"></rect>
                                <g id="picto-copy" transform="translate(48.000000, 32.000000)">
                                    <rect id="Rectangle-60" stroke="#D0D0D0" fill="#FFFFFF" x="0.841796875" y="0" width="135.396484" height="79"></rect>
                                    <g id="background-copy" transform="translate(2.000000, 7.000000)">
                                        <rect id="Rectangle-91" fill="#E7DDBF" x="0" y="51.12" width="133" height="19.88"></rect>
                                        <g id="couch" transform="translate(59.364807, 39.192000)">
                                            <rect id="Rectangle-93" fill="#9D664F" x="0" y="7.384" width="67.9270386" height="11.36" rx="2"></rect>
                                            <rect id="Rectangle-93-Copy" fill="#9D664F" x="5.70815451" y="0" width="57.0815451" height="17.04" rx="2"></rect>
                                            <rect id="Rectangle-95" fill="#B97E61" x="6.84978541" y="1.136" width="26.8283262" height="9.088"></rect>
                                            <rect id="Rectangle-95-Copy-2" fill="#B97E61" x="6.84978541" y="10.792" width="26.8283262" height="1.136"></rect>
                                            <rect id="Rectangle-95-Copy-3" fill="#B97E61" x="34.248927" y="10.792" width="27.3991416" height="1.136"></rect>
                                            <rect id="Rectangle-95-Copy" fill="#B97E61" x="34.248927" y="1.136" width="27.3991416" height="9.088"></rect>
                                        </g>
                                        <g id="window" transform="translate(23.974249, 16.472000)" stroke="#D0D0D0">
                                            <rect id="Rectangle-92" fill="#40B3FF" x="0" y="0" width="17.1244635" height="22.72"></rect>
                                            <path d="M0.285407725,5.964 L16.8390558,5.964" id="Line" stroke-linecap="square"></path>
                                            <path d="M0.285407725,11.644 L16.8390558,11.644" id="Line-Copy-12" stroke-linecap="square"></path>
                                            <path d="M0.285407725,17.324 L16.8390558,17.324" id="Line-Copy-13" stroke-linecap="square"></path>
                                        </g>
                                        <g id="clock" transform="translate(13.128755, 0.000000)">
                                            <ellipse id="Oval-4" stroke="#F1C40F" fill="#FFFFFF" cx="5.42274678" cy="5.396" rx="5.42274678" ry="5.396"></ellipse>
                                            <path d="M5.42274678,5.396 L5.42274678,8.804" id="Line" stroke="#F1C40F" stroke-linecap="square"></path>
                                            <path d="M5.42274678,5.396 L7.13519313,5.396" id="Line" stroke="#F39C12" stroke-linecap="square"></path>
                                        </g>
                                        <g id="book-shelf" transform="translate(89.618026, 9.656000)" stroke-linecap="square">
                                            <path d="M0.285407725,6.816 L31.6802575,6.816" id="Line" stroke="#D0D0D0" stroke-width="2"></path>
                                            <g id="books" transform="translate(0.570815, 0.000000)">
                                                <path d="M0.856223176,5.964 L0.856223176,0.25567065" id="Line" stroke="#9B59B6"></path>
                                                <path d="M25.972103,5.964 L25.972103,0.25567065" id="Line-Copy-17" stroke="#F1C40F"></path>
                                                <path d="M13.9849785,5.964 L13.9849785,0.25567065" id="Line-Copy-21" stroke="#E74C3C"></path>
                                                <path d="M1.99785408,5.964 L1.99785408,2.556" id="Line-Copy-14" stroke="#E74C3C"></path>
                                                <path d="M27.1137339,5.964 L27.1137339,3.692" id="Line-Copy-18" stroke="#E74C3C"></path>
                                                <path d="M12.8433476,5.964 L12.8433476,3.692" id="Line-Copy-22" stroke="#9B59B6"></path>
                                                <path d="M3.13948498,5.964 L3.13948498,1.42" id="Line-Copy-15" stroke="#F1C40F"></path>
                                                <path d="M29.3969957,5.964 L29.3969957,1.42" id="Line-Copy-19" stroke="#9B59B6"></path>
                                                <path d="M16.2682403,5.964 L16.2682403,1.42" id="Line-Copy-23" stroke="#9B59B6"></path>
                                                <path d="M4.28111588,5.964 L4.28111588,3.692" id="Line-Copy-16" stroke="#3498DB"></path>
                                                <path d="M28.2553648,5.964 L28.2553648,2.556" id="Line-Copy-20" stroke="#3498DB"></path>
                                                <path d="M15.1266094,5.964 L15.1266094,2.556" id="Line-Copy-24" stroke="#F1C40F"></path>
                                            </g>
                                        </g>
                                    </g>
                                </g>
                                <path d="M32,122.009254 C32,120.347289 33.343635,119 35.0047042,119 L198.995296,119 C200.654748,119 202,120.34967 202,122.009254 L202,122.990746 C202,124.652711 200.656365,126 198.995296,126 L35.0047042,126 C33.3452519,126 32,124.65033 32,122.990746 L32,122.009254 Z M103,119 L128,119 L128,120 C128,120.552285 127.544737,121 127.004543,121 L103.995457,121 C103.445681,121 103,120.556135 103,120 L103,119 Z" id="Rectangle-151-Copy" stroke="#D0D0D0" fill="#D0D0D0"></path>
                                <g id="mouse" transform="translate(163.566987, 68.250000) rotate(-30.000000) translate(-163.566987, -68.250000) translate(161.066987, 64.250000)" stroke="#686868">
                                    <polygon id="Triangle-1" fill="#686868" points="3 -1.13686838e-13 5 5 1 5 "></polygon>
                                    <path d="M3,5.5 L3,7.5" id="Line" stroke-linecap="square"></path>
                                </g>
                            </g>
                        </g>
                    </g>
                </g>
            </g>
        </g>
    </g>
</svg>