<?xml version="1.0" encoding="UTF-8" standalone="no"?>
<svg width="233px" height="148px" viewBox="0 0 233 148" version="1.1" xmlns="http://www.w3.org/2000/svg" xmlns:xlink="http://www.w3.org/1999/xlink" xmlns:sketch="http://www.bohemiancoding.com/sketch/ns">
    <!-- Generator: Sketch 3.3.2 (12043) - http://www.bohemiancoding.com/sketch -->
    <title>image</title>
    <desc>Created with Sketch.</desc>
    <defs>
        <path id="path-1" d="M112.882434,109.978391 C112.882434,111.493048 111.654558,112.720924 110.139902,112.720924 L2.96767677,112.720924 C1.45273485,112.720924 0.224858586,111.493048 0.224858586,109.978391 L0.224858586,2.80588131 C0.224858586,1.29122475 1.45273485,0.0633484848 2.96767677,0.0633484848 L110.139902,0.0633484848 C111.654558,0.0633484848 112.882434,1.29122475 112.882434,2.80588131 L112.882434,109.978391"></path>
    </defs>
    <g id="Page-1" stroke="none" stroke-width="1" fill="none" fill-rule="evenodd" sketch:type="MSPage">
        <g id="page-services" sketch:type="MSArtboardGroup" transform="translate(-437.000000, -1917.000000)">
            <g id="Services" sketch:type="MSLayerGroup" transform="translate(436.000000, 112.000000)">
                <g id="Services-non-activés" transform="translate(0.000000, 879.000000)">
                    <g id="Immopad" transform="translate(0.000000, 925.000000)">
                        <g id="picto">
                            <g id="image" transform="translate(1.000000, 1.000000)">
                                <rect id="Rectangle-208" fill="#FFFFFF" sketch:type="MSShapeGroup" x="0" y="0" width="233" height="148"></rect>
                                <g id="Hand-Reaching-Vector" transform="translate(69.000000, 14.000000)">
                                    <g id="Group-45" transform="translate(0.000000, 21.000000)">
                                        <mask id="mask-2" sketch:name="Clip 21" fill="white">
                                            <use xlink:href="#path-1"></use>
                                        </mask>
                                        <g id="Clip-21"></g>
                                        <path d="M0.224858586,115.239455 C0.224858586,115.239455 41.7047045,83.9561465 44.8826869,79.1057071 C48.0603838,74.2552677 46.0532071,66.2271313 44.8826869,62.045846 C43.7118813,57.8642753 39.5303106,50.5052929 42.7082929,46.3237222 C45.8862753,42.1424369 46.5551439,38.7972374 47.558447,35.4520379 C48.5620354,32.1068384 50.9963864,26.4542702 51.5382727,23.6994672 C52.0804444,20.9446641 55.6031338,21.2154646 57.634851,24.5124394 C59.6671389,27.8091288 59.1703384,32.7317626 58.5833662,34.7637652 C57.9961086,36.796053 56.7770783,38.2410833 56.7319924,38.3766263 C56.6866212,38.5121692 56.1447348,40.5895429 55.647649,42.4862879 C55.1508485,44.3830328 55.4219343,45.9636061 55.9638207,46.9118359 C56.5057071,47.860351 58.4929091,48.8085808 60.299197,49.395553 C62.1057702,49.9828106 63.4611995,49.7117247 64.3189722,48.7634949 C65.1767449,47.8152652 68.4286338,45.1506338 68.5641768,41.3120581 C68.6997197,37.473197 70.1441793,33.2285631 71.1380657,31.5572475 C72.1313813,29.8862172 73.5316111,27.5380429 74.3896692,25.415298 C75.2474419,23.2928384 77.8221869,18.8219192 78.7704167,17.6479747 C79.7186465,16.4734596 82.4283636,15.7509444 83.6023081,18.4155758 C84.7768232,21.0802071 82.6089924,25.5962121 81.8413914,27.5380429 C81.0735051,29.4798737 79.1770455,33.047649 78.5449874,35.8926237 C77.9126439,38.7378838 77.551101,40.8603434 77.0092146,42.7117172 C76.4676136,44.5633763 76.0156136,45.2858914 76.6028712,45.9182348 C77.1904141,46.5505783 80.2608182,48.4470379 80.2608182,48.4470379 C80.2608182,48.4470379 84.3704798,42.8021742 85.4545379,39.9118283 C86.5383106,37.0214823 88.9321414,34.0406793 90.4222576,30.8795328 C91.9120884,27.7183864 92.3187172,26.2279848 92.7250606,24.8280404 C93.1319747,23.428096 94.938548,22.7506667 96.9251793,23.1119242 C98.9123813,23.4734672 99.364096,25.3699268 99.364096,27.2215859 C99.364096,29.0732449 97.6927803,32.0988485 97.1514646,34.0860505 C96.6095783,36.0732525 95.4350631,38.4665126 94.8934621,40.4086288 C94.3515758,42.3504596 92.589803,44.3376616 92.048202,45.4214343 C91.5063157,46.5052071 89.1127702,50.9310404 88.4353409,52.1052702 C87.7579116,53.2795 87.2611111,54.0451035 87.2611111,54.0451035 C87.2611111,54.0451035 89.4292273,56.3955606 89.7901995,56.3051035 C90.1514571,56.2146465 95.5258056,50.8856692 96.2483207,49.8018965 C96.9702652,48.7181237 97.5575227,45.8277778 97.7835227,44.6084621 C98.0092374,43.3891465 96.0226061,41.6730303 95.7966061,40.6343434 C95.5706061,39.5956566 95.5255202,36.2989672 97.6479798,35.8926237 C99.7707247,35.4859949 100.854783,37.8347399 102.118899,38.8280556 C103.383871,39.8216566 105.73176,41.7634874 105.23496,44.4732045 C104.738444,47.1826364 104.919073,51.6986414 104.151187,53.2795 C103.383871,54.8597879 102.977242,55.6730455 100.447869,57.6599621 C97.9187803,59.6468788 93.7646035,63.5759116 93.7646035,63.8469975 C93.7646035,64.1180833 94.4868333,65.2469419 94.8480909,64.8856843 C95.2090631,64.5241414 96.6546641,61.1823662 97.4222652,60.6404798 C98.1901515,60.0985934 102.209356,56.9828182 102.570328,56.5311035 C102.931871,56.0793889 104.286444,57.1631616 104.964159,57.9761338 C105.641303,58.7888207 106.67999,60.5951086 104.873702,63.4857399 C103.067129,66.3758005 100.177068,72.2015783 99.7707247,72.9694646 C99.3646667,73.7370657 98.1444949,76.2207828 95.932149,78.1175278 C93.7192323,80.0142727 92.4545455,80.6919874 92.4545455,80.6919874 C92.4545455,80.6919874 88.6613409,85.5241641 86.5383106,88.2338813 C84.415851,90.9433131 76.1511566,95.4593182 74.5708687,96.6786338 C72.9902955,97.8979495 69.9644066,99.1169798 69.9644066,99.1169798 C69.9644066,99.1169798 63.3710278,105.439558 62.0161692,106.92996 C60.6613106,108.420076 52.8489015,115.239455 52.8489015,115.239455 L0.224858586,115.239455" id="Fill-20" fill="#EEEEEE" sketch:type="MSShapeGroup" mask="url(#mask-2)"></path>
                                        <path id="Fill-22" fill="#88242A" sketch:type="MSShapeGroup" mask="url(#mask-2)"></path>
                                        <path d="M61.5561793,49.6766263 C60.9121364,49.6560808 55.9435606,48.6239571 52.9176717,48.6239571 C52.5364394,48.6239571 52.1857399,48.6402222 51.8789848,48.6770328 C51.3059949,48.745803 50.7452753,48.774053 50.2490455,48.774053 C48.3642854,48.774053 47.4129167,48.3679949 50.2847146,48.237303 C53.9124141,48.0723687 53.4726843,45.543851 53.4726843,43.8397197 C53.4726843,42.1358737 54.6269394,38.122947 54.6269394,36.9686919 C54.6269394,35.8144369 51.0543131,34.7697576 49.8449848,34.1650934 C49.6155606,34.0506667 49.5661944,34.0013005 49.6549394,34.0013005 C50.0341742,34.0013005 52.9393586,34.9053005 55.1220278,35.4845682 C55.544351,35.5967121 55.8636616,35.6586338 56.1042146,35.6586338 C57.3971515,35.6583485 56.4004116,33.862904 56.7710859,28.3935328 C57.098101,23.5716288 54.5093737,22.2438788 53.1590808,21.8797677 C53.3348586,21.8392475 53.519197,21.818702 53.7098131,21.818702 C54.9787803,21.818702 56.5279646,22.7164242 57.634851,24.5124394 C58.7423081,26.3087399 59.0987146,28.5881439 59.0987146,30.6192904 C59.099,32.3157172 58.8504571,33.8389343 58.5833662,34.7637652 C57.9961086,36.796053 56.7770783,38.2410833 56.7319924,38.3766263 C56.6866212,38.5121692 56.1447348,40.5895429 55.647649,42.4862879 C55.4653081,43.1825505 55.3865505,43.8365808 55.3865505,44.4321136 C55.3865505,45.4585303 55.6208258,46.3117374 55.9638207,46.9118359 C56.5057071,47.860351 58.4929091,48.8085808 60.299197,49.395553 C60.3046187,49.3975505 60.3100404,49.3992626 60.3151768,49.4009747 C60.4595657,49.4474874 60.601101,49.4885783 60.7397828,49.5242475 C60.7409242,49.5245328 60.742351,49.5248182 60.7434924,49.5251035 C60.747202,49.5262449 60.7509116,49.527101 60.7546212,49.5279571 C60.7600429,49.5293838 60.76575,49.5308106 60.7711717,49.5322374 C60.7714571,49.5322374 60.7717424,49.5325227 60.7720278,49.5325227 C61.0448258,49.6012929 61.3064949,49.6492323 61.5561793,49.6766263" id="Fill-23" fill="#D4D4D4" sketch:type="MSShapeGroup" mask="url(#mask-2)"></path>
                                        <path d="M76.3312146,45.1044066 C76.3708788,44.5765025 76.6727828,43.8619773 77.0092146,42.7117172 C77.551101,40.8603434 77.9126439,38.7378838 78.5449874,35.8926237 C79.1770455,33.047649 81.0735051,29.4798737 81.8413914,27.5380429 C82.4514773,25.9945657 83.9464444,22.8240025 83.9441616,20.250399 C83.9464444,22.8240025 82.4514773,25.9945657 81.8413914,27.5380429 C81.0735051,29.4798737 79.1770455,33.047649 78.5449874,35.8926237 C77.9126439,38.7378838 77.551101,40.8603434 77.0092146,42.7117172 C76.6727828,43.8619773 76.3717348,44.5759318 76.3317854,45.1038359 L76.3312146,45.1044066 M83.6023081,18.4155758 C83.6003106,18.4107247 83.5980278,18.4058737 83.5960303,18.4010227 C83.5980278,18.4058737 83.6003106,18.4107247 83.6023081,18.4155758 M83.5906086,18.3887525 C83.5900379,18.3878965 83.5900379,18.3873258 83.5894672,18.3867551 C83.5900379,18.3873258 83.5903232,18.3878965 83.5906086,18.3887525 M83.5837601,18.3733434 C83.5834747,18.3730581 83.5831894,18.3727727 83.5831894,18.3724874 C83.5831894,18.3727727 83.5834747,18.3730581 83.5837601,18.3733434 M83.5769116,18.3585051 L83.5766263,18.3582197 L83.5769116,18.3585051" id="Fill-24" fill="#88242A" sketch:type="MSShapeGroup" mask="url(#mask-2)"></path>
                                        <path d="M76.0415808,45.2505076 C75.8820682,45.2505076 75.7927525,45.1038359 75.7927525,45.1038359 C75.7927525,45.1038359 74.3060606,44.6090328 73.3718131,44.1145152 C72.866452,43.8471389 71.7187601,43.8046212 70.7014747,43.8046212 C70.464346,43.8046212 70.234351,43.806904 70.0211919,43.8091869 C69.8077475,43.8114697 69.6114242,43.8137525 69.4416389,43.8137525 C69.1625631,43.8137525 68.9553965,43.8074747 68.8640833,43.7846465 C68.4246389,43.6747854 72.5468561,43.7298586 73.2068788,43.4547778 C73.8663308,43.1802677 73.8663308,42.1355884 74.5260682,40.1566616 C75.1855202,38.1780202 75.6806086,36.8585455 75.5156742,35.7476641 C75.3510253,34.6367828 73.0422298,34.1650934 72.3277045,34.0001591 C72.2295429,33.9776162 72.2089975,33.9684848 72.2509444,33.9684848 C72.3411162,33.9684848 72.7214924,34.0112879 73.2379823,34.0540909 C73.7547576,34.0971793 74.4073611,34.1399823 75.041702,34.1399823 C75.620399,34.1399823 76.1839722,34.1043131 76.6148561,34.0001591 C78.2088409,33.6155025 78.5940682,28.2285985 78.6488561,27.6787222 C78.7042146,27.1291313 76.2852727,26.6343283 75.295952,26.4693939 C74.998899,26.4197424 75.0482652,26.4100404 75.2856793,26.4100404 C75.3647222,26.4100404 75.464596,26.4111818 75.5793081,26.4120379 C75.6945909,26.4131793 75.8252828,26.4143207 75.9648207,26.4143207 C76.6596566,26.4143207 77.5810631,26.3869268 77.9971086,26.1945985 C78.8297702,25.8096566 81.2321616,23.9408763 82.4414899,21.2474242 C83.3671768,19.1857449 82.0074672,17.3512071 81.318053,16.6030101 C82.1766818,16.6769167 83.0330278,17.1694369 83.5766263,18.3582197 L83.5769116,18.3585051 C83.5789091,18.3630707 83.5811919,18.3676364 83.5831894,18.3724874 C83.5831894,18.3727727 83.5834747,18.3730581 83.5837601,18.3733434 C83.5854722,18.3779091 83.5874697,18.3821894 83.5894672,18.3867551 C83.5900379,18.3873258 83.5900379,18.3878965 83.5906086,18.3887525 C83.5923207,18.3927475 83.5943182,18.3970278 83.5960303,18.4010227 C83.5980278,18.4058737 83.6003106,18.4107247 83.6023081,18.4155758 C83.8431465,18.9620278 83.9435909,19.5863813 83.9441616,20.250399 C83.9464444,22.8240025 82.4514773,25.9945657 81.8413914,27.5380429 C81.0735051,29.4798737 79.1770455,33.047649 78.5449874,35.8926237 C77.9126439,38.7378838 77.551101,40.8603434 77.0092146,42.7117172 C76.6727828,43.8619773 76.3708788,44.5765025 76.3312146,45.1044066 C76.2187854,45.2139823 76.1214798,45.2505076 76.0415808,45.2505076" id="Fill-25" fill="#D4D4D4" sketch:type="MSShapeGroup" mask="url(#mask-2)"></path>
                                        <path id="Fill-26" fill="#88242A" sketch:type="MSShapeGroup" mask="url(#mask-2)"></path>
                                        <path d="M87.2511237,54.0453889 C86.6749949,54.0453889 85.0690253,50.9798359 83.1563005,49.9962222 C82.5519217,49.6851869 82.5821692,49.602149 82.9471364,49.602149 C83.1563005,49.602149 83.4750404,49.6295429 83.8471414,49.6566515 C84.2192424,49.6840455 84.6449899,49.711154 85.0673131,49.711154 C85.832346,49.711154 86.5871061,49.6218384 86.996303,49.281697 C88.2521439,48.237303 90.0273283,42.3005227 90.1922626,41.7506465 C90.3569116,41.2010556 87.9388258,39.6618586 87.114154,39.3322753 C87.0171338,39.2934672 86.9834621,39.2766313 87.000298,39.2766313 C87.0536591,39.2766313 87.6206566,39.4464167 88.3043636,39.616202 C88.9880707,39.785702 89.7884874,39.9554874 90.3086869,39.9554874 C90.4955934,39.9554874 90.6462601,39.9335152 90.7424242,39.8818662 C91.4566641,39.4972096 93.9851818,34.2752399 93.9851818,33.5053561 C93.9851818,32.7360429 91.4566641,32.1310934 90.6319924,31.9113712 C90.5187071,31.8811237 90.4884596,31.8697096 90.5221313,31.8697096 C90.5766338,31.8697096 90.7989242,31.8999571 91.1076768,31.9302045 C91.4167146,31.9607374 91.8122146,31.9909848 92.2131364,31.9909848 C92.9639015,31.9909848 93.7332146,31.8842626 93.9851818,31.4716414 C94.589846,30.4823207 93.7654596,27.6787222 94.7547803,25.9745909 C95.1243131,25.3382525 95.9461313,25.1387904 96.8310126,25.1387904 C97.6705227,25.1387904 98.5665328,25.3182778 99.1868914,25.4743662 C99.3141591,26.0176793 99.3623838,26.606649 99.364096,27.1927652 L99.364096,27.1953333 L99.364096,27.2061768 L99.364096,27.2084596 L99.364096,27.2215859 C99.364096,29.0732449 97.6927803,32.0988485 97.1514646,34.0860505 C96.6095783,36.0732525 95.4350631,38.4665126 94.8934621,40.4086288 C94.3515758,42.3504596 92.589803,44.3376616 92.048202,45.4214343 C91.5063157,46.5052071 89.1127702,50.9310404 88.4353409,52.1052702 C87.7579116,53.2795 87.2611111,54.0451035 87.2611111,54.0451035 C87.2576869,54.0453889 87.254548,54.0453889 87.2511237,54.0453889" id="Fill-27" fill="#D4D4D4" sketch:type="MSShapeGroup" mask="url(#mask-2)"></path>
                                        <path d="M95.7147096,63.3422071 C96.2175025,62.3757146 96.8218813,61.237154 97.2684596,60.7760227 L97.2687449,60.7763081 L97.2912879,60.7763081 C97.4262601,60.7763081 98.1579066,60.7723131 99.1306768,60.6901313 C98.6595581,60.7429217 98.4287071,61.1332854 98.4281364,61.6198131 C97.4348207,62.2672803 96.4805985,62.8676641 95.7147096,63.3422071 M99.1823258,60.6855657 C99.1940253,60.6847096 99.2060101,60.6835682 99.2177096,60.6824268 C99.2057247,60.6838535 99.1940253,60.6847096 99.1823258,60.6855657" id="Fill-28" fill="#D4D4D4" sketch:type="MSShapeGroup" mask="url(#mask-2)"></path>
                                        <path id="Fill-29" fill="#88242A" sketch:type="MSShapeGroup" mask="url(#mask-2)"></path>
                                        <path d="M94.0077247,64.3834621 C94.0077247,64.3834621 93.380803,63.5185556 93.2703712,62.5292348 C93.1605101,61.5396288 92.8309268,59.5769672 93.2703712,59.1840354 C95.3052273,59.7193586 96.5119874,60.3303005 97.0065051,60.614798 C95.2624242,62.2027904 93.7646035,63.684346 93.7646035,63.8469975 L93.7646035,63.8495657 L93.7646035,63.8504217 L93.7646035,63.8521338 L93.7646035,63.8532753 L93.7646035,63.8549874 C93.7646035,63.8552727 93.7648889,63.8555581 93.7648889,63.8561288 L93.7648889,63.8575556 L93.7648889,63.858697 C93.7648889,63.8592677 93.7651742,63.8598384 93.7651742,63.8606944 L93.7651742,63.8615505 C93.7651742,63.8624066 93.7651742,63.8629773 93.7654596,63.8638333 L93.7654596,63.8649747 C93.7654596,63.8658308 93.7657449,63.8664015 93.7657449,63.8672576 L93.7657449,63.8686843 C93.7660303,63.8692551 93.7660303,63.8698258 93.7660303,63.8703965 C93.7660303,63.8706818 93.7660303,63.8712525 93.7663157,63.8715379 L93.7663157,63.87325 C93.766601,63.8738207 93.766601,63.8741061 93.766601,63.8746768 C93.766601,63.8752475 93.7668864,63.8758182 93.7668864,63.8761035 C93.7668864,63.8766742 93.7668864,63.8772449 93.7671717,63.8778157 L93.7671717,63.8792424 C93.7674571,63.8798131 93.7674571,63.8803838 93.7674571,63.8809545 C93.7677424,63.8815253 93.7677424,63.882096 93.7677424,63.8826667 C93.7680278,63.8835227 93.7680278,63.8846641 93.7683131,63.8855202 C93.7683131,63.8860909 93.7685985,63.8866616 93.7685985,63.886947 C93.7685985,63.887803 93.7688838,63.8883737 93.7688838,63.8889444 C93.7688838,63.8892298 93.7691692,63.8898005 93.7691692,63.8903712 C93.7691692,63.8909419 93.7694545,63.8915126 93.7694545,63.8920833 C93.7694545,63.892654 93.7697399,63.8929394 93.7697399,63.8935101 C93.7700253,63.8940808 93.7700253,63.8946515 93.7700253,63.8952222 C93.7703106,63.8957929 93.7703106,63.8963636 93.770596,63.8969343 C93.770596,63.8975051 93.770596,63.8980758 93.7708813,63.8986465 C93.7708813,63.8992172 93.7711667,63.8997879 93.7711667,63.9003586 C93.771452,63.9009293 93.771452,63.9015 93.771452,63.9020707 C93.7717374,63.9029268 93.7720227,63.9037828 93.7720227,63.9043535 C93.7723081,63.9049242 93.7723081,63.9052096 93.7723081,63.9054949 C93.7725934,63.9066364 93.7728788,63.9077778 93.7731641,63.9089192 C93.7731641,63.9092045 93.7731641,63.9094899 93.7734495,63.9097753 C93.7734495,63.9106313 93.7737348,63.9114874 93.7740202,63.9123434 C93.7740202,63.9129141 93.7743056,63.9131995 93.7743056,63.9137702 C93.7745909,63.9143409 93.7745909,63.915197 93.7748763,63.916053 C93.7748763,63.9163384 93.7751616,63.9169091 93.7751616,63.9174798 C93.775447,63.9183359 93.7757323,63.9191919 93.7760177,63.920048 L93.7760177,63.920904 C93.776303,63.9220455 93.7765884,63.9231869 93.7768737,63.9240429 C93.7771591,63.9243283 93.7771591,63.9243283 93.7771591,63.9246136 C93.8082626,64.0390404 93.894154,64.2119646 94.0077247,64.3834621" id="Fill-30" fill="#B6B6B6" sketch:type="MSShapeGroup" mask="url(#mask-2)"></path>
                                        <path d="M102.946139,55.3351869 L102.946139,55.3351869 C103.468621,54.6788737 103.763962,54.0767778 104.151187,53.2795 C104.919073,51.6986414 104.738444,47.1826364 105.23496,44.4732045 C105.235816,44.4683535 105.236672,44.4635025 105.237528,44.4586515 C105.236672,44.4635025 105.235816,44.4683535 105.23496,44.4732045 C104.738444,47.1826364 104.919073,51.6986414 104.151187,53.2795 C103.763962,54.0767778 103.468621,54.6788737 102.946139,55.3351869 M105.238098,44.4555126 C105.238955,44.4512323 105.239811,44.4466667 105.240381,44.4423864 C105.239811,44.4466667 105.238955,44.4512323 105.238098,44.4555126 M105.240667,44.4412449 C105.241523,44.4361086 105.242379,44.4312576 105.243235,44.4261212 C105.242379,44.4312576 105.241523,44.4361086 105.240667,44.4412449 M105.24352,44.4244091 C105.244376,44.4198434 105.245232,44.4155631 105.245803,44.4112828 C105.245232,44.4155631 105.244376,44.4201288 105.24352,44.4244091 M105.246088,44.409 C105.247801,44.3990126 105.249513,44.3890253 105.251225,44.3790379 C105.249513,44.3890253 105.247801,44.3990126 105.246088,44.409 M105.251225,44.3776111 C105.252937,44.3673384 105.254649,44.357351 105.256076,44.3473636 C105.254649,44.357351 105.252937,44.3676237 105.251225,44.3776111 M105.256361,44.3459369 C105.260356,44.3199697 105.264066,44.2940025 105.26749,44.2683207 C105.264066,44.2940025 105.260356,44.3199697 105.256361,44.3459369 M105.26749,44.2683207 C105.288891,44.1068106 105.300306,43.9478687 105.302588,43.7920657 C105.300306,43.9478687 105.288891,44.1068106 105.26749,44.2683207 M105.302588,43.7914949 C105.302588,43.7815076 105.302874,43.7718056 105.302874,43.7621035 C105.302874,43.7718056 105.302588,43.7815076 105.302588,43.7914949 M105.302874,43.7606768 L105.302874,43.7472652 L105.302874,43.7606768 M105.302874,43.7461237 L105.302874,43.7324268 L105.302874,43.7461237 M105.302874,43.7295732 L105.302874,43.7184444 L105.302874,43.7295732 M105.302874,43.7153056 L105.302874,43.7018939 L105.302874,43.7153056 M105.302874,43.6996111 C105.302874,43.6961869 105.302588,43.6921919 105.302588,43.6884823 C105.302588,43.6921919 105.302874,43.6959015 105.302874,43.6996111 M105.302588,43.684202 L105.302588,43.6745 L105.302588,43.684202 M105.302303,43.669649 L105.302303,43.6588056 L105.302303,43.669649 M105.302018,43.6530985 L105.302018,43.6456793 L105.302018,43.6530985 M105.301732,43.6396869 C105.301732,43.6359773 105.301732,43.6322677 105.301447,43.6285581 C105.301732,43.6322677 105.301732,43.6359773 105.301732,43.6396869 M97.6071742,43.6354066 L97.6071742,43.6354066 C97.1403359,42.5915833 95.9803737,41.4310505 95.7997449,40.6483258 C95.9806591,41.4310505 97.1406212,42.5915833 97.6071742,43.6354066 M105.301447,43.6214242 C105.301162,43.6197121 105.301162,43.618 105.301162,43.6162879 C105.301162,43.618 105.301162,43.6197121 105.301447,43.6214242 M105.300876,43.6085833 L105.300876,43.604303 L105.300876,43.6085833 M105.300306,43.5888939 C105.300306,43.5880379 105.300306,43.5874672 105.30002,43.5863258 C105.300306,43.5871818 105.300306,43.5880379 105.300306,43.5888939 M105.299735,43.5771944 L105.299735,43.5754823 L105.299735,43.5771944 M95.7991742,40.6457576 C95.7988889,40.6446162 95.7986035,40.6431894 95.7983182,40.6417626 C95.7986035,40.6431894 95.7988889,40.6446162 95.7991742,40.6457576" id="Fill-31" fill="#D4D4D4" sketch:type="MSShapeGroup" mask="url(#mask-2)"></path>
                                        <path d="M55.7115682,112.720924 L55.7115682,112.720924 C58.0882778,110.616442 61.2060505,107.820833 62.0161692,106.92996 C63.3710278,105.439558 69.9644066,99.1169798 69.9644066,99.1169798 C69.9644066,99.1169798 72.9902955,97.8979495 74.5708687,96.6786338 C76.1511566,95.4593182 84.415851,90.9433131 86.5383106,88.2338813 C88.6613409,85.5241641 92.4545455,80.6919874 92.4545455,80.6919874 C92.4545455,80.6919874 93.7192323,80.0142727 95.932149,78.1175278 C98.1444949,76.2207828 99.3646667,73.7370657 99.7707247,72.9694646 C100.177068,72.2015783 103.067129,66.3758005 104.873702,63.4857399 C105.621614,62.2889672 105.881856,61.2779596 105.881856,60.4464394 C105.881856,61.2779596 105.621614,62.2889672 104.873702,63.4857399 C103.067129,66.3758005 100.177068,72.2015783 99.7707247,72.9694646 C99.3646667,73.7370657 98.1444949,76.2207828 95.932149,78.1175278 C93.7192323,80.0142727 92.4545455,80.6919874 92.4545455,80.6919874 C92.4545455,80.6919874 88.6613409,85.5241641 86.5383106,88.2338813 C84.415851,90.9433131 76.1511566,95.4593182 74.5708687,96.6786338 C72.9902955,97.8979495 69.9644066,99.1169798 69.9644066,99.1169798 C69.9644066,99.1169798 63.3710278,105.439558 62.0161692,106.92996 C61.2060505,107.820833 58.0882778,110.616442 55.7115682,112.720924 M94.6837273,64.9561667 C94.6671768,64.9561667 94.6500556,64.9544545 94.6329343,64.9513157 C94.6320783,64.9504596 94.6315076,64.9496035 94.6306515,64.9487475 C94.6491995,64.9524571 94.6677475,64.9544545 94.6857247,64.9544545 C94.7388005,64.9544545 94.788452,64.937904 94.8329672,64.8996667 C94.787596,64.9387601 94.7373737,64.9561667 94.6837273,64.9561667 M104.957025,57.9675732 C104.955598,57.9658611 104.954172,57.964149 104.952745,57.9624369 C104.954172,57.964149 104.955598,57.9658611 104.957025,57.9675732 M104.949891,57.9590126 C104.948465,57.9573005 104.946753,57.955303 104.94504,57.9533056 C104.946753,57.955303 104.948465,57.9573005 104.949891,57.9590126 M104.942758,57.9507374 C104.941045,57.9487399 104.939333,57.9467424 104.937621,57.9447449 C104.939333,57.9467424 104.941045,57.9487399 104.942758,57.9507374 M104.935909,57.9421768 C104.933912,57.9401793 104.932199,57.9381818 104.930487,57.935899 C104.932199,57.9381818 104.933912,57.9401793 104.935909,57.9421768 M104.929346,57.9347576 C104.926207,57.931048 104.923068,57.9273384 104.919929,57.9236288 C104.923068,57.9273384 104.926207,57.931048 104.929346,57.9347576 M104.915934,57.9190631 C104.914793,57.9179217 104.913652,57.9164949 104.91251,57.9150682 C104.913652,57.9164949 104.914793,57.9179217 104.915934,57.9190631 M104.907944,57.9096465 C104.907088,57.9087904 104.906232,57.907649 104.905376,57.9067929 C104.906232,57.907649 104.907088,57.9087904 104.907944,57.9096465 M104.898813,57.8993737 C104.898528,57.898803 104.898242,57.8985177 104.897957,57.8982323 C104.898242,57.8985177 104.898528,57.898803 104.898813,57.8993737" id="Fill-34" fill="#D4D4D4" sketch:type="MSShapeGroup" mask="url(#mask-2)"></path>
                                        <path d="M55.7115682,112.720924 L48.090346,112.720924 C51.5959141,109.918182 55.5186692,106.858621 57.7601212,105.294598 C62.4875732,101.996197 65.6758283,97.104096 66.0604848,94.9602348 C66.4454268,92.8166591 58.9143763,83.0324571 58.199851,81.7129823 C58.1322222,81.5879975 58.1108207,81.5297854 58.1316515,81.5297854 C58.3288308,81.5297854 62.3594495,86.8753131 66.3903535,90.508149 C69.2929697,93.1239848 69.6727753,93.7543308 71.0167904,93.7543308 C71.7344545,93.7543308 72.7271995,93.5745581 74.5257828,93.4216086 C79.6929646,92.9818788 80.352702,90.2884268 82.8258611,88.4744343 C85.2998763,86.6601566 89.9171818,81.878202 90.3372222,80.0642096 C90.7578333,78.2502172 87.4982399,70.9942475 86.8387879,70.0049268 C86.1796212,69.0156061 83.5406717,65.1125404 81.0675126,62.5840227 C78.5934975,60.0555051 77.8789722,54.2285859 77.6589646,53.5691338 C77.6367071,53.5015051 77.6307146,53.4698308 77.6392753,53.4698308 C77.7126111,53.4698308 78.8751414,55.9167374 79.4178838,58.1864394 C80.022548,60.7149571 81.2318763,61.4845556 83.1557298,63.9032121 C85.0798687,66.322154 86.6738535,68.2457222 89.7434015,71.3241162 C92.8129495,74.4022247 91.8410354,74.2923636 92.6106338,76.7110202 C92.9296591,77.7137525 93.324303,78.074154 93.8051237,78.0738687 C94.4845505,78.0738687 95.3363308,77.3547778 96.3912828,76.7110202 C98.1930051,75.611553 97.7778157,73.3033283 97.6491212,72.4235833 C97.5198561,71.5438384 95.9638232,68.0810732 95.3594444,66.8166717 C94.8729167,65.7996717 94.8378182,65.1698965 94.6329343,64.9513157 C94.6500556,64.9544545 94.6671768,64.9561667 94.6837273,64.9561667 C94.7373737,64.9561667 94.787596,64.9387601 94.8329672,64.8996667 C94.8381035,64.895101 94.8429545,64.8905354 94.8480909,64.8856843 C94.8709192,64.8631414 94.8971717,64.828899 94.9279899,64.7849545 C95.0795126,64.8049293 95.2230455,64.8520126 95.3040859,64.9476061 C95.5597626,65.2483687 97.9065101,69.9803864 98.2343813,69.9798157 C98.2592071,69.9798157 98.2726187,69.9527071 98.2726187,69.8950657 C98.2726187,69.0706793 98.8222096,66.1569343 99.364096,65.332548 C99.6528737,64.8931035 100.41648,64.8437374 101.186934,64.8437374 C101.298222,64.8437374 101.40951,64.8448788 101.519657,64.8460202 C101.630374,64.8468763 101.739664,64.8480177 101.846101,64.8480177 C102.278126,64.8480177 102.665636,64.8308965 102.913894,64.7275985 C103.707177,64.3977298 100.526341,64.1782929 99.364096,63.3422071 C98.7451641,62.8967702 98.4275657,62.191947 98.4281364,61.6198131 C98.9332121,61.2908005 99.4482753,60.9495177 99.9539217,60.6062374 C100.413912,60.5508788 100.900725,60.4775429 101.386682,60.3808081 C103.437232,59.9718965 105.554556,58.910096 105.554556,58.910096 C105.554556,58.910096 105.203571,58.3938914 104.679947,57.6608182 C104.757278,57.7407172 104.830328,57.8203308 104.897957,57.8982323 C104.898242,57.8985177 104.898528,57.898803 104.898813,57.8993737 C104.901096,57.9016566 104.903093,57.9042247 104.905376,57.9067929 C104.906232,57.907649 104.907088,57.9087904 104.907944,57.9096465 C104.909371,57.9116439 104.911083,57.9133561 104.91251,57.9150682 C104.913652,57.9164949 104.914793,57.9179217 104.915934,57.9190631 C104.917361,57.9207753 104.918503,57.922202 104.919929,57.9236288 C104.923068,57.9273384 104.926207,57.931048 104.929346,57.9347576 C104.929631,57.9353283 104.930202,57.9356136 104.930487,57.935899 C104.932199,57.9381818 104.933912,57.9401793 104.935909,57.9421768 C104.93648,57.9430328 104.937051,57.9438889 104.937621,57.9447449 C104.939333,57.9467424 104.941045,57.9487399 104.942758,57.9507374 C104.943614,57.9515934 104.94447,57.9524495 104.94504,57.9533056 C104.946753,57.955303 104.948465,57.9573005 104.949891,57.9590126 C104.951033,57.960154 104.951889,57.9612955 104.952745,57.9624369 C104.954172,57.964149 104.955598,57.9658611 104.957025,57.9675732 C104.959308,57.9704268 104.961876,57.9732803 104.964159,57.9761338 C105.360801,58.4523889 105.881856,59.2696414 105.881856,60.4464394 C105.881856,61.2779596 105.621614,62.2889672 104.873702,63.4857399 C103.067129,66.3758005 100.177068,72.2015783 99.7707247,72.9694646 C99.3646667,73.7370657 98.1444949,76.2207828 95.932149,78.1175278 C93.7192323,80.0142727 92.4545455,80.6919874 92.4545455,80.6919874 C92.4545455,80.6919874 88.6613409,85.5241641 86.5383106,88.2338813 C84.415851,90.9433131 76.1511566,95.4593182 74.5708687,96.6786338 C72.9902955,97.8979495 69.9644066,99.1169798 69.9644066,99.1169798 C69.9644066,99.1169798 63.3710278,105.439558 62.0161692,106.92996 C61.2060505,107.820833 58.0882778,110.616442 55.7115682,112.720924" id="Fill-35" fill="#D4D4D4" sketch:type="MSShapeGroup" mask="url(#mask-2)"></path>
                                        <path d="M98.4281364,61.6198131 C98.4287071,61.1332854 98.6595581,60.7429217 99.1306768,60.6901313 C99.147798,60.6887045 99.1652045,60.6869924 99.1823258,60.6855657 C99.1940253,60.6847096 99.2057247,60.6838535 99.2177096,60.6824268 C99.4516995,60.6618813 99.6985303,60.6367702 99.9539217,60.6062374 C99.4482753,60.9495177 98.9332121,61.2908005 98.4281364,61.6198131" id="Fill-36" fill="#B6B6B6" sketch:type="MSShapeGroup" mask="url(#mask-2)"></path>
                                        <path id="Fill-37" fill="#88242A" sketch:type="MSShapeGroup" mask="url(#mask-2)" d="M102.970965,55.3665758 C102.962689,55.3560177 102.954414,55.3457449 102.946139,55.3351869 C102.954414,55.3457449 102.962689,55.3560177 102.970965,55.3665758"></path>
                                        <path id="Fill-38" fill="#D0D0D0" sketch:type="MSShapeGroup" mask="url(#mask-2)" d="M100.817687,53.0032778 C100.661028,52.8857121 100.524629,52.8095227 100.414197,52.7852677 C100.524629,52.8095227 100.661313,52.8857121 100.817972,53.0032778 C100.817972,53.0032778 100.817972,53.0032778 100.817687,53.0032778"></path>
                                        <path d="M102.946139,55.3351869 C102.162558,54.338447 101.366707,53.4153283 100.817687,53.0032778 L100.817972,53.0032778 C101.366707,53.4153283 102.162843,54.338447 102.946139,55.3351869" id="Fill-39" fill="#D0D0D0" sketch:type="MSShapeGroup" mask="url(#mask-2)"></path>
                                        <path id="Fill-40" fill="#EDB17B" sketch:type="MSShapeGroup" mask="url(#mask-2)"></path>
                                        <path id="Fill-42" fill="#88242A" sketch:type="MSShapeGroup" mask="url(#mask-2)" d="M94.4454571,64.8648535 L94.4443157,64.8648535 C94.4240556,64.8508712 94.4037955,64.8354621 94.3835354,64.8186263 C94.3838207,64.8186263 94.3843914,64.8183409 94.3849621,64.8180556 L94.4454571,64.8648535"></path>
                                        <path id="Fill-43" fill="#EDB17B" sketch:type="MSShapeGroup" mask="url(#mask-2)" d="M94.4443157,64.8648535 C94.3350253,64.8591465 94.3304596,64.838601 94.3835354,64.8186263 C94.4037955,64.8354621 94.4240556,64.8508712 94.4443157,64.8648535"></path>
                                    </g>
                                    <g id="ipad" transform="translate(52.500000, 63.500000) rotate(-270.000000) translate(-52.500000, -63.500000) translate(-10.500000, 18.500000)" sketch:type="MSShapeGroup">
                                        <rect id="Rectangle-139" stroke="#D0D0D0" fill="#FFFFFF" x="1" y="0" width="125" height="90" rx="4"></rect>
                                        <circle id="Oval-8" stroke="#D4D4D4" fill="#FFFFFF" cx="119.5" cy="44.5" r="2.5"></circle>
                                        <circle id="Oval-7" fill="#D4D4D4" cx="7" cy="45" r="1"></circle>
                                        <g id="screen" transform="translate(12.000000, 4.000000)">
                                            <g id="ad" transform="translate(8.000000, 15.000000)">
                                                <rect id="Rectangle-142" fill="#DFDFDF" x="1.59872116e-14" y="49" width="15" height="15"></rect>
                                                <path d="M2,45 L2,0.818555921" id="Line" stroke="#DFDFDF" stroke-linecap="square"></path>
                                                <path d="M5,45 L5,21" id="Line-Copy-34" stroke="#DFDFDF" stroke-linecap="square"></path>
                                                <path d="M8,45 L8,21" id="Line-Copy-35" stroke="#DFDFDF" stroke-linecap="square"></path>
                                            </g>
                                            <g id="ad-copy" transform="translate(27.000000, 15.000000)">
                                                <rect id="Rectangle-142" fill="#DFDFDF" x="1.59872116e-14" y="49" width="15" height="15"></rect>
                                                <path d="M2,45 L2,0.818555921" id="Line" stroke="#DFDFDF" stroke-linecap="square"></path>
                                                <path d="M5,45 L5,21" id="Line-Copy-34" stroke="#DFDFDF" stroke-linecap="square"></path>
                                                <path d="M8,45 L8,21" id="Line-Copy-35" stroke="#DFDFDF" stroke-linecap="square"></path>
                                            </g>
                                            <g id="ad-copy-2" transform="translate(46.000000, 15.000000)">
                                                <rect id="Rectangle-142" fill="#DFDFDF" x="1.59872116e-14" y="49" width="15" height="15"></rect>
                                                <path d="M2,45 L2,0.818555921" id="Line" stroke="#DFDFDF" stroke-linecap="square"></path>
                                                <path d="M5,45 L5,21" id="Line-Copy-34" stroke="#DFDFDF" stroke-linecap="square"></path>
                                                <path d="M8,45 L8,21" id="Line-Copy-35" stroke="#DFDFDF" stroke-linecap="square"></path>
                                            </g>
                                            <g id="ad-copy-3" transform="translate(65.000000, 15.000000)">
                                                <rect id="Rectangle-142" fill="#DFDFDF" x="1.59872116e-14" y="49" width="15" height="15"></rect>
                                                <path d="M2,45 L2,0.818555921" id="Line" stroke="#DFDFDF" stroke-linecap="square"></path>
                                                <path d="M5,45 L5,21" id="Line-Copy-34" stroke="#DFDFDF" stroke-linecap="square"></path>
                                                <path d="M8,45 L8,21" id="Line-Copy-35" stroke="#DFDFDF" stroke-linecap="square"></path>
                                            </g>
                                            <g id="ad-copy-4" transform="translate(84.000000, 15.000000)">
                                                <rect id="Rectangle-142" fill="#DFDFDF" x="1.59872116e-14" y="49" width="15" height="15"></rect>
                                                <path d="M2,45 L2,0.818555921" id="Line" stroke="#DFDFDF" stroke-linecap="square"></path>
                                                <path d="M5,45 L5,21" id="Line-Copy-34" stroke="#DFDFDF" stroke-linecap="square"></path>
                                                <path d="M8,45 L8,21" id="Line-Copy-35" stroke="#DFDFDF" stroke-linecap="square"></path>
                                            </g>
                                            <rect id="Rectangle-141" fill="#D8D8D8" x="0" y="1.42108547e-14" width="5" height="82"></rect>
                                            <rect id="Rectangle-140" stroke="#E7E7E7" x="0" y="1.42108547e-14" width="102" height="82"></rect>
                                        </g>
                                    </g>
                                    <g id="Fill-33-+-Fill-41-+-Fill-44" transform="translate(89.000000, 56.000000)" sketch:type="MSShapeGroup">
                                        <path d="M16.5545556,23.910096 C16.5545556,23.910096 12.3866818,17.7769924 11.3425732,17.7769924 C10.2984646,17.7769924 8.16830051,18.3671035 6.08636111,18.3362854 C4.00442172,18.3051818 1.35177525,18.6715758 0.904626263,20.0509747 C0.456906566,21.4303737 0.792482323,23.3316843 3.84947475,24.0773131 C6.90675253,24.8226566 8.26874495,25.7763081 8.26874495,25.7763081 C8.26874495,25.7763081 10.3361313,25.7894343 12.3866818,25.3808081 C14.4372323,24.9718965 16.5545556,23.910096 16.5545556,23.910096" id="Fill-33" fill="#EEEEEE"></path>
                                        <path d="M10.1306768,25.6901313 C10.1452298,25.6884192 10.1603535,25.6869924 10.1754773,25.6861364 C10.1777601,25.685851 10.1800429,25.685851 10.1823258,25.6855657 C10.1652045,25.6869924 10.147798,25.6887045 10.1306768,25.6901313 M10.2177096,25.6824268 C11.3046212,25.5705682 13.4065354,23.8410404 13.834851,22.9116439 C13.9096136,22.7495631 13.9301591,22.6827904 13.9007677,22.6827904 C13.8317121,22.6827904 13.4875758,23.0483283 12.9154419,23.4138662 C12.3433081,23.7791187 11.5428914,24.1446566 10.5615606,24.1446566 C10.5070581,24.1446566 10.4516995,24.1435152 10.3960556,24.1412323 C7.91005556,24.037649 6.85396212,23.571096 4.04808081,22.4168409 C2.32483081,21.7080227 1.47276515,20.5226641 1.07070202,19.7131162 C1.78066162,18.6567374 3.99186616,18.3342879 5.8475202,18.3342879 C5.92770455,18.3342879 6.00760354,18.3348586 6.08636111,18.3362854 C6.13943687,18.3368561 6.19251263,18.3374268 6.24587374,18.3374268 C8.27644949,18.3374268 10.3252879,17.7769924 11.3425732,17.7769924 L11.3465682,17.7769924 L11.3477096,17.7769924 L11.3508485,17.7769924 C11.3511338,17.7772778 11.3514192,17.7772778 11.3517045,17.7772778 L11.3554141,17.7772778 L11.3565556,17.7772778 C11.357697,17.7772778 11.358553,17.7775631 11.3596944,17.7775631 L11.3608359,17.7775631 C11.3619773,17.7775631 11.363404,17.7778485 11.3645455,17.7778485 L11.3656869,17.7778485 C11.3668283,17.7781338 11.3676843,17.7781338 11.3685404,17.7781338 C11.3691111,17.7781338 11.3696818,17.7784192 11.3699672,17.7784192 C11.3711086,17.7784192 11.3719646,17.7784192 11.3731061,17.7787045 L11.3745328,17.7787045 C11.3756742,17.7789899 11.3768157,17.7789899 11.3779571,17.7792753 L11.3796692,17.7792753 C11.3805253,17.7795606 11.381096,17.7795606 11.381952,17.7795606 C11.3825227,17.779846 11.3830934,17.779846 11.3836641,17.779846 C11.3850909,17.7801313 11.3862323,17.7801313 11.3873737,17.7804167 C11.3879444,17.7804167 11.3888005,17.780702 11.3893712,17.780702 C11.3899419,17.780702 11.3905126,17.7809874 11.3910833,17.7809874 C11.3919394,17.7812727 11.3927955,17.7812727 11.3936515,17.7815581 L11.3947929,17.7815581 C11.3965051,17.7818434 11.3982172,17.7821288 11.3999293,17.7824141 C11.4002146,17.7824141 11.4005,17.7826995 11.4007854,17.7826995 C11.4016414,17.7829848 11.4027828,17.7829848 11.4036389,17.7832702 L11.4044949,17.7832702 C11.4076338,17.7841263 11.4107727,17.784697 11.414197,17.7852677 C11.5246288,17.8095227 11.6610278,17.8857121 11.8176869,18.0032778 C12.3667071,18.4153283 13.1625581,19.338447 13.9461389,20.3351869 C13.9544141,20.3457449 13.9626894,20.3560177 13.9709646,20.3665758 C14.5936061,21.1607146 15.2065455,21.9982273 15.6790909,22.6596768 C15.6793763,22.6599621 15.6796616,22.6602475 15.679947,22.6608182 C16.2035707,23.3938914 16.5545556,23.910096 16.5545556,23.910096 C16.5545556,23.910096 14.4372323,24.9718965 12.3866818,25.3808081 C11.9007247,25.4775429 11.4139116,25.5508788 10.9539217,25.6062374 C10.6985303,25.6367702 10.4516995,25.6618813 10.2177096,25.6824268" id="Fill-41" fill="#C6C6C6"></path>
                                        <path d="M2.40986616,21.424952 C2.40986616,21.424952 7.58874747,21.6255556 7.84642172,20.9395657 C8.10352525,20.2532904 7.03601768,18.3106035 7.03601768,18.3106035 C7.03601768,18.3106035 1.84372475,17.5860909 1.07070202,19.7131162 C1.07070202,19.7131162 1.39086869,21.0097626 2.40986616,21.424952" id="Fill-44" fill="#F5F5F5"></path>
                                        <path d="M8.78352273,9.60846212 C9.00923737,8.38914646 7.02260606,6.6730303 6.79660606,5.63434343 C6.57060606,4.59565657 6.5255202,1.29896717 8.6479798,0.892623737 C10.7707247,0.485994949 11.8547828,2.8347399 13.118899,3.82805556 C14.3838712,4.82165657 16.7317601,6.76348737 16.2349596,9.47320455 C15.7384444,12.1826364 15.9190732,16.6986414 15.1511869,18.2795 C14.3838712,19.8597879 13.9772424,20.6730455 11.4478687,22.6599621 C8.9187803,24.6468788 13.2093561,21.9828182 13.5703283,21.5311035 C13.9318712,21.0793889 15.2864444,22.1631616 15.9641591,22.9761338 C16.641303,23.7888207 8.55752273,10.8277778 8.78352273,9.60846212 Z" id="Fill-20-Copy" fill="#EEEEEE"></path>
                                        <path d="M11.8179722,18.0032778 C11.9030076,17.9573359 11.9717778,17.8834293 12.0211439,17.7769924 C12.5707348,16.5902071 13.5052677,13.0172955 13.175399,12.3578434 C12.8458157,11.6981061 10.3718005,11.2583763 9.71234848,10.4887778 C9.60334343,10.3617955 9.60990657,10.3110025 9.69779545,10.3110025 C9.87100505,10.3110025 10.3606717,10.5078965 10.9074091,10.7047904 C11.4541465,10.9019697 12.0582399,11.0988636 12.4597323,11.0988636 C12.6871591,11.0988636 12.8498106,11.0355152 12.9006035,10.8737197 C13.175399,9.99397475 10.7567424,8.67478535 10.7567424,8.67478535 C10.7567424,8.67478535 10.3546793,8.73042929 9.79567172,8.73042929 C9.44183333,8.73042929 9.02493182,8.70817172 8.60717424,8.63540657 C8.14062121,7.59158333 6.98065909,6.43105051 6.79974495,5.64832576 C6.58373232,4.65472475 6.53179798,1.66707323 8.30812374,0.989929293 C7.69860859,1.48473232 6.61683333,2.7057601 8.11807828,4.3319899 C9.15590909,5.45656818 10.2642222,5.84122475 11.1893384,5.84122475 C12.0282778,5.84122475 12.7165505,5.52476768 13.0655379,5.15666162 C13.2190581,4.99458081 13.5229596,4.92267172 13.9090429,4.92267172 C14.0694116,4.92267172 14.244048,4.93494192 14.428101,4.95862626 C15.3480808,5.86633586 16.2398106,7.08393939 16.2997348,8.57548232 C16.3017323,8.63226768 16.3017323,8.63597727 16.3017323,8.63968687 C16.3025884,8.69219192 16.3028737,8.69618687 16.3028737,8.69961111 L16.3028737,8.76067677 C16.3003056,8.94786869 16.2888914,9.10681061 16.2674899,9.26832071 C16.2640657,9.29400253 16.2603561,9.3199697 16.2563611,9.34593687 C16.2495126,9.38902525 16.2478005,9.39901263 16.2460884,9.409 C16.2366717,9.46350253 16.2358157,9.46835354 16.2349596,9.47320455 C15.7384444,12.1826364 15.9190732,16.6986414 15.1511869,18.2795 C14.7639621,19.0767778 14.4686212,19.6788737 13.9461389,20.3351869 C13.1628434,19.338447 12.3667071,18.4153283 11.8179722,18.0032778 Z M9.16532576,18.0586364 C8.52784596,17.1292399 7.42210101,15.5372525 7.65609091,15.5372525 C7.68234343,15.5372525 7.72571717,15.5572273 7.78849495,15.600601 C8.25504798,15.9239066 9.68324242,17.2593611 10.7710101,17.8163712 C10.3212929,17.8680202 9.77227273,17.9633283 9.16532576,18.0586364" id="Fill-32" fill="#D4D4D4"></path>
                                    </g>
                                </g>
                            </g>
                        </g>
                    </g>
                </g>
            </g>
        </g>
    </g>
</svg>