<?xml version="1.0" encoding="UTF-8" standalone="no"?>
<svg width="233px" height="148px" viewBox="0 0 233 148" version="1.1" xmlns="http://www.w3.org/2000/svg" xmlns:xlink="http://www.w3.org/1999/xlink" xmlns:sketch="http://www.bohemiancoding.com/sketch/ns">
    <!-- Generator: Sketch 3.3.2 (12043) - http://www.bohemiancoding.com/sketch -->
    <title>image</title>
    <desc>Created with Sketch.</desc>
    <defs>
        <rect id="path-1" x="0" y="0" width="65" height="60"></rect>
    </defs>
    <g id="Page-1" stroke="none" stroke-width="1" fill="none" fill-rule="evenodd" sketch:type="MSPage">
        <g id="page-services" sketch:type="MSArtboardGroup" transform="translate(-437.000000, -1392.000000)">
            <g id="Services" sketch:type="MSLayerGroup" transform="translate(436.000000, 112.000000)">
                <g id="Services-non-activés" transform="translate(0.000000, 879.000000)">
                    <g id="Photographe" transform="translate(0.000000, 400.000000)">
                        <g id="picto">
                            <g id="image" transform="translate(1.000000, 1.000000)">
                                <rect id="Rectangle-205" fill="#FFFFFF" sketch:type="MSShapeGroup" x="0" y="0" width="233" height="148"></rect>
                                <g id="background" transform="translate(0.000000, 23.000000)" sketch:type="MSShapeGroup">
                                    <rect id="Rectangle-91" fill="#F3F3F3" x="0" y="90" width="233" height="35"></rect>
                                    <g id="couch" transform="translate(104.000000, 69.000000)">
                                        <rect id="Rectangle-93" fill="#D0D0D0" x="0" y="13" width="119" height="20" rx="2"></rect>
                                        <rect id="Rectangle-93-Copy" fill="#D0D0D0" x="10" y="0" width="100" height="30" rx="2"></rect>
                                        <rect id="Rectangle-95" fill="#EEEEEE" x="12" y="2" width="47" height="16"></rect>
                                        <rect id="Rectangle-95-Copy-2" fill="#EEEEEE" x="12" y="19" width="47" height="2"></rect>
                                        <rect id="Rectangle-95-Copy-3" fill="#EEEEEE" x="60" y="19" width="48" height="2"></rect>
                                        <rect id="Rectangle-95-Copy" fill="#EEEEEE" x="60" y="2" width="48" height="16"></rect>
                                    </g>
                                    <g id="window" transform="translate(42.000000, 29.000000)" stroke="#D0D0D0">
                                        <rect id="Rectangle-92" fill="#F2F2F2" x="0" y="0" width="30" height="40"></rect>
                                        <path d="M0.5,10.5 L29.5,10.5" id="Line" stroke-linecap="square"></path>
                                        <path d="M0.5,20.5 L29.5,20.5" id="Line-Copy-12" stroke-linecap="square"></path>
                                        <path d="M0.5,30.5 L29.5,30.5" id="Line-Copy-13" stroke-linecap="square"></path>
                                    </g>
                                    <g id="clock" transform="translate(23.000000, 0.000000)">
                                        <circle id="Oval-4" stroke="#D0D0D0" fill="#EEEEEE" cx="9.5" cy="9.5" r="9.5"></circle>
                                        <path d="M9.5,9.5 L9.5,15.5" id="Line" stroke="#D0D0D0" stroke-linecap="square"></path>
                                        <path d="M9.5,9.5 L12.5,9.5" id="Line" stroke="#979797" stroke-linecap="square"></path>
                                    </g>
                                    <g id="book-shelf" transform="translate(157.000000, 17.000000)" stroke-linecap="square">
                                        <path d="M0.5,12 L55.5,12" id="Line" stroke="#D0D0D0" stroke-width="2"></path>
                                        <g id="books" transform="translate(1.000000, 0.000000)">
                                            <path d="M1.5,10.5 L1.5,0.450124383" id="Line" stroke="#979797"></path>
                                            <path d="M45.5,10.5 L45.5,0.450124383" id="Line-Copy-17" stroke="#D0D0D0"></path>
                                            <path d="M24.5,10.5 L24.5,0.450124383" id="Line-Copy-21" stroke="#EEEEEE"></path>
                                            <path d="M3.5,10.5 L3.5,4.5" id="Line-Copy-14" stroke="#EEEEEE"></path>
                                            <path d="M47.5,10.5 L47.5,6.5" id="Line-Copy-18" stroke="#EEEEEE"></path>
                                            <path d="M22.5,10.5 L22.5,6.5" id="Line-Copy-22" stroke="#979797"></path>
                                            <path d="M5.5,10.5 L5.5,2.5" id="Line-Copy-15" stroke="#D0D0D0"></path>
                                            <path d="M51.5,10.5 L51.5,2.5" id="Line-Copy-19" stroke="#979797"></path>
                                            <path d="M28.5,10.5 L28.5,2.5" id="Line-Copy-23" stroke="#979797"></path>
                                            <path d="M7.5,10.5 L7.5,6.5" id="Line-Copy-16" stroke="#EEEEEE"></path>
                                            <path d="M49.5,10.5 L49.5,4.5" id="Line-Copy-20" stroke="#EEEEEE"></path>
                                            <path d="M26.5,10.5 L26.5,4.5" id="Line-Copy-24" stroke="#D0D0D0"></path>
                                        </g>
                                    </g>
                                </g>
                                <g id="camera-kit" transform="translate(79.000000, 88.000000)">
                                    <mask id="mask-2" sketch:name="Mask" fill="white">
                                        <use xlink:href="#path-1"></use>
                                    </mask>
                                    <use id="Mask" sketch:type="MSShapeGroup" xlink:href="#path-1"></use>
                                    <g id="Group" mask="url(#mask-2)">
                                        <g transform="translate(7.000000, 8.000000)">
                                            <g id="tripod" transform="translate(12.000000, 32.000000)">
                                                <rect id="Rectangle-84" stroke="#979797" fill="#979797" sketch:type="MSShapeGroup" x="2" y="0" width="16.5" height="4" rx="6"></rect>
                                                <rect id="Rectangle-85" fill="#979797" sketch:type="MSShapeGroup" transform="translate(4.500000, 13.500000) rotate(14.000000) translate(-4.500000, -13.500000) " x="3" y="3" width="3" height="21"></rect>
                                                <rect id="Rectangle-85-Copy" fill="#979797" sketch:type="MSShapeGroup" transform="translate(16.500000, 13.500000) scale(-1, 1) rotate(14.000000) translate(-16.500000, -13.500000) " x="15" y="3" width="3" height="21"></rect>
                                                <rect id="Rectangle-85-Copy-2" fill="#979797" sketch:type="MSShapeGroup" x="9" y="3" width="3" height="20"></rect>
                                            </g>
                                            <g id="camera">
                                                <rect id="Rectangle-83" stroke="#D0D0D0" fill="#EEEEEE" sketch:type="MSShapeGroup" x="-1.17239551e-13" y="2" width="45" height="30" rx="3"></rect>
                                                <rect id="Rectangle-89" stroke="#979797" fill="#D8D8D8" sketch:type="MSShapeGroup" x="33" y="0" width="5" height="2"></rect>
                                                <rect id="Rectangle-92" stroke="#D0D0D0" fill="#FFFFFF" sketch:type="MSShapeGroup" x="4" y="6" width="37" height="22"></rect>
                                                <g id="camera-screen" transform="translate(5.000000, 9.000000)" sketch:type="MSShapeGroup">
                                                    <rect id="Rectangle-91" fill="#F3F3F3" x="0" y="12.96" width="35" height="5.04"></rect>
                                                    <g id="couch" transform="translate(15.622318, 9.936000)">
                                                        <rect id="Rectangle-93" fill="#D0D0D0" x="0" y="1.872" width="17.8755365" height="2.88" rx="2"></rect>
                                                        <rect id="Rectangle-93-Copy" fill="#D0D0D0" x="1.50214592" y="0" width="15.0214592" height="4.32" rx="2"></rect>
                                                        <rect id="Rectangle-95" fill="#EEEEEE" x="1.80257511" y="0.288" width="7.06008584" height="2.304"></rect>
                                                        <rect id="Rectangle-95-Copy-2" fill="#EEEEEE" x="1.80257511" y="2.736" width="7.06008584" height="0.288"></rect>
                                                        <rect id="Rectangle-95-Copy-3" fill="#EEEEEE" x="9.01287554" y="2.736" width="7.21030043" height="0.288"></rect>
                                                        <rect id="Rectangle-95-Copy" fill="#EEEEEE" x="9.01287554" y="0.288" width="7.21030043" height="2.304"></rect>
                                                    </g>
                                                    <g id="window" transform="translate(6.309013, 4.176000)" stroke="#D0D0D0">
                                                        <rect id="Rectangle-92" fill="#EEEEEE" x="0" y="0" width="4.50643777" height="5.76"></rect>
                                                        <path id="Line" stroke-linecap="square" d="M0.0751072961,1.512 L4.43133047,1.512"></path>
                                                        <path id="Line-Copy-12" stroke-linecap="square" d="M0.0751072961,2.952 L4.43133047,2.952"></path>
                                                        <path id="Line-Copy-13" stroke-linecap="square" d="M0.0751072961,4.392 L4.43133047,4.392"></path>
                                                    </g>
                                                    <g id="clock" transform="translate(3.454936, 0.000000)">
                                                        <ellipse id="Oval-4" stroke="#D0D0D0" fill="#EEEEEE" cx="1.42703863" cy="1.368" rx="1.42703863" ry="1.368"></ellipse>
                                                        <path id="Line" stroke="#D0D0D0" stroke-linecap="square" d="M1.42703863,1.368 L1.42703863,2.232"></path>
                                                        <path id="Line" stroke="#979797" stroke-linecap="square" d="M1.42703863,1.368 L1.8776824,1.368"></path>
                                                    </g>
                                                    <g id="book-shelf" transform="translate(23.583691, 2.448000)" stroke-linecap="square">
                                                        <path id="Line" stroke="#D0D0D0" stroke-width="2" d="M0.0751072961,1.728 L8.33690987,1.728"></path>
                                                        <g id="books" transform="translate(0.150215, 0.000000)">
                                                            <path id="Line" stroke="#979797" d="M0.225321888,1.512 L0.225321888,0.0648179111"></path>
                                                            <path id="Line-Copy-17" stroke="#D0D0D0" d="M6.83476395,1.512 L6.83476395,0.0648179111"></path>
                                                            <path id="Line-Copy-14" stroke="#EEEEEE" d="M0.525751073,1.512 L0.525751073,0.648"></path>
                                                            <path id="Line-Copy-18" stroke="#EEEEEE" d="M7.13519313,1.512 L7.13519313,0.936"></path>
                                                            <path id="Line-Copy-15" stroke="#D0D0D0" d="M0.826180258,1.512 L0.826180258,0.36"></path>
                                                            <path id="Line-Copy-19" stroke="#979797" d="M7.7360515,1.512 L7.7360515,0.36"></path>
                                                            <path id="Line-Copy-16" stroke="#EEEEEE" d="M1.12660944,1.512 L1.12660944,0.936"></path>
                                                            <path id="Line-Copy-20" stroke="#EEEEEE" d="M7.43562232,1.512 L7.43562232,0.648"></path>
                                                        </g>
                                                    </g>
                                                </g>
                                            </g>
                                        </g>
                                    </g>
                                </g>
                            </g>
                        </g>
                    </g>
                </g>
            </g>
        </g>
    </g>
</svg>