<?xml version="1.0" encoding="UTF-8" standalone="no"?>
<svg width="233px" height="148px" viewBox="0 0 233 148" version="1.1" xmlns="http://www.w3.org/2000/svg" xmlns:xlink="http://www.w3.org/1999/xlink" xmlns:sketch="http://www.bohemiancoding.com/sketch/ns">
    <!-- Generator: Sketch 3.3.2 (12043) - http://www.bohemiancoding.com/sketch -->
    <title>image</title>
    <desc>Created with Sketch.</desc>
    <defs>
        <rect id="path-1" x="0" y="0" width="134" height="70"></rect>
    </defs>
    <g id="Page-1" stroke="none" stroke-width="1" fill="none" fill-rule="evenodd" sketch:type="MSPage">
        <g id="page-services" sketch:type="MSArtboardGroup" transform="translate(-437.000000, -1567.000000)">
            <g id="Services" sketch:type="MSLayerGroup" transform="translate(436.000000, 112.000000)">
                <g id="Services-non-activés" transform="translate(0.000000, 879.000000)">
                    <g id="Impression" transform="translate(0.000000, 575.000000)">
                        <g id="picto">
                            <g id="image" transform="translate(1.000000, 1.000000)">
                                <rect id="Rectangle-206" fill="#FFFFFF" sketch:type="MSShapeGroup" x="0" y="0" width="233" height="148"></rect>
                                <g id="book" transform="translate(99.000000, 76.000000)">
                                    <mask id="mask-2" sketch:name="Mask" fill="white">
                                        <use xlink:href="#path-1"></use>
                                    </mask>
                                    <use id="Mask" sketch:type="MSShapeGroup" xlink:href="#path-1"></use>
                                    <path d="M6,6 C6,6 79.4190628,1.90146399 87.7095314,1.90146399 C96,1.90146399 96,6 96,6 L96,66 C96,66 93.4188652,62.3252082 87.7095314,62.3252082 C82.0001976,62.3252082 6,66 6,66 L6,6 Z" id="Rectangle-125" stroke="#B6B6B6" fill="#FFFFFF" sketch:type="MSShapeGroup" mask="url(#mask-2)"></path>
                                    <path d="M96,6 C96,6 177.576736,1.90146399 186.788368,1.90146399 C196,1.90146399 196,6 196,6 L196,66 C196,66 193.132072,62.3252082 186.788368,62.3252082 C180.444664,62.3252082 96,66 96,66 L96,6 Z" id="Rectangle-125-Copy" stroke="#B6B6B6" fill="#F2F2F2" sketch:type="MSShapeGroup" mask="url(#mask-2)">
                                        <g transform="translate(146.000000, 33.950732) scale(-1, 1) translate(-146.000000, -33.950732) "></g>
                                    </path>
                                    <g id="contenu" mask="url(#mask-2)" sketch:type="MSShapeGroup">
                                        <g transform="translate(-62.000000, -14.000000)">
                                            <path d="M113,54.3104847 L73,56.5436742 L73,27.257065 L113,25.0238755 L113,54.3104847 Z" id="Rectangle-128" stroke="none" fill="#EEEEEE" fill-rule="evenodd"></path>
                                            <path d="M116.035217,26.4048406 C116.035217,26.4048406 138.120029,24.4557304 149.150391,23.8632813 C149.941624,23.8207835 151.5,24.5 151.5,24.5" id="Line-Copy-33" stroke="#EEEEEE" stroke-width="1" stroke-linecap="square" fill="none"></path>
                                            <path d="M116.035217,30.4061475 L143.976563,29.0373889" id="Line-Copy-30" stroke="#EEEEEE" stroke-width="1" stroke-linecap="square" fill="none"></path>
                                            <path d="M116.035217,34.4061475 L143.976563,33.0373889" id="Line-Copy-31" stroke="#EEEEEE" stroke-width="1" stroke-linecap="square" fill="none"></path>
                                            <path d="M116.035217,38.4061475 L143.976563,37.0373889" id="Line-Copy-32" stroke="#EEEEEE" stroke-width="1" stroke-linecap="square" fill="none"></path>
                                            <path d="M73.5,62.4742371 C73.5,62.4742371 123.813635,58.72908 148.908691,57.4360351 C150.119528,57.3736457 152.417679,58.4079344 152.417679,58.4079344" id="Line" stroke="#EEEEEE" stroke-width="1" stroke-linecap="square" fill="none"></path>
                                            <path d="M73.5,65.4742371 C73.5,65.4742371 123.688049,61.7383875 148.783691,60.4453125 C149.993942,60.3829533 152.417679,61.4079344 152.417679,61.4079344" id="Line-Copy-27" stroke="#EEEEEE" stroke-width="1" stroke-linecap="square" fill="none"></path>
                                            <path d="M73.5,68.4742371 C73.5,68.4742371 123.943455,64.9355729 149.179688,63.6352539 C150.249348,63.5801387 152.417679,64.4079344 152.417679,64.4079344" id="Line-Copy-28" stroke="#EEEEEE" stroke-width="1" stroke-linecap="square" fill="none"></path>
                                            <path d="M73.5,71.4742371 C73.5,71.4742371 123.982189,67.9194914 149.228516,66.6186523 C150.288082,66.5640572 152.417679,67.4079344 152.417679,67.4079344" id="Line-Copy-29" stroke="#EEEEEE" stroke-width="1" stroke-linecap="square" fill="none"></path>
                                            <path d="M1,1 L50.3364601,1" id="Line" stroke="#F2F2F2" stroke-width="2" stroke-linecap="square" fill="none"></path>
                                            <path d="M0.5,4.5 L31.5,4.5" id="Line-Copy-26" stroke="#F2F2F2" stroke-width="1" stroke-linecap="square" fill="none"></path>
                                        </g>
                                    </g>
                                </g>
                                <g id="books-piles" transform="translate(13.000000, 11.000000)" sketch:type="MSShapeGroup">
                                    <rect id="Rectangle-111-Copy-2" stroke="#E2E2E2" x="4" y="4" width="100" height="60"></rect>
                                    <rect id="Rectangle-111-Copy" stroke="#CBCBCB" fill="#FFFFFF" x="2" y="2" width="100" height="60"></rect>
                                    <g id="first-book">
                                        <rect id="Rectangle-111" stroke="#B6B6B6" fill="#FFFFFF" x="0" y="0" width="100" height="60"></rect>
                                        <g id="camera-screen-copy" transform="translate(21.000000, 7.000000)">
                                            <rect id="Rectangle-91" fill="#F3F3F3" x="0" y="28.8" width="78" height="11.2"></rect>
                                            <g id="couch" transform="translate(34.815451, 22.080000)">
                                                <rect id="Rectangle-93" fill="#D0D0D0" x="0" y="4.16" width="39.8369099" height="6.4" rx="2"></rect>
                                                <rect id="Rectangle-93-Copy" fill="#D0D0D0" x="3.34763948" y="0" width="33.4763948" height="9.6" rx="2"></rect>
                                                <rect id="Rectangle-95" fill="#EEEEEE" x="4.01716738" y="0.64" width="15.7339056" height="5.12"></rect>
                                                <rect id="Rectangle-95-Copy-2" fill="#EEEEEE" x="4.01716738" y="6.08" width="15.7339056" height="0.64"></rect>
                                                <rect id="Rectangle-95-Copy-3" fill="#EEEEEE" x="20.0858369" y="6.08" width="16.0686695" height="0.64"></rect>
                                                <rect id="Rectangle-95-Copy" fill="#EEEEEE" x="20.0858369" y="0.64" width="16.0686695" height="5.12"></rect>
                                            </g>
                                            <g id="window" transform="translate(14.060086, 9.280000)" stroke="#D0D0D0">
                                                <rect id="Rectangle-92" fill="#EEEEEE" x="0" y="0" width="10.0429185" height="12.8"></rect>
                                                <path d="M0.167381974,3.36 L9.87553648,3.36" id="Line" stroke-linecap="square"></path>
                                                <path d="M0.167381974,6.56 L9.87553648,6.56" id="Line-Copy-12" stroke-linecap="square"></path>
                                                <path d="M0.167381974,9.76 L9.87553648,9.76" id="Line-Copy-13" stroke-linecap="square"></path>
                                            </g>
                                            <g id="clock" transform="translate(7.699571, 0.000000)">
                                                <ellipse id="Oval-4" stroke="#D0D0D0" fill="#EEEEEE" cx="3.18025751" cy="3.04" rx="3.18025751" ry="3.04"></ellipse>
                                                <path d="M3.18025751,3.04 L3.18025751,4.96" id="Line" stroke="#D0D0D0" stroke-linecap="square"></path>
                                                <path d="M3.18025751,3.04 L4.18454936,3.04" id="Line" stroke="#979797" stroke-linecap="square"></path>
                                            </g>
                                            <g id="book-shelf" transform="translate(52.557940, 5.440000)" stroke-linecap="square">
                                                <path d="M0.167381974,3.84 L18.5793991,3.84" id="Line" stroke="#D0D0D0" stroke-width="2"></path>
                                                <g id="books" transform="translate(0.334764, 0.000000)">
                                                    <path d="M0.502145923,3.36 L0.502145923,0.144039803" id="Line" stroke="#979797"></path>
                                                    <path d="M15.2317597,3.36 L15.2317597,0.144039803" id="Line-Copy-17" stroke="#D0D0D0"></path>
                                                    <path d="M1.17167382,3.36 L1.17167382,1.44" id="Line-Copy-14" stroke="#EEEEEE"></path>
                                                    <path d="M15.9012876,3.36 L15.9012876,2.08" id="Line-Copy-18" stroke="#EEEEEE"></path>
                                                    <path d="M1.84120172,3.36 L1.84120172,0.8" id="Line-Copy-15" stroke="#D0D0D0"></path>
                                                    <path d="M17.2403433,3.36 L17.2403433,0.8" id="Line-Copy-19" stroke="#979797"></path>
                                                    <path d="M2.51072961,3.36 L2.51072961,2.08" id="Line-Copy-16" stroke="#EEEEEE"></path>
                                                    <path d="M16.5708155,3.36 L16.5708155,1.44" id="Line-Copy-20" stroke="#EEEEEE"></path>
                                                </g>
                                            </g>
                                        </g>
                                        <rect id="Rectangle-114" fill="#D4D4D4" x="1" y="1" width="20" height="58"></rect>
                                        <path d="M3.5,51.5 L15.6655254,51.5" id="Line" stroke="#F2F2F2" stroke-linecap="square"></path>
                                        <path d="M3.5,53.5 L11.5,53.5" id="Line-Copy-25" stroke="#F2F2F2" stroke-linecap="square"></path>
                                        <rect id="Rectangle-124" fill="#F2F2F2" x="3" y="3" width="15" height="15"></rect>
                                        <rect id="Rectangle-115" fill="#E0E0E0" x="21" y="47" width="78" height="12"></rect>
                                    </g>
                                </g>
                            </g>
                        </g>
                    </g>
                </g>
            </g>
        </g>
    </g>
</svg>