<?xml version="1.0" encoding="UTF-8" standalone="no"?>
<svg width="233px" height="148px" viewBox="0 0 233 148" version="1.1" xmlns="http://www.w3.org/2000/svg" xmlns:xlink="http://www.w3.org/1999/xlink" xmlns:sketch="http://www.bohemiancoding.com/sketch/ns">
    <!-- Generator: Sketch 3.3.2 (12043) - http://www.bohemiancoding.com/sketch -->
    <title>image</title>
    <desc>Created with Sketch.</desc>
    <defs></defs>
    <g id="Page-1" stroke="none" stroke-width="1" fill="none" fill-rule="evenodd" sketch:type="MSPage">
        <g id="page-services" sketch:type="MSArtboardGroup" transform="translate(-435.000000, -1742.000000)">
            <g id="Services" sketch:type="MSLayerGroup" transform="translate(434.000000, 112.000000)">
                <g id="Services-non-activés" transform="translate(0.000000, 879.000000)" sketch:type="MSShapeGroup">
                    <g id="Réseaux-sociaux" transform="translate(0.000000, 750.000000)">
                        <g id="picto">
                            <g id="image" transform="translate(1.000000, 1.000000)">
                                <rect id="Rectangle-207" fill="#FFFFFF" x="0" y="0" width="233" height="148"></rect>
                                <g id="ad" transform="translate(42.000000, 74.000000)">
                                    <rect id="Rectangle-76" stroke="#AFAFAF" fill="#FFFFFF" x="0" y="0" width="95" height="48"></rect>
                                    <rect id="Rectangle-77" fill="#3498DB" x="0" y="0" width="39" height="48"></rect>
                                    <path d="M42.75,4.8 L66.1041667,4.8" id="Line" stroke="#EEEEEE" stroke-width="2" stroke-linecap="square"></path>
                                    <path d="M42.3541667,7.6 L58.9791667,7.6" id="Line-Copy" stroke="#EEEEEE" stroke-linecap="square"></path>
                                    <path d="M42.3541667,13.2 L90.6458333,13.2" id="Line-Copy-2" stroke="#EEEEEE" stroke-linecap="square"></path>
                                    <path d="M42.3541667,15.6 L90.6458333,15.6" id="Line-Copy-3" stroke="#EEEEEE" stroke-linecap="square"></path>
                                    <path d="M42.3541667,38.8 L62.2285563,38.8" id="Line-Copy-6" stroke="#EEEEEE" stroke-linecap="square"></path>
                                    <path d="M70.7714437,38.8 L90.6458333,38.8" id="Line-Copy-9" stroke="#EEEEEE" stroke-linecap="square"></path>
                                    <path d="M42.3541667,18 L90.6458333,18" id="Line-Copy-4" stroke="#EEEEEE" stroke-linecap="square"></path>
                                    <path d="M42.3541667,41.2 L62.2285563,41.2" id="Line-Copy-7" stroke="#EEEEEE" stroke-linecap="square"></path>
                                    <path d="M70.7714437,41.2 L90.6458333,41.2" id="Line-Copy-10" stroke="#EEEEEE" stroke-linecap="square"></path>
                                    <path d="M42.3541667,20.4 L90.6458333,20.4" id="Line-Copy-5" stroke="#EEEEEE" stroke-linecap="square"></path>
                                    <path d="M42.3541667,43.6 L62.2285563,43.6" id="Line-Copy-8" stroke="#EEEEEE" stroke-linecap="square"></path>
                                    <path d="M70.7714437,43.6 L90.6458333,43.6" id="Line-Copy-11" stroke="#EEEEEE" stroke-linecap="square"></path>
                                    <rect id="Rectangle-78" fill="#EEEEEE" x="41.9583333" y="24" width="49.0833333" height="12"></rect>
                                </g>
                                <g id="arrow-copy-3" transform="translate(127.000000, 39.000000)" stroke="#D0D0D0" stroke-linecap="square">
                                    <path d="M0.0594679654,30.5452213 C0.0594679654,30.5452213 13.6616575,17.6258775 21.0764167,13.0371089 C27.6729567,8.95471124 42.0933654,4.53172257 42.0933654,4.53172257" id="Line"></path>
                                    <path d="M36.8842773,3.19238282 C36.8842773,3.19238282 43.6833903,0.900675456 44.5073242,1.72460938 C45.0167236,2.23400879 42.7011719,9.17968751 42.7011719,9.17968751" id="Line" transform="translate(40.732410, 5.362772) rotate(14.000000) translate(-40.732410, -5.362772) "></path>
                                </g>
                                <g id="arrow-copy-4" transform="translate(73.508067, 51.884914) rotate(-16.000000) translate(-73.508067, -51.884914) translate(56.508067, 37.384914)" stroke="#D0D0D0" stroke-linecap="square">
                                    <path d="M0.441291028,28.2200752 C0.441291028,28.2200752 1.66165754,17.6258775 9.07641667,13.0371089 C15.6729567,8.95471124 30.0933654,4.53172257 30.0933654,4.53172257" id="Line"></path>
                                    <path d="M24.8842773,3.19238282 C24.8842773,3.19238282 31.6833903,0.900675456 32.5073242,1.72460937 C33.0167236,2.23400879 30.7011719,9.17968751 30.7011719,9.17968751" id="Line" transform="translate(28.732410, 5.362772) rotate(14.000000) translate(-28.732410, -5.362772) "></path>
                                </g>
                                <g id="arrow-copy-5" transform="translate(160.508067, 93.884914) rotate(-287.000000) translate(-160.508067, -93.884914) translate(143.508067, 79.384914)" stroke="#D0D0D0" stroke-linecap="square">
                                    <path d="M0.441291028,28.2200752 C0.441291028,28.2200752 1.66165754,17.6258775 9.07641667,13.0371089 C15.6729567,8.95471124 30.0933654,4.53172257 30.0933654,4.53172257" id="Line"></path>
                                    <path d="M24.8842773,3.19238282 C24.8842773,3.19238282 31.6833903,0.900675456 32.5073242,1.72460937 C33.0167236,2.23400879 30.7011719,9.17968751 30.7011719,9.17968751" id="Line" transform="translate(28.732410, 5.362772) rotate(14.000000) translate(-28.732410, -5.362772) "></path>
                                </g>
                                <path d="M108.5625,17.5 C109.647135,17.5 110.574545,17.885091 111.344727,18.655273 C112.114909,19.4254559 112.5,20.3528642 112.5,21.4374996 L112.5,34.5625004 C112.5,35.6471358 112.114909,36.5745449 111.344727,37.344727 C110.574545,38.114909 109.647135,38.5 108.5625,38.5 L105.992188,38.5 L105.992188,30.3652346 L108.712891,30.3652346 L109.123047,27.1933591 L105.992188,27.1933591 L105.992188,25.169922 C105.992188,24.6595053 106.099284,24.2766928 106.313477,24.0214845 C106.52767,23.7662762 106.944661,23.638672 107.564453,23.638672 L109.232422,23.6250002 L109.232422,20.7949218 C108.658203,20.7128909 107.847005,20.6718746 106.798828,20.6718746 C105.559245,20.6718746 104.568034,21.0364583 103.825195,21.7656249 C103.082357,22.4947915 102.710938,23.5247396 102.710938,24.8554686 L102.710938,27.1933591 L99.9765621,27.1933591 L99.9765621,30.3652346 L102.710938,30.3652346 L102.710938,38.5 L95.4375001,38.5 C94.3528646,38.5 93.4254555,38.114909 92.6552734,37.344727 C91.8850906,36.5745449 91.4999996,35.6471358 91.4999996,34.5625004 L91.4999996,21.4374996 C91.4999996,20.3528642 91.8850906,19.4254559 92.6552734,18.655273 C93.4254555,17.885091 94.3528646,17.5 95.4375001,17.5 L108.5625,17.5 Z" id="Shape" fill="#4E69A2"></path>
                                <path d="M196.928571,36.1277898 C196.376488,36.3742557 195.780041,36.5418523 195.13923,36.6305805 C195.809616,36.2362348 196.268043,35.6595047 196.514508,34.9003902 C195.873698,35.275018 195.213169,35.5264138 194.532924,35.6545757 C193.931547,35.0039062 193.177363,34.678571 192.270368,34.678571 C191.412668,34.678571 190.680664,34.981724 190.074358,35.5880298 C189.468053,36.1943357 189.1649,36.926339 189.1649,37.7840398 C189.1649,38.0699403 189.189546,38.3065473 189.238839,38.4938617 C187.967076,38.4248513 186.774182,38.1044451 185.660156,37.5326449 C184.546131,36.9608438 183.599703,36.1968002 182.82087,35.2405132 C182.534971,35.733445 182.39202,36.2559517 182.39202,36.8080351 C182.39202,37.9319195 182.840588,38.7945492 183.737723,39.3959261 C183.274367,39.3860672 182.781436,39.2579053 182.258929,39.0114394 L182.258929,39.0410151 C182.258929,39.7804128 182.505394,40.4384759 182.998326,41.015206 C183.491258,41.5919361 184.097563,41.9493115 184.817243,42.0873324 C184.531343,42.1662017 184.279948,42.2056354 184.063058,42.2056354 C183.934896,42.2056354 183.742652,42.1859185 183.486329,42.1464839 C183.693359,42.7675776 184.060593,43.2802263 184.58803,43.6844308 C185.115467,44.0886344 185.714379,44.2956657 186.384766,44.3055246 C185.241165,45.1928011 183.954613,45.6364394 182.525112,45.6364394 C182.268787,45.6364394 182.022321,45.6216515 181.785714,45.5920757 C183.244792,46.5187869 184.832031,46.9821429 186.547433,46.9821429 C187.651599,46.9821429 188.686756,46.8071519 189.652901,46.4571709 C190.619047,46.1071889 191.447172,45.6389039 192.137276,45.0523158 C192.827381,44.4657268 193.421363,43.7904105 193.919224,43.0263669 C194.417085,42.2623233 194.786784,41.4637741 195.02832,40.6307192 C195.269856,39.7976652 195.390625,38.9670757 195.390625,38.1389507 C195.390625,37.9614953 195.385696,37.8284034 195.375837,37.7396761 C195.996931,37.2960379 196.514508,36.7587424 196.928571,36.1277898 L196.928571,36.1277898 Z M200.714286,33.2589281 L200.714286,47.4553569 C200.714286,48.628534 200.297759,49.63165 199.464704,50.464704 C198.63165,51.297758 197.628534,51.714285 196.455357,51.714285 L182.258929,51.714285 C181.085752,51.714285 180.082636,51.297758 179.249582,50.464704 C178.416527,49.63165 178,48.628534 178,47.4553569 L178,33.2589281 C178,32.085751 178.416527,31.0826359 179.249582,30.249581 C180.082636,29.416527 181.085752,29 182.258929,29 L196.455357,29 C197.628534,29 198.63165,29.416527 199.464704,30.249581 C200.297759,31.0826359 200.714286,32.085751 200.714286,33.2589281 L200.714286,33.2589281 Z" id="Shape" fill="#1DA1F2"></path>
                                <path d="M193.305618,125.829428 L193.305618,123.580729 C193.305618,123.103299 193.167163,122.864584 192.890254,122.864584 C192.727926,122.864584 192.570375,122.940973 192.417597,123.09375 L192.417597,126.302084 C192.570375,126.454861 192.727926,126.53125 192.890254,126.53125 C193.167163,126.53125 193.305618,126.29731 193.305618,125.829428 L193.305618,125.829428 Z M195.941035,124.082031 L196.886347,124.082031 L196.886347,123.595053 C196.886347,123.108073 196.728795,122.864584 196.413691,122.864584 C196.098587,122.864584 195.941035,123.108073 195.941035,123.595053 L195.941035,124.082031 Z M187.762649,120.272136 L187.762649,121.27474 L186.616815,121.27474 L186.616815,127.333333 L185.55692,127.333333 L185.55692,121.27474 L184.439732,121.27474 L184.439732,120.272136 L187.762649,120.272136 Z M190.641555,122.076823 L190.641555,127.333333 L189.68192,127.333333 L189.68192,126.760417 C189.309524,127.190104 188.946677,127.404949 188.593378,127.404949 C188.278274,127.404949 188.077753,127.271268 187.991815,127.003907 C187.934524,126.851129 187.905878,126.593316 187.905878,126.230469 L187.905878,122.076823 L188.85119,122.076823 L188.85119,125.94401 C188.85119,126.173177 188.855965,126.29731 188.865513,126.316406 C188.875062,126.459636 188.946677,126.53125 189.080358,126.53125 C189.27133,126.53125 189.47185,126.383247 189.68192,126.08724 L189.68192,122.076823 L190.641555,122.076823 Z M194.25093,123.666667 L194.25093,125.757812 C194.25093,126.25434 194.21751,126.602865 194.15067,126.803386 C194.036086,127.204428 193.783048,127.404949 193.391555,127.404949 C193.057354,127.404949 192.732701,127.209202 192.417597,126.817709 L192.417597,127.333333 L191.457961,127.333333 L191.457961,120.272136 L192.417597,120.272136 L192.417597,122.578125 C192.723152,122.196181 193.047805,122.005209 193.391555,122.005209 C193.783048,122.005209 194.036086,122.20573 194.15067,122.606771 C194.21751,122.807292 194.25093,123.16059 194.25093,123.666667 L194.25093,123.666667 Z M197.845982,125.514323 L197.845982,125.64323 C197.845982,125.920139 197.836434,126.125434 197.817337,126.259115 C197.788691,126.469185 197.717077,126.660157 197.602493,126.832032 C197.344681,127.213976 196.962736,127.404949 196.456659,127.404949 C195.960132,127.404949 195.573413,127.223525 195.296504,126.860678 C195.095983,126.602865 194.995722,126.192275 194.995722,125.628907 L194.995722,123.78125 C194.995722,123.217882 195.091208,122.807292 195.28218,122.549479 C195.55909,122.186632 195.941035,122.005209 196.428014,122.005209 C196.914993,122.005209 197.287388,122.186632 197.545201,122.549479 C197.745722,122.81684 197.845982,123.227431 197.845982,123.78125 L197.845982,124.869792 L195.941035,124.869792 L195.941035,125.800782 C195.941035,126.287761 196.103361,126.53125 196.428014,126.53125 C196.65718,126.53125 196.800409,126.407118 196.857701,126.158854 C196.857701,126.149306 196.860089,126.115886 196.864863,126.058594 C196.869637,126.001303 196.872024,125.922527 196.872024,125.822266 L196.872024,125.514323 L197.845982,125.514323 Z M191.386347,113.712239 L191.386347,115.946614 C191.386347,116.433594 191.233569,116.677083 190.928014,116.677083 C190.622458,116.677083 190.46968,116.433594 190.46968,115.946614 L190.46968,113.712239 C190.46968,113.215712 190.622458,112.967447 190.928014,112.967447 C191.233569,112.967447 191.386347,113.215712 191.386347,113.712239 L191.386347,113.712239 Z M199.020462,123.924479 C199.020462,122.234375 198.92975,120.993056 198.748326,120.200521 C198.65284,119.780382 198.447545,119.429471 198.132441,119.147787 C197.817337,118.866103 197.454489,118.701389 197.043899,118.653646 C195.745288,118.510417 193.778274,118.438802 191.142857,118.438802 C188.516989,118.438802 186.55475,118.510417 185.256138,118.653646 C184.835999,118.701389 184.470765,118.866103 184.160436,119.147787 C183.850105,119.429471 183.647197,119.780382 183.551711,120.200521 C183.360739,121.03125 183.265253,122.27257 183.265253,123.924479 C183.265253,125.605035 183.360739,126.846355 183.551711,127.648438 C183.647197,128.059028 183.850105,128.407553 184.160436,128.694011 C184.470765,128.980469 184.831225,129.14757 185.241815,129.195312 C186.549975,129.338542 188.516989,129.410157 191.142857,129.410157 C193.768725,129.410157 195.735739,129.338542 197.043899,129.195312 C197.454489,129.14757 197.81495,128.980469 198.125279,128.694011 C198.435609,128.407553 198.638518,128.059028 198.734004,127.648438 C198.924976,126.846355 199.020462,125.605035 199.020462,123.924479 L199.020462,123.924479 Z M188.206659,114.600261 L189.495722,110.360677 L188.421503,110.360677 L187.691035,113.153645 L186.93192,110.360677 L185.814732,110.360677 C185.891121,110.580295 186.005705,110.909722 186.158482,111.348958 C186.31126,111.788194 186.421069,112.117621 186.48791,112.337239 C186.822111,113.320746 187.041729,114.075086 187.146764,114.600261 L187.146764,117.479167 L188.206659,117.479167 L188.206659,114.600261 Z M192.345982,115.760416 L192.345982,113.898437 C192.345982,113.344618 192.245722,112.929254 192.045201,112.652344 C191.768292,112.289497 191.395896,112.108073 190.928014,112.108073 C190.441034,112.108073 190.068638,112.289497 189.810826,112.652344 C189.610305,112.929254 189.510045,113.344618 189.510045,113.898437 L189.510045,115.760416 C189.510045,116.314236 189.610305,116.729601 189.810826,117.006511 C190.068638,117.369358 190.441034,117.550781 190.928014,117.550781 C191.395896,117.550781 191.768292,117.369358 192.045201,117.006511 C192.245722,116.748698 192.345982,116.333333 192.345982,115.760416 L192.345982,115.760416 Z M194.938431,117.479167 L195.898066,117.479167 L195.898066,112.179688 L194.938431,112.179688 L194.938431,116.233073 C194.728361,116.52908 194.52784,116.677083 194.336868,116.677083 C194.193639,116.677083 194.117249,116.600694 194.107701,116.447917 C194.098153,116.428819 194.093379,116.304687 194.093379,116.075521 L194.093379,112.179688 L193.133743,112.179688 L193.133743,116.376302 C193.133743,116.729601 193.162389,116.992188 193.21968,117.164062 C193.324715,117.421875 193.53001,117.550781 193.835565,117.550781 C194.179316,117.550781 194.546938,117.335937 194.938431,116.90625 L194.938431,117.479167 Z M202.142858,113.125 L202.142858,126.875 C202.142858,128.011285 201.739429,128.982857 200.932571,129.789714 C200.125714,130.596571 199.154142,131 198.017857,131 L184.267857,131 C183.131573,131 182.160001,130.596571 181.353144,129.789714 C180.546286,128.982857 180.142857,128.011285 180.142857,126.875 L180.142857,113.125 C180.142857,111.988715 180.546286,111.017144 181.353144,110.210286 C182.160001,109.403429 183.131573,109 184.267857,109 L198.017857,109 C199.154142,109 200.125714,109.403429 200.932571,110.210286 C201.739429,111.017144 202.142858,111.988715 202.142858,113.125 L202.142858,113.125 Z" id="Shape" fill="#CC181E"></path>
                            </g>
                        </g>
                    </g>
                </g>
            </g>
        </g>
    </g>
</svg>