<?xml version="1.0" encoding="UTF-8" standalone="no"?>
<svg width="24px" height="30px" viewBox="0 0 24 30" version="1.1" xmlns="http://www.w3.org/2000/svg" xmlns:xlink="http://www.w3.org/1999/xlink">
    <!-- Generator: Sketch 3.8.3 (29802) - http://www.bohemiancoding.com/sketch -->
    <title>Group 7</title>
    <desc>Created with Sketch.</desc>
    <defs></defs>
    <g id="Produit" stroke="none" stroke-width="1" fill="none" fill-rule="evenodd">
        <g id="Produit-(abonnement)" transform="translate(-1258.000000, -1413.000000)">
            <g id="Options/tarifs" transform="translate(136.000000, 1126.000000)">
                <g id="Option-Copy-5" transform="translate(599.000000, 76.000000)">
                    <g id="Suboption-Copy-4" transform="translate(20.000000, 210.000000)">
                        <g id="Group-7" transform="translate(503.000000, 1.000000)">
                            <rect id="Rectangle-100" fill="#FFFFFF" x="0" y="0" width="24" height="30"></rect>
                            <polygon id="Triangle-1" fill="#515151" points="12 9 15 13 9 13"></polygon>
                            <polygon id="Triangle-1-Copy" fill="#515151" transform="translate(12.000000, 20.000000) scale(-1, -1) translate(-12.000000, -20.000000) " points="12 18 15 22 9 22"></polygon>
                        </g>
                    </g>
                </g>
            </g>
        </g>
    </g>
</svg>