<?xml version="1.0" standalone="no"?>
<!DOCTYPE svg PUBLIC "-//W3C//DTD SVG 1.1//EN" "http://www.w3.org/Graphics/SVG/1.1/DTD/svg11.dtd">
<svg xmlns="http://www.w3.org/2000/svg"><defs><font id="flaticon" horiz-adv-x="512"><font-face units-per-em="512" ascent="448" descent="-64" x-height="240" cap-height="480"/><missing-glyph horiz-adv-x="512"/><glyph unicode="&#xE000;" glyph-name="shower5" horiz-adv-x="432" d="M387.072 212.82133333333H45.124266666667c0 57.890133333333 46.933333333333 104.78933333333 104.78933333333 104.78933333333h29.320533333333V448H252.928v-130.3552H282.28266666667 C340.13866666667 317.6448 387.072 270.7456 387.072 212.82133333333zM233.5744 171.04213333333V171.2128c0 9.6256 -7.8165333333333 17.373866666667 -17.476266666667 17.373866666667S198.62186666667 180.66773333333 198.62186666667 171.04213333333 c0 -9.6597333333333 7.8165333333333 -17.476266666667 17.476266666667 -17.476266666667S233.5744 161.3824 233.5744 171.04213333333zM233.5744 25.838933333333v0.37546666666667c0 9.6597333333333 -7.8165333333333 17.3056 -17.476266666667 17.3056 s-17.476266666667 -7.9872 -17.476266666667 -17.681066666667c0 -9.6256 7.8165333333333 -17.476266666667 17.476266666667 -17.476266666667S233.5744 16.213333333333 233.5744 25.838933333333zM233.5744 98.4064V98.816 c0 9.6256 -7.8165333333333 17.237333333333 -17.476266666667 17.237333333333s-17.476266666667 -7.9530666666667 -17.476266666667 -17.646933333333c0 -9.6256 7.8165333333333 -17.476266666667 17.476266666667 -17.476266666667S233.5744 88.7808 233.5744 98.4064zM233.5744 -46.523733333333v0.17066666666667c0 9.6597333333333 -7.8165333333333 17.408 -17.476266666667 17.408s-17.476266666667 -7.9189333333333 -17.476266666667 -17.578666666667C198.62186666667 -56.183466666667 206.4384 -64 216.09813333333 -64 S233.5744 -56.183466666667 233.5744 -46.523733333333zM421.20533333333 -43.144533333333c9.0112 3.584 13.312 13.755733333333 9.728 22.698666666667l-0.13653333333333 0.34133333333333c-3.5498666666667 8.9770666666667 -13.653333333333 13.243733333333 -22.596266666667 9.5232 c-9.0112 -3.5498666666667 -13.243733333333 -13.892266666667 -9.6597333333333 -22.8352c2.7306666666667 -6.8266666666667 9.2501333333333 -10.990933333333 16.213333333333 -10.990933333333C416.8704 -44.407466666667 419.08906666667 -43.963733333333 421.20533333333 -43.144533333333zM397.1072 22.801066666667 c8.9770666666667 3.5498666666667 13.312 13.7216 9.728 22.664533333333l-0.13653333333333 0.37546666666667c-3.584 8.9770666666667 -13.7216 13.277866666667 -22.6304 9.5232c-8.9770666666667 -3.5498666666667 -13.243733333333 -13.892266666667 -9.6256 -22.8352 c2.6965333333333 -6.8266666666667 9.2501333333333 -10.990933333333 16.213333333333 -10.990933333333C392.77226666667 21.538133333333 394.99093333333 21.947733333333 397.1072 22.801066666667zM371.54133333333 88.200533333333 c9.2501333333333 2.7648 14.472533333333 12.4928 11.707733333333 21.742933333333l-0.1024 0.34133333333333c-2.7648 9.2501333333333 -12.3904 14.301866666667 -21.7088 11.537066666667c-9.216 -2.7648 -14.4384 -12.629333333333 -11.639466666667 -21.9136 c2.2186666666667 -7.5776 9.216 -12.424533333333 16.6912 -12.424533333333C368.16213333333 87.483733333333 369.83466666667 87.688533333333 371.54133333333 88.200533333333zM348.91093333333 154.65813333333c8.9770666666667 3.5498666666667 13.312 13.7216 9.728 22.664533333333 l-0.13653333333333 0.34133333333333c-3.5498666666667 8.9429333333333 -13.687466666667 13.243733333333 -22.6304 9.5573333333333C326.89493333333 183.63733333333 322.62826666667 173.29493333333 326.2464 164.352c2.7306666666667 -6.7925333333333 9.2501333333333 -10.9568 16.213333333333 -10.9568 C344.576 153.3952 346.79466666667 153.8048 348.91093333333 154.65813333333zM318.29333333333 -54.340266666667c9.4890666666667 1.8773333333333 15.633066666667 11.0592 13.7216 20.548266666667l-0.068266666666667 0.34133333333333 c-1.9114666666667 9.4549333333333 -11.1616 15.496533333333 -20.514133333333 13.5168c-9.4890666666667 -1.8773333333333 -15.598933333333 -11.264 -13.653333333333 -20.6848c1.6725333333333 -8.3285333333333 8.9429333333333 -14.062933333333 17.066666666667 -14.062933333333 C316.04053333333 -54.715733333333 317.20106666667 -54.613333333333 318.29333333333 -54.340266666667zM305.83466666667 14.7456c9.5914666666667 0.95573333333333 16.5888 9.5232 15.633066666667 19.1488l-0.034133333333333 0.34133333333333 c-0.9216 9.5573333333333 -9.4549333333333 16.554666666667 -19.080533333333 15.428266666667c-9.6256 -0.9216 -16.622933333333 -9.6597333333333 -15.633066666667 -19.2512c0.88746666666667 -9.0112 8.4992 -15.735466666667 17.339733333333 -15.735466666667 C304.64 14.6432 305.2544 14.677333333333 305.83466666667 14.7456zM296.72106666667 84.3776c9.4549333333333 1.8773333333333 15.598933333333 11.0592 13.687466666667 20.548266666667l-0.068266666666667 0.34133333333333 C308.49706666667 114.688 299.28106666667 120.66133333333 289.86026666667 118.74986666667c-9.4549333333333 -1.8773333333333 -15.5648 -11.229866666667 -13.653333333333 -20.6848c1.6725333333333 -8.3285333333333 8.9429333333333 -14.0288 17.066666666667 -14.0288 C294.43413333333 84.036266666667 295.59466666667 84.138666666667 296.72106666667 84.3776zM285.93493333333 153.73653333333C295.424 155.61386666667 301.568 164.79573333333 299.65653333333 174.25066666667L299.58826666667 174.592 c-1.9114666666667 9.4549333333333 -11.264 15.496533333333 -20.514133333333 13.5168C269.58506666667 186.2656 263.50933333333 176.91306666667 265.4208 167.424c1.6725333333333 -8.2944 8.9429333333333 -14.0288 17.066666666667 -14.0288 C283.68213333333 153.3952 284.84266666667 153.4976 285.93493333333 153.73653333333zM33.655466666667 -33.416533333333l0.13653333333333 0.34133333333333c3.584 8.9429333333333 -0.78506666666667 18.944 -9.7962666666667 22.493866666667 c-8.8405333333333 3.584 -19.182933333333 -0.88746666666667 -22.7328 -9.8645333333333c-3.5498666666667 -8.9429333333333 0.7168 -19.114666666667 9.728 -22.698666666667c2.1162666666667 -0.8192 4.3349333333333 -1.2629333333333 6.4512 -1.2629333333333 C24.405333333333 -44.407466666667 30.9248 -40.2432 33.655466666667 -33.416533333333zM57.7536 32.529066666667l0.13653333333333 0.34133333333333c3.584 8.9429333333333 -0.78506666666667 18.944 -9.7621333333333 22.493866666667 c-8.8746666666667 3.584 -19.182933333333 -0.88746666666667 -22.766933333333 -9.8986666666667c-3.5498666666667 -8.9429333333333 0.75093333333333 -19.114666666667 9.728 -22.664533333333c2.1162666666667 -0.85333333333333 4.3349333333333 -1.2629333333333 6.4512 -1.2629333333333 C48.503466666667 21.538133333333 55.057066666667 25.7024 57.7536 32.529066666667zM82.397866666667 99.908266666667l0.1024 0.37546666666667c2.7989333333333 9.2501333333333 -2.5258666666667 18.773333333333 -11.741866666667 21.538133333333 C61.371733333333 124.7232 51.712 119.1936 48.981333333333 109.94346666667c-2.7648 -9.2501333333333 2.4576 -18.978133333333 11.707733333333 -21.742933333333c1.7066666666667 -0.512 3.3792 -0.7168 5.0176 -0.7168 C73.216 87.483733333333 80.1792 92.330666666667 82.397866666667 99.908266666667zM105.94986666667 164.352L106.0864 164.69333333333c3.584 8.9770666666667 -0.78506666666667 18.944 -9.7621333333333 22.528 C87.517866666667 190.83946666667 77.175466666667 186.29973333333 73.557333333333 177.32266666667C70.007466666667 168.41386666667 74.3424 158.24213333333 83.285333333333 154.65813333333C85.4016 153.8048 87.620266666667 153.3952 89.770666666667 153.3952 C96.699733333333 153.3952 103.2192 157.55946666667 105.94986666667 164.352zM134.41706666667 -40.618666666667l0.1024 0.34133333333333c1.9114666666667 9.4549333333333 -4.2666666666667 18.500266666667 -13.755733333333 20.3776 c-9.3866666666667 1.9456 -18.6368 -4.4032 -20.5824 -13.858133333333c-1.9114666666667 -9.4549333333333 4.2325333333333 -18.670933333333 13.7216 -20.548266666667c1.0922666666667 -0.27306666666667 2.2528 -0.37546666666667 3.4474666666667 -0.37546666666667 C125.47413333333 -54.715733333333 132.74453333333 -48.981333333333 134.41706666667 -40.618666666667zM145.47626666667 30.378666666667l0.034133333333333 0.34133333333333c0.98986666666667 9.5914666666667 -6.0416 17.988266666667 -15.6672 18.944 c-9.5573333333333 1.1264 -18.1248 -6.2122666666667 -19.114666666667 -15.7696c-0.95573333333333 -9.5914666666667 6.0416 -18.158933333333 15.633066666667 -19.1488c0.58026666666667 -0.068266666666667 1.1946666666667 -0.1024 1.7749333333333 -0.1024 C136.97706666667 14.6432 144.55466666667 21.367466666667 145.47626666667 30.378666666667zM155.98933333333 98.065066666667l0.068266666666667 0.34133333333333C157.96906666667 107.86133333333 151.79093333333 116.90666666667 142.336 118.74986666667 c-9.2501333333333 2.0821333333333 -18.670933333333 -4.4032 -20.5824 -13.858133333333s4.2325333333333 -18.670933333333 13.687466666667 -20.548266666667c1.1264 -0.23893333333333 2.2869333333333 -0.34133333333333 3.4816 -0.34133333333333 C147.08053333333 84.036266666667 154.3168 89.736533333333 155.98933333333 98.065066666667zM166.77546666667 167.424l0.1024 0.37546666666667c1.9114666666667 9.4208 -4.2666666666667 18.466133333333 -13.755733333333 20.343466666667 C143.80373333333 190.08853333333 134.41706666667 183.7056 132.53973333333 174.25066666667C130.62826666667 164.79573333333 136.77226666667 155.61386666667 146.26133333333 153.73653333333c1.0922666666667 -0.23893333333333 2.2528 -0.34133333333333 3.4474666666667 -0.34133333333333 C157.83253333333 153.3952 165.10293333333 159.1296 166.77546666667 167.424z"/><glyph unicode="&#xE001;" glyph-name="sms5" horiz-adv-x="512" d="M426.66666666667 405.33333333333H85.333333333333C61.866666666667 405.33333333333 42.666666666667 386.13333333333 42.666666666667 362.66666666667l0 -384l85.333333333333 85.333333333333h298.66666666667c23.466666666667 0 42.666666666667 19.2 42.666666666667 42.666666666667V362.66666666667C469.33333333333 386.13333333333 450.13333333333 405.33333333333 426.66666666667 405.33333333333zM192 213.33333333333H149.33333333333V256h42.666666666667V213.33333333333zM277.33333333333 213.33333333333h-42.666666666667V256h42.666666666667V213.33333333333zM362.66666666667 213.33333333333h-42.666666666667V256h42.666666666667V213.33333333333z"/><glyph unicode="&#xE002;" glyph-name="three1" horiz-adv-x="528" d="M486.28886763299 448H42.004267529983C18.760650430432 448 0 428.82495769259 0 405.31763667133V-21.392980648959c0 -23.54499301008 18.760650430432 -42.607019351041 42.004267529983 -42.607019351041h444.28460010301 c23.187109116327 0 42.023103524391 19.062026340961 42.023103524391 42.607019351041V405.31763667133C528.31197115738 428.82495769259 509.47597674932 448 486.28886763299 448zM496.72400853506 379.7948642484v-161.95187992054H182.08755794276V417.35383709808h277.62372158046 C480.12949746156 417.35383709808 496.72400853506 400.51445809727 496.72400853506 379.7948642484zM31.606798616732 4.1862997571922V379.7948642484c0 20.719593848871 16.53800309028 37.55897284968 36.993893017438 37.55897284968h72.537414465455v-450.74534618498H68.60069163417 C48.144801707012 -33.391509086896 31.606798616732 -16.570966080495 31.606798616732 4.1862997571922zM459.71127952321 -33.391509086896H182.08755794276V175.34898094327h314.6364505923v-171.18151718049C496.72400853506 -16.570966080495 480.12949746156 -33.391509086896 459.71127952321 -33.391509086896z"/></font></defs></svg>
