<?xml version="1.0" encoding="utf-8"?>
<!-- Generator: Adobe Illustrator 20.1.0, SVG Export Plug-In . SVG Version: 6.00 Build 0)  -->
<svg version="1.1" id="Calque_1" xmlns="http://www.w3.org/2000/svg" xmlns:xlink="http://www.w3.org/1999/xlink" x="0px" y="0px"
	 viewBox="0 0 43.5 53.5" style="enable-background:new 0 0 43.5 53.5;" xml:space="preserve">
<style type="text/css">
	.st0{font-family:'HelveticaNeueLTStd-Bd';}
	.st1{font-size:11px;}
	.st2{fill:none;stroke:#000000;stroke-width:2;stroke-linecap:round;stroke-linejoin:round;stroke-miterlimit:10;}
</style>
<g transform="translate(0,-952.36218)">
	<path d="M6.4,956.5c-0.5,0-0.9,0.5-0.9,1v42c0,0.6,0.4,1,1,1h32c0.6,0,1-0.4,1-1v-35c0-0.3-0.1-0.5-0.3-0.7l-7-7
		c-0.2-0.2-0.4-0.3-0.7-0.3H6.4C6.5,956.5,6.4,956.5,6.4,956.5z M7.5,958.5h23v6c0,0.5,0.5,1,1,1h6v33h-30V958.5z M32.5,959.9
		l3.6,3.6h-3.6V959.9z"/>
</g>
<text transform="matrix(1 0 0 1 11 43.3037)" class="st0 st1">DOC</text>
<line class="st2" x1="10.8" y1="15" x2="27.7" y2="15"/>
<line class="st2" x1="10.8" y1="20" x2="32.7" y2="20"/>
<line class="st2" x1="10.8" y1="25" x2="32.7" y2="25"/>
</svg>
