<?xml version="1.0" encoding="utf-8"?>
<!-- Generator: Adobe Illustrator 20.0.0, SVG Export Plug-In . SVG Version: 6.00 Build 0)  -->
<svg version="1.1" id="Layer_1" xmlns="http://www.w3.org/2000/svg" xmlns:xlink="http://www.w3.org/1999/xlink" x="0px" y="0px"
	 viewBox="0 0 42.7 42.7" style="enable-background:new 0 0 42.7 42.7;" xml:space="preserve">
<style type="text/css">
	.st0{fill:#7B7270;}
</style>
<g>
	<path class="st0" d="M1.3,18.5c0.4-1.7,0.6-3.4,1.3-5C5.2,6.8,10.1,2.8,17.1,1.8c9.8-1.5,18.6,4.7,20.7,14.3
		c0.1,0.5,0.1,1.1-0.1,1.6c-0.5,1.3-1.1,2.5-1.9,3.7c0.1-5.2-1.5-9.5-5.2-13.3c-0.2,0.3-0.4,0.5-0.5,0.8c-0.4,0.7-0.2,1,0.5,1.4
		c0.2,0.1,0.4,0.3,0.4,0.5c0,0.3-0.2,0.6-0.4,0.7c-1.2,0.8-1.3,1.1-0.5,2.1c-0.6,0.7-1.1,1.3-1.7,2c-1.9,2.2-1.5,4.5,1.1,5.9
		c1.3,0.7,2.7,0.9,4.2,0.9c0.2,0,0.5,0.1,0.5,0.2c0,0.2,0,0.5-0.2,0.6c-2.1,1.9-4.5,3.3-7.2,4.4c0-1.6,0-3.2,0-4.8
		c-1,0.6-2,1-2.7,1.4c-0.6-0.5-1.2-1.1-1.8-1.5c-1.6-1-3.2-2-4.7-3c-1.1-0.7-2.3-0.9-3.5-0.4c-0.6,0.3-1,0.1-1.3-0.4
		c-0.3-0.5-0.7-0.9-1.1-1.4c-0.3-0.5-0.7-0.4-1.2-0.3c-0.2,0.1-0.5,0-0.7-0.1c0.1-0.3,0.1-0.7,0.3-0.8c0.8-0.4,1.6-0.6,2.4-1
		c0.6,1,0.8,1,1.6,0.3c0.4-0.3,0.8-0.7,1.1-1.1c0.8-1.1,2-1.9,3.2-2.5c0.5-0.2,1-0.5,0.9-1.1c0.4,0.1,1,0.4,1.1,0.3
		c0.3-0.3,0.4-0.8,0.4-1.3c0-0.3-0.2-0.7-0.4-0.9c-0.4-0.5-0.8-1-1.2-1.5c0.4-0.2,0.7-0.3,1-0.4c0.8-0.4,0.9-0.9,0.3-1.5
		c-0.4-0.4-0.6-0.7-0.1-1.2c-1.4-0.4-2.8-0.4-4.1-0.2c-4.9,0.9-8.4,3.6-10.6,8c-0.6,1.2-0.8,2.5-0.2,3.8c0.1,0.2,0.3,0.5,0.4,0.5
		c0.8,0.1,1,0.6,1.3,1.1c0.6,0.8,1.3,1.2,2.3,1.2c0.8,0,3,1.5,3.3,2.3c0.1,0.2,0.1,0.5,0,0.7c-0.7,1.7-0.5,3,1,4.2
		c1,0.8,0.9,1.9,1.1,2.9c0,0.1-0.3,0.4-0.5,0.5c-1.8,1-3.6,2-5.5,3c2.9,1.9,5.7,3.8,8.5,5.7c-7.4-1.1-12.5-5-15.1-12
		c-0.6-1.5-0.8-3.1-1.1-4.6C1.3,20.6,1.3,19.5,1.3,18.5z M22.8,4.3c0.4,0.9,0.7,1.5,1,2.2c0.1,0.1,0.2,0.2,0.3,0.2
		c1.1,0,2.3,0,3.4,0c0-0.1,0-0.2,0-0.2C26.1,5.8,24.5,5.1,22.8,4.3z"/>
	<path class="st0" d="M38.7,12.5c2.9,5,3.8,10.7,0.7,15.3c-1.8,2.7-4.3,4.6-7.2,5.9c-2.2,1-4.4,1.7-6.8,2.7c0,1.3,0,2.9,0,4.6
		c-4.1-2.8-8.1-5.5-12.2-8.2c4.1-2.2,8.1-4.4,12.2-6.7c0,1.5,0,2.8,0,4.1c0.1,0,0.2,0.1,0.3,0.1c3.9-1.5,7.5-3.3,10.4-6.4
		c2.9-3.2,3.9-6.8,2.7-11C38.7,12.8,38.7,12.8,38.7,12.5z"/>
</g>
</svg>
