<?xml version="1.0" encoding="utf-8"?>
<!-- Generator: Adobe Illustrator 20.0.0, SVG Export Plug-In . SVG Version: 6.00 Build 0)  -->
<svg version="1.1" id="Layer_1" xmlns="http://www.w3.org/2000/svg" xmlns:xlink="http://www.w3.org/1999/xlink" x="0px" y="0px"
	 viewBox="0 0 29.9 31" style="enable-background:new 0 0 29.9 31;" xml:space="preserve">
<style type="text/css">
	.st0{fill:#FF614C;}
</style>
<path class="st0" d="M24.1,2.5H5.9C3.7,2.5,2,4.2,2,6.4v18.2c0,2.2,1.7,3.9,3.9,3.9h18.2c2.2,0,3.9-1.7,3.9-3.9V6.4
	C28,4.2,26.3,2.5,24.1,2.5z M9.8,25.9H5.9c-0.8,0-1.3-0.5-1.3-1.3v-3.9h5.2V25.9z M9.8,18.1H4.6v-5.2h5.2V18.1z M17.6,25.9h-5.2
	v-5.2h5.2V25.9z M17.6,18.1h-5.2v-5.2h5.2V18.1z M25.4,24.6c0,0.8-0.5,1.3-1.3,1.3h-3.9v-5.2h5.2V24.6z M25.4,18.1h-5.2v-5.2h5.2
	V18.1z M25.4,10.3H4.6V6.4c0-0.8,0.5-1.3,1.3-1.3h18.2c0.8,0,1.3,0.5,1.3,1.3V10.3z"/>
</svg>
