<?xml version="1.0" encoding="utf-8"?>
<!-- Generator: Adobe Illustrator 20.1.0, SVG Export Plug-In . SVG Version: 6.00 Build 0)  -->
<svg version="1.1" id="Calque_1" xmlns="http://www.w3.org/2000/svg" xmlns:xlink="http://www.w3.org/1999/xlink" x="0px" y="0px"
	 viewBox="0 0 411 407" style="enable-background:new 0 0 411 407;" xml:space="preserve">
<g>
	<path d="M208,236.5c52.8,0,93.8-73.1,93.8-135.9c0-55.8-35-89.1-93.8-89.1c-58.7,0-93.8,33.3-93.8,89.1
		C114.3,163.4,155.2,236.5,208,236.5z M158.2,71.2c9.4,9,28,15.3,49.8,15.3s40.4-6.2,49.8-15.3c5.2,9.3,6.5,19.9,6.5,29.4
		c0,46-30,98.4-56.3,98.4s-56.3-52.4-56.3-98.4C151.8,91.1,153.1,80.4,158.2,71.2z"/>
	<path d="M293.8,230.4l-57.3,91.2L227,274h-0.2l18.8-18.8h-75l18.8,18.8H189l-9.7,48.5l-57.2-92.2c-60.3,19.9-101.6,60-101.6,106.4
		c0,66.2,375,66.2,375,0C395.5,290.4,354.2,250.3,293.8,230.4z M207.2,367.6h0.4l-0.2,0.3L207.2,367.6z"/>
</g>
</svg>
