<?xml version="1.0" encoding="utf-8"?>
<!-- Generator: Adobe Illustrator 20.1.0, SVG Export Plug-In . SVG Version: 6.00 Build 0)  -->
<svg version="1.1" id="Calque_1" xmlns="http://www.w3.org/2000/svg" xmlns:xlink="http://www.w3.org/1999/xlink" x="0px" y="0px"
	 viewBox="0 0 274.5 358.5" style="enable-background:new 0 0 274.5 358.5;" xml:space="preserve">
<style type="text/css">
	.st0{fill:#010101;}
</style>
<g>
	<g>
		<path class="st0" d="M137.2,44.5c21,0,44.7,10.5,63.4,28.1c9.5,9,17.4,19.5,22.7,30.5c5.6,11.7,8.5,23.8,8.5,36
			c0,23.7-15.4,65.6-39.3,106.6c-11,18.9-23.1,36.3-34,49c-11.7,13.5-18.5,17.7-21,18.9c-2.5-1.4-9.3-5.9-21-19.7
			c-11-13-23.1-30.4-34.1-49.1C57.9,203,42.6,162.5,42.6,139.1c0-24.4,10.7-48.1,30-66.6C91.1,54.7,114.7,44.5,137.2,44.5
			 M137.2,26.5c-55.4,0-112.6,50.4-112.6,112.6S107.9,332,137.2,332c32.4,0,112.6-130.6,112.6-192.8S189.1,26.5,137.2,26.5
			L137.2,26.5z"/>
	</g>
	<g>
		<path class="st0" d="M137.2,107.3c18.6,0,33.8,15.1,33.8,33.8s-15.1,33.8-33.8,33.8s-33.8-15.1-33.8-33.8S118.6,107.3,137.2,107.3
			 M137.2,89.3c-28.6,0-51.8,23.2-51.8,51.8c0,28.6,23.2,51.8,51.8,51.8c28.6,0,51.8-23.2,51.8-51.8
			C189,112.4,165.8,89.3,137.2,89.3L137.2,89.3z"/>
	</g>
</g>
</svg>
