<?xml version="1.0" encoding="utf-8"?>
<!-- Generator: Adobe Illustrator 20.1.0, SVG Export Plug-In . SVG Version: 6.00 Build 0)  -->
<svg version="1.1" id="Layer_1" xmlns="http://www.w3.org/2000/svg" xmlns:xlink="http://www.w3.org/1999/xlink" x="0px" y="0px"
	 viewBox="93.3 22 246 324" style="enable-background:new 93.3 22 246 324;" xml:space="preserve">
<style type="text/css">
	.st0{display:none;}
</style>
<g>
	<path class="st0" d="M216.3,31.4c-60.8,0-110.2,49.5-110.2,110.2c0,57.6,97.9,221.1,102.1,228.1c3.7,6.1,12.6,6.1,16.3,0
		c4.2-7,102.1-170.4,102.1-228.1C326.6,80.8,277.1,31.4,216.3,31.4z M172.7,266.2c-3.2-6.3-6.4-12.7-9.5-19 M154.1,228.2
		c-16.5-35.6-29-68.5-29-86.6c0-50.3,40.9-91.2,91.2-91.2s91.2,40.9,91.2,91.2c0,39.6-59.7,150.5-91.2,204.4
		c-9.4-16.3-21.5-37.6-33.7-60.7"/>
</g>
<g>
	<path d="M216.3,48c21,0,44.7,10.5,63.4,28.1c9.5,9,17.4,19.5,22.7,30.5c5.6,11.7,8.5,23.8,8.5,36c0,23.7-15.4,65.6-39.3,106.6
		c-11,18.9-23.1,36.3-34,49c-11.7,13.5-18.5,17.7-21,18.9c-2.5-1.4-9.3-5.9-21-19.7c-11-13-23.1-30.4-34.1-49.1
		c-24.6-41.7-39.8-82.2-39.8-105.6c0-24.4,10.7-48.1,30-66.6C170.2,58.2,193.8,48,216.3,48 M216.3,30
		c-55.4,0-112.6,50.4-112.6,112.6s83.2,192.8,112.6,192.8c32.4,0,112.6-130.6,112.6-192.8S268.2,30,216.3,30L216.3,30z"/>
</g>
<path d="M278.9,133.8l-56.3-49.3c-3.6-3.2-9-3.2-12.6,0l-56.3,49.3c-6.6,5.8-2.5,16.7,6.3,16.7h5.3v52.2c0,5.3,4.3,9.5,9.5,9.5h83
	c5.3,0,9.5-4.3,9.5-9.5v-52.2h5.3C281.5,150.5,285.5,139.6,278.9,133.8z M216.3,104.3l31,27.1h-62L216.3,104.3z M248.3,193.3h-22.5
	v-12.7c0-5.3-4.3-9.5-9.5-9.5c-5.3,0-9.5,4.3-9.5,9.5v12.7h-22.5v-42.7h64V193.3z"/>
</svg>
