<?xml version="1.0" encoding="utf-8"?>
<!-- Generator: Adobe Illustrator 20.1.0, SVG Export Plug-In . SVG Version: 6.00 Build 0)  -->
<svg version="1.1" id="Calque_1" xmlns="http://www.w3.org/2000/svg" xmlns:xlink="http://www.w3.org/1999/xlink" x="0px" y="0px"
	 viewBox="0 0 100 99" style="enable-background:new 0 0 100 99;" xml:space="preserve">
<g>
	<g>
		<path d="M50,56.8c7.3,0,13.3-7.2,13.3-16.1c0-8.9-6-16.1-13.3-16.1c-3.6,0-7,1.7-9.5,4.9c-2.4,3-3.8,7-3.8,11.3
			C36.7,49.6,42.7,56.8,50,56.8z M50,28c5.4,0,9.7,5.7,9.7,12.6c0,6.9-4.4,12.6-9.7,12.6c-5.4,0-9.7-5.7-9.7-12.6
			C40.3,33.7,44.6,28,50,28z M61.1,55c-1,0-1.8,0.8-1.8,1.8c0,1,0.8,1.8,1.8,1.8c6,0,11,4.9,11,11c0,0.8-0.6,1.4-1.4,1.4H29.3
			c-0.8,0-1.4-0.6-1.4-1.4c0-6.1,4.9-11,11-11c1,0,1.8-0.8,1.8-1.8c0-1-0.8-1.8-1.8-1.8c-8,0-14.5,6.5-14.5,14.5c0,2.7,2.2,5,5,5
			h41.4c2.7,0,5-2.2,5-5C75.7,61.5,69.1,55,61.1,55z"/>
		<path d="M70.7,75.5H29.3c-3.3,0-6-2.7-6-6c0-8.6,7-15.5,15.5-15.5c1.5,0,2.8,1.2,2.8,2.8s-1.2,2.8-2.8,2.8c-5.5,0-10,4.5-10,10
			c0,0.2,0.2,0.4,0.4,0.4h41.4c0.2,0,0.4-0.2,0.4-0.4c0-5.5-4.5-10-10-10c-1.5,0-2.8-1.2-2.8-2.8s1.2-2.8,2.8-2.8
			c8.6,0,15.5,7,15.5,15.5C76.7,72.8,74,75.5,70.7,75.5z M38.9,56c-7.4,0-13.5,6.1-13.5,13.5c0,2.2,1.8,4,4,4h41.4c2.2,0,4-1.8,4-4
			c0-7.5-6.1-13.5-13.5-13.5c-0.4,0-0.8,0.3-0.8,0.8c0,0.4,0.3,0.8,0.8,0.8c6.6,0,12,5.4,12,12c0,1.3-1.1,2.4-2.4,2.4H29.3
			c-1.3,0-2.4-1.1-2.4-2.4c0-6.6,5.4-12,12-12c0.4,0,0.8-0.3,0.8-0.8C39.6,56.4,39.3,56,38.9,56z M50,57.8
			c-7.9,0-14.3-7.7-14.3-17.1c0-4.5,1.4-8.7,4-11.9c2.7-3.4,6.4-5.2,10.3-5.2c7.9,0,14.3,7.7,14.3,17.1C64.3,50.1,57.9,57.8,50,57.8
			z M50,25.5c-3.3,0-6.4,1.6-8.7,4.5c-2.3,2.9-3.5,6.6-3.5,10.6c0,8.4,5.5,15.1,12.3,15.1c6.8,0,12.3-6.8,12.3-15.1
			C62.3,32.3,56.8,25.5,50,25.5z M50,54.3c-5.9,0-10.7-6.1-10.7-13.6C39.3,33.1,44.1,27,50,27c5.9,0,10.7,6.1,10.7,13.6
			C60.7,48.2,55.9,54.3,50,54.3z M50,29c-4.8,0-8.7,5.2-8.7,11.6c0,6.4,3.9,11.6,8.7,11.6c4.8,0,8.7-5.2,8.7-11.6S54.8,29,50,29z"/>
	</g>
</g>
<g>
	<g>
		<path d="M50,95.5c-25.4,0-46-20.6-46-46c0-25.4,20.6-46,46-46s46,20.6,46,46C96,74.9,75.4,95.5,50,95.5z M50,7
			C26.6,7,7.5,26.1,7.5,49.5C7.5,72.9,26.6,92,50,92c23.4,0,42.5-19.1,42.5-42.5C92.5,26.1,73.4,7,50,7z"/>
		<path d="M50,96.5c-25.9,0-47-21.1-47-47c0-25.9,21.1-47,47-47c25.9,0,47,21.1,47,47C97,75.4,75.9,96.5,50,96.5z M50,4.5
			c-24.8,0-45,20.2-45,45c0,24.8,20.2,45,45,45c24.8,0,45-20.2,45-45C95,24.7,74.8,4.5,50,4.5z M50,93C26,93,6.5,73.5,6.5,49.5
			C6.5,25.5,26,6,50,6c24,0,43.5,19.5,43.5,43.5C93.5,73.5,74,93,50,93z M50,8C27.1,8,8.5,26.6,8.5,49.5S27.1,91,50,91
			s41.5-18.6,41.5-41.5C91.5,26.6,72.9,8,50,8z"/>
	</g>
</g>
</svg>
