<?xml version="1.0" encoding="utf-8"?>
<!-- Generator: Adobe Illustrator 20.1.0, SVG Export Plug-In . SVG Version: 6.00 Build 0)  -->
<svg version="1.1" id="Calque_1" xmlns:sketch="http://www.bohemiancoding.com/sketch/ns"
	 xmlns="http://www.w3.org/2000/svg" xmlns:xlink="http://www.w3.org/1999/xlink" x="0px" y="0px" viewBox="0 0 100 100"
	 style="enable-background:new 0 0 100 100;" xml:space="preserve">
<title>gear</title>
<description>Created with Sketch (http://www.bohemiancoding.com/sketch)</description>
<g>
	<g>
		<path d="M15.9,60H3.4c-1.8,0-3.3-1.5-3.3-3.3V43.4c0-1.8,1.5-3.3,3.3-3.3h12.5c0.7-2.5,1.7-4.9,2.9-7.1L10,24.2
			c-1.3-1.3-1.3-3.4,0-4.7l9.4-9.4c1.3-1.3,3.4-1.3,4.7,0l8.8,8.8c2.2-1.2,4.6-2.2,7.1-3V3.5c0-1.8,1.5-3.3,3.3-3.3h13.3
			c1.8,0,3.3,1.5,3.3,3.3v12.4c2.5,0.7,4.9,1.7,7.2,3l8.7-8.7c1.3-1.3,3.4-1.3,4.7,0l9.4,9.4c1.3,1.3,1.3,3.4,0,4.7l-8.7,8.7
			c1.2,2.3,2.2,4.7,3,7.2h12.3c1.8,0,3.3,1.5,3.3,3.3v13.3c0,1.8-1.5,3.3-3.3,3.3H84.3c-0.7,2.5-1.7,4.9-3,7.2l8.7,8.7
			c1.3,1.3,1.3,3.4,0,4.7l-9.4,9.4c-1.3,1.3-3.4,1.3-4.7,0l-8.8-8.8c-2.2,1.2-4.6,2.2-7.1,2.9v12.4c0,1.8-1.5,3.3-3.3,3.3H43.4
			c-1.8,0-3.3-1.5-3.3-3.3V84.2c-2.5-0.7-4.9-1.7-7.1-3l-8.8,8.8c-1.3,1.3-3.4,1.3-4.7,0L10,80.6c-1.3-1.3-1.3-3.4,0-4.7l8.8-8.8
			C17.6,64.9,16.6,62.5,15.9,60z M30.1,50c0,11,8.9,20,20,20s20-8.9,20-20s-8.9-20-20-20S30.1,39,30.1,50z"/>
	</g>
</g>
</svg>
