<?xml version="1.0" encoding="UTF-8" standalone="no"?>
<svg width="36px" height="32px" viewBox="0 0 36 32" version="1.1" xmlns="http://www.w3.org/2000/svg" xmlns:xlink="http://www.w3.org/1999/xlink">
    <!-- Generator: Sketch 3.8.3 (29802) - http://www.bohemiancoding.com/sketch -->
    <title>Group</title>
    <desc>Created with Sketch.</desc>
    <defs></defs>
    <g id="Panier" stroke="none" stroke-width="1" fill="none" fill-rule="evenodd">
        <g id="Mon-panier-(informations)" transform="translate(-637.000000, -1292.000000)">
            <g id="Paiement" transform="translate(136.000000, 1009.000000)">
                <g id="Même-que-l'adresse-de-livraison-Copy-3" transform="translate(218.000000, 195.000000)">
                    <g id="Nom" transform="translate(15.000000, 60.000000)">
                        <g id="Group" transform="translate(268.000000, 28.000000)">
                            <rect id="Rectangle-149" fill="#FFFFFF" x="0" y="0" width="36" height="32"></rect>
                            <polygon id="Triangle-3" fill="#B3B3B3" points="15 14 24 14 19.5 19"></polygon>
                        </g>
                    </g>
                </g>
            </g>
        </g>
    </g>
</svg>