<?xml version="1.0" encoding="UTF-8" standalone="no"?>
<svg width="187px" height="165px" viewBox="0 0 187 165" version="1.1" xmlns="http://www.w3.org/2000/svg" xmlns:xlink="http://www.w3.org/1999/xlink">
    <!-- Generator: Sketch 3.8.3 (29802) - http://www.bohemiancoding.com/sketch -->
    <title>Mosaic</title>
    <desc>Created with Sketch.</desc>
    <defs></defs>
    <g id="Home" stroke="none" stroke-width="1" fill="none" fill-rule="evenodd" opacity="0.15">
        <g id="Connexion/Inscription-MODAL" transform="translate(-331.000000, -210.000000)">
            <g id="Modal" transform="translate(331.000000, 210.000000)">
                <g id="Mon-compte">
                    <g id="Mosaic">
                        <rect id="Rectangle-120" fill="#D8D8D8" x="0" y="0" width="8.9047619" height="8.91891892"></rect>
                        <rect id="Rectangle-120-Copy" fill="#D8D8D8" x="11.1309524" y="0" width="8.9047619" height="8.91891892"></rect>
                        <rect id="Rectangle-120-Copy-2" fill="#D8D8D8" x="22.2619048" y="0" width="8.9047619" height="8.91891892"></rect>
                        <rect id="Rectangle-120-Copy-3" fill="#D8D8D8" x="33.3928571" y="0" width="8.9047619" height="8.91891892"></rect>
                        <rect id="Rectangle-120-Copy-4" fill="#D8D8D8" x="44.5238095" y="0" width="8.9047619" height="8.91891892"></rect>
                        <rect id="Rectangle-120-Copy-5" fill="#D8D8D8" x="55.6547619" y="0" width="8.9047619" height="8.91891892"></rect>
                        <rect id="Rectangle-120-Copy-6" fill="#D8D8D8" x="66.7857143" y="0" width="8.9047619" height="8.91891892"></rect>
                        <rect id="Rectangle-120-Copy-7" fill="#D8D8D8" x="77.9166667" y="0" width="8.9047619" height="8.91891892"></rect>
                        <rect id="Rectangle-120" fill="#D8D8D8" x="0" y="22.2972973" width="8.9047619" height="8.91891892"></rect>
                        <rect id="Rectangle-120-Copy" fill="#4990E2" opacity="0.5" x="11.1309524" y="22.2972973" width="8.9047619" height="8.91891892"></rect>
                        <rect id="Rectangle-120-Copy-2" fill="#D8D8D8" x="22.2619048" y="22.2972973" width="8.9047619" height="8.91891892"></rect>
                        <rect id="Rectangle-120-Copy-3" fill="#4990E2" x="33.3928571" y="22.2972973" width="8.9047619" height="8.91891892"></rect>
                        <rect id="Rectangle-120-Copy-4" fill="#D8D8D8" x="44.5238095" y="22.2972973" width="8.9047619" height="8.91891892"></rect>
                        <rect id="Rectangle-120-Copy-5" fill="#D8D8D8" x="55.6547619" y="22.2972973" width="8.9047619" height="8.91891892"></rect>
                        <rect id="Rectangle-120-Copy-6" fill="#4990E2" opacity="0.5" x="66.7857143" y="22.2972973" width="8.9047619" height="8.91891892"></rect>
                        <rect id="Rectangle-120-Copy-7" fill="#D8D8D8" x="77.9166667" y="22.2972973" width="8.9047619" height="8.91891892"></rect>
                        <rect id="Rectangle-120" fill="#D8D8D8" x="0" y="11.1486486" width="8.9047619" height="8.91891892"></rect>
                        <rect id="Rectangle-120-Copy" fill="#D8D8D8" x="11.1309524" y="11.1486486" width="8.9047619" height="8.91891892"></rect>
                        <rect id="Rectangle-120-Copy-2" fill="#D8D8D8" x="22.2619048" y="11.1486486" width="8.9047619" height="8.91891892"></rect>
                        <rect id="Rectangle-120-Copy-3" fill="#D8D8D8" x="33.3928571" y="11.1486486" width="8.9047619" height="8.91891892"></rect>
                        <rect id="Rectangle-120-Copy-4" fill="#D8D8D8" opacity="0.2" x="44.5238095" y="11.1486486" width="8.9047619" height="8.91891892"></rect>
                        <rect id="Rectangle-120-Copy-5" fill="#D8D8D8" x="55.6547619" y="11.1486486" width="8.9047619" height="8.91891892"></rect>
                        <rect id="Rectangle-120-Copy-6" fill="#D8D8D8" opacity="0.5" x="66.7857143" y="11.1486486" width="8.9047619" height="8.91891892"></rect>
                        <rect id="Rectangle-120-Copy-7" fill="#D8D8D8" x="77.9166667" y="11.1486486" width="8.9047619" height="8.91891892"></rect>
                        <rect id="Rectangle-120" fill="#D8D8D8" x="89.047619" y="0" width="8.9047619" height="8.91891892"></rect>
                        <rect id="Rectangle-120-Copy" fill="#D8D8D8" x="100.178571" y="0" width="8.9047619" height="8.91891892"></rect>
                        <rect id="Rectangle-120-Copy-2" fill="#D8D8D8" x="111.309524" y="0" width="8.9047619" height="8.91891892"></rect>
                        <rect id="Rectangle-120-Copy-3" fill="#D8D8D8" x="122.440476" y="0" width="8.9047619" height="8.91891892"></rect>
                        <rect id="Rectangle-120-Copy-4" fill="#D8D8D8" x="133.571429" y="0" width="8.9047619" height="8.91891892"></rect>
                        <rect id="Rectangle-120-Copy-5" fill="#4990E2" x="144.702381" y="0" width="8.9047619" height="8.91891892"></rect>
                        <rect id="Rectangle-120" fill="#D8D8D8" x="89.047619" y="22.2972973" width="8.9047619" height="8.91891892"></rect>
                        <rect id="Rectangle-120-Copy" fill="#4990E2" opacity="0.4" x="100.178571" y="22.2972973" width="8.9047619" height="8.91891892"></rect>
                        <rect id="Rectangle-120-Copy-4" fill="#D8D8D8" opacity="0.2" x="133.571429" y="22.2972973" width="8.9047619" height="8.91891892"></rect>
                        <rect id="Rectangle-120-Copy-5" fill="#D8D8D8" opacity="0.2" x="144.702381" y="22.2972973" width="8.9047619" height="8.91891892"></rect>
                        <rect id="Rectangle-120" fill="#D8D8D8" opacity="0.4" x="89.047619" y="11.1486486" width="8.9047619" height="8.91891892"></rect>
                        <rect id="Rectangle-120-Copy" fill="#D8D8D8" x="100.178571" y="11.1486486" width="8.9047619" height="8.91891892"></rect>
                        <rect id="Rectangle-120-Copy-2" fill="#D8D8D8" x="111.309524" y="11.1486486" width="8.9047619" height="8.91891892"></rect>
                        <rect id="Rectangle-120-Copy-4" fill="#D8D8D8" x="133.571429" y="11.1486486" width="8.9047619" height="8.91891892"></rect>
                        <rect id="Rectangle-120" fill="#D8D8D8" x="0" y="133.783784" width="8.9047619" height="8.91891892"></rect>
                        <rect id="Rectangle-120-Copy" fill="#4990E2" opacity="0.4" x="11.1309524" y="133.783784" width="8.9047619" height="8.91891892"></rect>
                        <rect id="Rectangle-120-Copy-2" fill="#D8D8D8" x="22.2619048" y="133.783784" width="8.9047619" height="8.91891892"></rect>
                        <rect id="Rectangle-120-Copy-4" fill="#D8D8D8" opacity="0.4" x="44.5238095" y="133.783784" width="8.9047619" height="8.91891892"></rect>
                        <rect id="Rectangle-120-Copy-6" fill="#4990E2" x="66.7857143" y="133.783784" width="8.9047619" height="8.91891892"></rect>
                        <rect id="Rectangle-120" fill="#D8D8D8" opacity="0.3" x="0" y="156.081081" width="8.9047619" height="8.91891892"></rect>
                        <rect id="Rectangle-120-Copy" fill="#D8D8D8" x="11.1309524" y="156.081081" width="8.9047619" height="8.91891892"></rect>
                        <rect id="Rectangle-120" fill="#D8D8D8" opacity="0.6" x="0" y="144.932432" width="8.9047619" height="8.91891892"></rect>
                        <rect id="Rectangle-120-Copy-2" fill="#D8D8D8" x="22.2619048" y="144.932432" width="8.9047619" height="8.91891892"></rect>
                        <rect id="Rectangle-120-Copy-3" fill="#D8D8D8" opacity="0.4" x="33.3928571" y="144.932432" width="8.9047619" height="8.91891892"></rect>
                        <rect id="Rectangle-120-Copy-4" fill="#D8D8D8" opacity="0.4" x="44.5238095" y="144.932432" width="8.9047619" height="8.91891892"></rect>
                        <rect id="Rectangle-120" fill="#D8D8D8" x="0" y="100.337838" width="8.9047619" height="8.91891892"></rect>
                        <rect id="Rectangle-120-Copy" fill="#D8D8D8" x="11.1309524" y="100.337838" width="8.9047619" height="8.91891892"></rect>
                        <rect id="Rectangle-120-Copy-3" fill="#D8D8D8" x="33.3928571" y="100.337838" width="8.9047619" height="8.91891892"></rect>
                        <rect id="Rectangle-120-Copy-4" fill="#D8D8D8" opacity="0.2" x="44.5238095" y="100.337838" width="8.9047619" height="8.91891892"></rect>
                        <rect id="Rectangle-120-Copy-6" fill="#D8D8D8" x="66.7857143" y="100.337838" width="8.9047619" height="8.91891892"></rect>
                        <rect id="Rectangle-120-Copy-7" fill="#D8D8D8" x="77.9166667" y="100.337838" width="8.9047619" height="8.91891892"></rect>
                        <rect id="Rectangle-120" fill="#D8D8D8" opacity="0.5" x="0" y="122.635135" width="8.9047619" height="8.91891892"></rect>
                        <rect id="Rectangle-120-Copy" fill="#D8D8D8" x="11.1309524" y="122.635135" width="8.9047619" height="8.91891892"></rect>
                        <rect id="Rectangle-120-Copy-3" fill="#D8D8D8" x="33.3928571" y="122.635135" width="8.9047619" height="8.91891892"></rect>
                        <rect id="Rectangle-120-Copy-4" fill="#D8D8D8" opacity="0.2" x="44.5238095" y="122.635135" width="8.9047619" height="8.91891892"></rect>
                        <rect id="Rectangle-120-Copy-5" fill="#D8D8D8" x="55.6547619" y="122.635135" width="8.9047619" height="8.91891892"></rect>
                        <rect id="Rectangle-120-Copy-7" fill="#D8D8D8" opacity="0.5" x="77.9166667" y="122.635135" width="8.9047619" height="8.91891892"></rect>
                        <rect id="Rectangle-120" fill="#D8D8D8" x="0" y="111.486486" width="8.9047619" height="8.91891892"></rect>
                        <rect id="Rectangle-120-Copy" fill="#D8D8D8" x="11.1309524" y="111.486486" width="8.9047619" height="8.91891892"></rect>
                        <rect id="Rectangle-120-Copy-2" fill="#D8D8D8" opacity="0.6" x="22.2619048" y="111.486486" width="8.9047619" height="8.91891892"></rect>
                        <rect id="Rectangle-120-Copy-3" fill="#D8D8D8" x="33.3928571" y="111.486486" width="8.9047619" height="8.91891892"></rect>
                        <rect id="Rectangle-120-Copy-4" fill="#D8D8D8" x="44.5238095" y="111.486486" width="8.9047619" height="8.91891892"></rect>
                        <rect id="Rectangle-120-Copy-5" fill="#D8D8D8" x="55.6547619" y="111.486486" width="8.9047619" height="8.91891892"></rect>
                        <rect id="Rectangle-120-Copy-7" fill="#D8D8D8" opacity="0.5" x="77.9166667" y="111.486486" width="8.9047619" height="8.91891892"></rect>
                        <rect id="Rectangle-120" fill="#D8D8D8" opacity="0.5" x="89.047619" y="100.337838" width="8.9047619" height="8.91891892"></rect>
                        <rect id="Rectangle-120-Copy" fill="#4990E2" opacity="0.5" x="100.178571" y="111.486486" width="8.9047619" height="8.91891892"></rect>
                        <rect id="Rectangle-120" fill="#D8D8D8" x="0" y="66.8918919" width="8.9047619" height="8.91891892"></rect>
                        <rect id="Rectangle-120-Copy" fill="#D8D8D8" x="11.1309524" y="66.8918919" width="8.9047619" height="8.91891892"></rect>
                        <rect id="Rectangle-120-Copy-2" fill="#D8D8D8" opacity="0.2" x="22.2619048" y="66.8918919" width="8.9047619" height="8.91891892"></rect>
                        <rect id="Rectangle-120-Copy-3" fill="#D8D8D8" x="33.3928571" y="66.8918919" width="8.9047619" height="8.91891892"></rect>
                        <rect id="Rectangle-120-Copy-4" fill="#D8D8D8" x="44.5238095" y="66.8918919" width="8.9047619" height="8.91891892"></rect>
                        <rect id="Rectangle-120-Copy-5" fill="#D8D8D8" x="55.6547619" y="66.8918919" width="8.9047619" height="8.91891892"></rect>
                        <rect id="Rectangle-120-Copy-6" fill="#D8D8D8" x="66.7857143" y="66.8918919" width="8.9047619" height="8.91891892"></rect>
                        <rect id="Rectangle-120" fill="#4990E2" x="0" y="89.1891892" width="8.9047619" height="8.91891892"></rect>
                        <rect id="Rectangle-120-Copy" fill="#D8D8D8" x="11.1309524" y="89.1891892" width="8.9047619" height="8.91891892"></rect>
                        <rect id="Rectangle-120-Copy-2" fill="#D8D8D8" x="22.2619048" y="89.1891892" width="8.9047619" height="8.91891892"></rect>
                        <rect id="Rectangle-120-Copy-3" fill="#D8D8D8" x="33.3928571" y="89.1891892" width="8.9047619" height="8.91891892"></rect>
                        <rect id="Rectangle-120-Copy-4" fill="#D8D8D8" opacity="0.7" x="44.5238095" y="89.1891892" width="8.9047619" height="8.91891892"></rect>
                        <rect id="Rectangle-120-Copy-5" fill="#D8D8D8" x="55.6547619" y="89.1891892" width="8.9047619" height="8.91891892"></rect>
                        <rect id="Rectangle-120-Copy-6" fill="#4990E2" x="66.7857143" y="89.1891892" width="8.9047619" height="8.91891892"></rect>
                        <rect id="Rectangle-120" fill="#D8D8D8" x="0" y="78.0405405" width="8.9047619" height="8.91891892"></rect>
                        <rect id="Rectangle-120-Copy" fill="#D8D8D8" opacity="0.4" x="11.1309524" y="78.0405405" width="8.9047619" height="8.91891892"></rect>
                        <rect id="Rectangle-120-Copy-2" fill="#D8D8D8" x="22.2619048" y="78.0405405" width="8.9047619" height="8.91891892"></rect>
                        <rect id="Rectangle-120-Copy-4" fill="#4990E2" x="44.5238095" y="78.0405405" width="8.9047619" height="8.91891892"></rect>
                        <rect id="Rectangle-120-Copy-5" fill="#D8D8D8" opacity="0.3" x="55.6547619" y="78.0405405" width="8.9047619" height="8.91891892"></rect>
                        <rect id="Rectangle-120-Copy-6" fill="#D8D8D8" x="66.7857143" y="78.0405405" width="8.9047619" height="8.91891892"></rect>
                        <rect id="Rectangle-120-Copy-7" fill="#D8D8D8" opacity="0.4" x="77.9166667" y="78.0405405" width="8.9047619" height="8.91891892"></rect>
                        <rect id="Rectangle-120" fill="#D8D8D8" x="89.047619" y="66.8918919" width="8.9047619" height="8.91891892"></rect>
                        <rect id="Rectangle-120-Copy" fill="#D8D8D8" opacity="0.5" x="100.178571" y="66.8918919" width="8.9047619" height="8.91891892"></rect>
                        <rect id="Rectangle-120-Copy-2" fill="#D8D8D8" opacity="0.7" x="111.309524" y="66.8918919" width="8.9047619" height="8.91891892"></rect>
                        <rect id="Rectangle-120-Copy-2" fill="#D8D8D8" opacity="0.7" x="111.309524" y="89.1891892" width="8.9047619" height="8.91891892"></rect>
                        <rect id="Rectangle-120-Copy-3" fill="#D8D8D8" opacity="0.7" x="122.440476" y="89.1891892" width="8.9047619" height="8.91891892"></rect>
                        <rect id="Rectangle-120" fill="#D8D8D8" x="89.047619" y="78.0405405" width="8.9047619" height="8.91891892"></rect>
                        <rect id="Rectangle-120" fill="#D8D8D8" x="0" y="33.4459459" width="8.9047619" height="8.91891892"></rect>
                        <rect id="Rectangle-120-Copy" fill="#D8D8D8" x="11.1309524" y="33.4459459" width="8.9047619" height="8.91891892"></rect>
                        <rect id="Rectangle-120-Copy-2" fill="#D8D8D8" x="22.2619048" y="33.4459459" width="8.9047619" height="8.91891892"></rect>
                        <rect id="Rectangle-120-Copy-3" fill="#D8D8D8" x="33.3928571" y="33.4459459" width="8.9047619" height="8.91891892"></rect>
                        <rect id="Rectangle-120-Copy-4" fill="#D8D8D8" x="44.5238095" y="33.4459459" width="8.9047619" height="8.91891892"></rect>
                        <rect id="Rectangle-120-Copy-5" fill="#D8D8D8" opacity="0.2" x="55.6547619" y="33.4459459" width="8.9047619" height="8.91891892"></rect>
                        <rect id="Rectangle-120-Copy-6" fill="#D8D8D8" x="66.7857143" y="33.4459459" width="8.9047619" height="8.91891892"></rect>
                        <rect id="Rectangle-120-Copy-7" fill="#D8D8D8" x="77.9166667" y="33.4459459" width="8.9047619" height="8.91891892"></rect>
                        <rect id="Rectangle-120" fill="#D8D8D8" x="0" y="55.7432432" width="8.9047619" height="8.91891892"></rect>
                        <rect id="Rectangle-120-Copy" fill="#4990E2" x="11.1309524" y="55.7432432" width="8.9047619" height="8.91891892"></rect>
                        <rect id="Rectangle-120-Copy-2" fill="#D8D8D8" x="22.2619048" y="55.7432432" width="8.9047619" height="8.91891892"></rect>
                        <rect id="Rectangle-120-Copy-3" fill="#D8D8D8" opacity="0.2" x="33.3928571" y="55.7432432" width="8.9047619" height="8.91891892"></rect>
                        <rect id="Rectangle-120-Copy-4" fill="#D8D8D8" opacity="0.6" x="44.5238095" y="55.7432432" width="8.9047619" height="8.91891892"></rect>
                        <rect id="Rectangle-120-Copy-5" fill="#D8D8D8" x="55.6547619" y="55.7432432" width="8.9047619" height="8.91891892"></rect>
                        <rect id="Rectangle-120-Copy-7" fill="#D8D8D8" x="77.9166667" y="55.7432432" width="8.9047619" height="8.91891892"></rect>
                        <rect id="Rectangle-120" fill="#D8D8D8" x="0" y="44.5945946" width="8.9047619" height="8.91891892"></rect>
                        <rect id="Rectangle-120-Copy" fill="#D8D8D8" x="11.1309524" y="44.5945946" width="8.9047619" height="8.91891892"></rect>
                        <rect id="Rectangle-120-Copy-2" fill="#D8D8D8" opacity="0.2" x="22.2619048" y="44.5945946" width="8.9047619" height="8.91891892"></rect>
                        <rect id="Rectangle-120-Copy-3" fill="#D8D8D8" x="33.3928571" y="44.5945946" width="8.9047619" height="8.91891892"></rect>
                        <rect id="Rectangle-120-Copy-4" fill="#D8D8D8" x="44.5238095" y="44.5945946" width="8.9047619" height="8.91891892"></rect>
                        <rect id="Rectangle-120-Copy-5" fill="#4990E2" opacity="0.5" x="55.6547619" y="44.5945946" width="8.9047619" height="8.91891892"></rect>
                        <rect id="Rectangle-120-Copy-6" fill="#D8D8D8" x="66.7857143" y="44.5945946" width="8.9047619" height="8.91891892"></rect>
                        <rect id="Rectangle-120-Copy-7" fill="#D8D8D8" opacity="0.2" x="77.9166667" y="44.5945946" width="8.9047619" height="8.91891892"></rect>
                        <rect id="Rectangle-120-Copy" fill="#D8D8D8" opacity="0.4" x="100.178571" y="33.4459459" width="8.9047619" height="8.91891892"></rect>
                        <rect id="Rectangle-120-Copy-2" fill="#D8D8D8" x="111.309524" y="33.4459459" width="8.9047619" height="8.91891892"></rect>
                        <rect id="Rectangle-120-Copy-3" fill="#D8D8D8" opacity="0.6" x="122.440476" y="33.4459459" width="8.9047619" height="8.91891892"></rect>
                        <rect id="Rectangle-120-Copy-4" fill="#4990E2" x="133.571429" y="33.4459459" width="8.9047619" height="8.91891892"></rect>
                        <rect id="Rectangle-120" fill="#4990E2" x="89.047619" y="55.7432432" width="8.9047619" height="8.91891892"></rect>
                        <rect id="Rectangle-120-Copy-2" fill="#D8D8D8" opacity="0.4" x="111.309524" y="55.7432432" width="8.9047619" height="8.91891892"></rect>
                        <rect id="Rectangle-120-Copy-3" fill="#D8D8D8" x="122.440476" y="55.7432432" width="8.9047619" height="8.91891892"></rect>
                        <rect id="Rectangle-120-Copy-4" fill="#D8D8D8" opacity="0.3" x="133.571429" y="55.7432432" width="8.9047619" height="8.91891892"></rect>
                        <rect id="Rectangle-120" fill="#D8D8D8" x="89.047619" y="44.5945946" width="8.9047619" height="8.91891892"></rect>
                        <rect id="Rectangle-120-Copy" fill="#D8D8D8" x="100.178571" y="44.5945946" width="8.9047619" height="8.91891892"></rect>
                        <rect id="Rectangle-120-Copy-3" fill="#D8D8D8" x="122.440476" y="44.5945946" width="8.9047619" height="8.91891892"></rect>
                        <rect id="Rectangle-120" fill="#D8D8D8" x="155.833333" y="0" width="8.9047619" height="8.91891892"></rect>
                        <rect id="Rectangle-120-Copy" fill="#D8D8D8" opacity="0.4" x="166.964286" y="0" width="8.9047619" height="8.91891892"></rect>
                        <rect id="Rectangle-120-Copy-2" fill="#D8D8D8" x="178.095238" y="0" width="8.9047619" height="8.91891892"></rect>
                        <rect id="Rectangle-120-Copy" fill="#D8D8D8" opacity="0.5" x="166.964286" y="22.2972973" width="8.9047619" height="8.91891892"></rect>
                        <rect id="Rectangle-120" fill="#4990E2" opacity="0.2" x="155.833333" y="11.1486486" width="8.9047619" height="8.91891892"></rect>
                        <rect id="Rectangle-120-Copy" fill="#D8D8D8" x="11.1309524" y="11.1486486" width="8.9047619" height="8.91891892"></rect>
                    </g>
                </g>
            </g>
        </g>
    </g>
</svg>