"1","La Pocatière","1",NULL,NULL
"2","Amqui","1",NULL,NULL
"3","Causapscal","1",NULL,NULL
"4","Métis-sur-Mer","1",NULL,NULL
"5","Mont-Joli","1",NULL,NULL
"6","Trois-Pistoles","1",NULL,NULL
"7","Matane","1",NULL,NULL
"8","Rimouski","1",NULL,NULL
"9","Saint-Pascal","1",NULL,NULL
"10","Rivière-du-Loup","1",NULL,NULL
"11","Dégelis","1",NULL,NULL
"12","Pohénégamook","1",NULL,NULL
"13","Témiscouata-sur-le-Lac","1",NULL,NULL
"14","Montreal-Downtown","6",NULL,NULL
"15","Quebec City","3",NULL,NULL
"16","Laval","13",NULL,NULL
"17","Gatineau","7",NULL,NULL
"18","Longueuil","16",NULL,NULL
"19","Waterville","5",NULL,NULL
"20","Saguenay","2",NULL,NULL
"21","Lévis","12",NULL,NULL
"22","Trois-Rivières","4",NULL,NULL
"23","Terrebonne","14",NULL,NULL
"24","Alma","2",NULL,NULL
"25","Amos","8",NULL,NULL
"26","Baie-Comeau","9",NULL,NULL
"27","Beaconsfield","6",NULL,NULL
"28","Beauharnois","16",NULL,NULL
"30","Beloeil","16",NULL,NULL
"31","Blainville","15",NULL,NULL
"32","Boisbriand","15",NULL,NULL
"34","Brossard","16",NULL,NULL
"35","Candiac","16",NULL,NULL
"36","Chambly","16",NULL,NULL
"37","Châteauguay","16",NULL,NULL
"38","Côte-Saint-Luc","6",NULL,NULL
"39","Cowansville","16",NULL,NULL
"40","Deux-Montagnes","15",NULL,NULL
"41","Dolbeau-Mistassini","2",NULL,NULL
"42","Dollard-Des Ormeaux","6",NULL,NULL
"43","Dorval","6",NULL,NULL
"44","Drummondville","17",NULL,NULL
"45","Gaspé","11",NULL,NULL
"46","Gracefield","7",NULL,NULL
"47","Granby","16",NULL,NULL
"48","Joliette","14",NULL,NULL
"49","Kirkland","6",NULL,NULL
"50","Lachute","15",NULL,NULL
"51","L'Ancienne-Lorette","3",NULL,NULL
"52","La Prairie","16",NULL,NULL
"53","L'Assomption","15",NULL,NULL
"54","La Tuque","4",NULL,NULL
"55","Lavaltrie","14",NULL,NULL
"56","L'Île-Perrot","16",NULL,NULL
"57","Magog","5",NULL,NULL
"58","Marieville","16",NULL,NULL
"59","Mascouche","14",NULL,NULL
"60","Mercier","16",NULL,NULL
"61","Mirabel","15",NULL,NULL
"62","Mont-Laurier","15",NULL,NULL
"63","Montmagny","1",NULL,NULL
"64","Mount Royal","6",NULL,NULL
"65","Mont-Saint-Hilaire","16",NULL,NULL
"66","Notre-Dame-de-l'Île-Perrot","16",NULL,NULL
"67","Pincourt","16",NULL,NULL
"68","Pointe-Claire","6",NULL,NULL
"69","Prévost","15",NULL,NULL
"70","Repentigny","14",NULL,NULL
"71","Roberval","2",NULL,NULL
"72","Rosemère","15",NULL,NULL
"73","Rouyn-Noranda","8",NULL,NULL
"74","Chicoutimi","2",NULL,NULL
"75","Saint-Amable","16",NULL,NULL
"76","Saint-Augustin-de-Desmaures","3",NULL,NULL
"77","Saint-Basile-le-Grand","16",NULL,NULL
"78","Saint-Bruno-de-Montarville","16",NULL,NULL
"79","Saint-Charles-Borromée","14",NULL,NULL
"80","Saint-Colomban","15",NULL,NULL
"81","Saint-Constant","16",NULL,NULL
"82","Sainte-Adèle","15",NULL,NULL
"83","Sainte-Agathe-des-Monts","15",NULL,NULL
"84","Sainte-Anne-des-Plaines","15",NULL,NULL
"85","Sainte-Catherine","16",NULL,NULL
"86","Sainte-Julie","16",NULL,NULL
"88","Sainte-Marthe-sur-le-Lac","15",NULL,NULL
"89","Sainte-Thérèse","15",NULL,NULL
"90","Saint-Eustache","15",NULL,NULL
"91","Saint-Félicien","2",NULL,NULL
"92","Saint-Georges","12",NULL,NULL
"93","Sainte-Hyacinthe","16",NULL,NULL
"94","Saint-Jean-sur-Richelieu","16",NULL,NULL
"95","Saint-Jérôme","15",NULL,NULL
"96","Saint-Lambert","16",NULL,NULL
"97","Saint-Lazare","16",NULL,NULL
"98","Saint-Lin-Laurentides","15",NULL,NULL
"99","Saint-Sauveur","15",NULL,NULL
"100","Salaberry-de-Valleyfield","16",NULL,NULL
"101","Sept-Îles","9",NULL,NULL
"102","Shawinigan","4",NULL,NULL
"103","Sherbrooke","5",NULL,NULL
"104","Sorel-Tracy","16",NULL,NULL
"105","Thetford-Mines","12",NULL,NULL
"106","Victoriaville","17",NULL,NULL
"107","Val-d'Or","8",NULL,NULL
"108","Varennes","16",NULL,NULL
"109","Vaudreuil-Dorion","16",NULL,NULL
"110","Westmount","6",NULL,NULL
"111","Windsor","5",NULL,NULL
"114","Waterloo","5",NULL,NULL
"115","Warwick","17",NULL,NULL
"116","Ville-Marie","8",NULL,NULL
"117","Valcourt","5",NULL,NULL
"118","Thurso","7",NULL,NULL
"119","Témiscaming","8",NULL,NULL
"120","Sutton","5",NULL,NULL
"121","Stanstead","5",NULL,NULL
"124","Senneterre","8",NULL,NULL
"125","Scotstown","5",NULL,NULL
"126","Schefferville","10",NULL,NULL
"127","Saint-Tite","4",NULL,NULL
"129","Saint-Rémi","16",NULL,NULL
"130","Saint-Raymond","3",NULL,NULL
"131","Saint-Pie","16",NULL,NULL
"132","Saint-Pamphile","1",NULL,NULL
"133","Saint-Ours","16",NULL,NULL
"134","Sainte-Marguerite-du-Lac-Masson","15",NULL,NULL
"135","Saint-Marc-des-Carrières","3",NULL,NULL
"137","Saint-Joseph-de-Sorel","16",NULL,NULL
"138","Saint-Joseph-de-Beauce","12",NULL,NULL
"140","Saint-Gabriel","14",NULL,NULL
"141","Saint-Césaire","16",NULL,NULL
"142","Sainte-Catherine-de-la-Jacques-Cartier","3",NULL,NULL
"143","Saint-Basile","3",NULL,NULL
"145","Sainte-Anne-des-Monts","11",NULL,NULL
"146","Sainte-Anne-de-Bellevue","6",NULL,NULL
"147","Sainte-Anne-de-Beaupré","3",NULL,NULL
"148","Rivière-Rouge","15",NULL,NULL
"152","Richmond","5",NULL,NULL
"153","Richelieu","16",NULL,NULL
"154","Princeville","17",NULL,NULL
"155","Portneuf","3",NULL,NULL
"156","Port-Cartier","9",NULL,NULL
"157","Pont-Rouge","3",NULL,NULL
"159","Plessisville","17",NULL,NULL
"160","Percé","11",NULL,NULL
"161","Paspébiac","11",NULL,NULL
"162","Otterburn Park","16",NULL,NULL
"163","Notre-Dame-des-Prairies","14",NULL,NULL
"164","Normandin","2",NULL,NULL
"165","Nicolet","17",NULL,NULL
"166","New Richmond","11",NULL,NULL
"167","Neuville","3",NULL,NULL
"168","Murdochville","11",NULL,NULL
"169","Montreal West","6",NULL,NULL
"170","Montreal East","6",NULL,NULL
"171","Montreal-North","6",NULL,NULL
"172","Mont-Tremblant","15",NULL,NULL
"177","Métabetchouan–Lac-à-la-Croix","2",NULL,NULL
"178","Matagami","10",NULL,NULL
"179","Maniwaki","7",NULL,NULL
"182","Malartic","8",NULL,NULL
"183","Macamic","8",NULL,NULL
"184","Louiseville","14",NULL,NULL
"185","Lorraine","15",NULL,NULL
"186","Léry","16",NULL,NULL
"187","Lebel-sur-Quévillon","10",NULL,NULL
"188","Lac-Sergent","3",NULL,NULL
"189","Lac-Saint-Joseph","3",NULL,NULL
"190","Lac-Mégantic","5",NULL,NULL
"191","Lac-Delage","3",NULL,NULL
"192","La Sarre","8",NULL,NULL
"194","La Malbaie","18",NULL,NULL
"195","L'Île-Dorval","6",NULL,NULL
"196","L'Île-Cadieux","16",NULL,NULL
"197","L'Épiphanie","14",NULL,NULL
"200","Kingsey Falls","5",NULL,NULL
"201","Huntingdon","16",NULL,NULL
"202","Hudson","16",NULL,NULL
"203","Hampstead","6",NULL,NULL
"204","Grande-Rivière","11",NULL,NULL
"205","Jonquière","2",NULL,NULL
"206","Forestville","9",NULL,NULL
"207","Fermont","9",NULL,NULL
"208","Farnham","16",NULL,NULL
"209","Other - Capitale-Nationale","3",NULL,NULL
"210","East Angus","5",NULL,NULL
"211","Duparquet","8",NULL,NULL
"212","Dunham","16",NULL,NULL
"213","Donnacona","3",NULL,NULL
"215","Disraeli","12",NULL,NULL
"216","Desbiens","2",NULL,NULL
"217","Delson","16",NULL,NULL
"219","Daveluyville","17",NULL,NULL
"220","Danville","5",NULL,NULL
"222","Coteau-du-Lac","16",NULL,NULL
"223","Cookshire-Eaton","5",NULL,NULL
"226","Île-Bizard","6",NULL,NULL
"228","Contrecoeur","17",NULL,NULL
"229","Coaticook","5",NULL,NULL
"230","Clermont","18",NULL,NULL
"231","Chibougamau","10",NULL,NULL
"232","Château-Richer","3",NULL,NULL
"234","Charlemagne","14",NULL,NULL
"235","Chapais","10",NULL,NULL
"236","Chandler","11",NULL,NULL
"239","Carleton-sur-Mer","11",NULL,NULL
"240","Carignan","16",NULL,NULL
"241","Cap-Santé","3",NULL,NULL
"242","Cap-Chat","11",NULL,NULL
"244","St-Armand","16",NULL,NULL
"245","Bromont","5",NULL,NULL
"246","Knowlton","16",NULL,NULL
"247","Bonaventure","11",NULL,NULL
"248","Bois-des-Filion","15",NULL,NULL
"249","Berthierville","14",NULL,NULL
"250","Belleterre","8",NULL,NULL
"251","Bedford","5",NULL,NULL
"252","Beaupré","3",NULL,NULL
"254","Beauceville","12",NULL,NULL
"256","Barkmere","15",NULL,NULL
"257","Baie-Saint-Paul","18",NULL,NULL
"258","Baie-d'Urfé","6",NULL,NULL
"260","Asbestos","5",NULL,NULL
"263","Acton Vale","16",NULL,NULL
"264","Baie-Des-Sables","1",NULL,NULL
"265","Cabano","1",NULL,NULL
"266","Grosses-Roches","1",NULL,NULL
"267","L'Isle-Verte","1",NULL,NULL
"268","ND-du-Lac","1",NULL,NULL
"269","Riviere-Ouelle","1",NULL,NULL
"271","St-Alexandre-De-Kamouraska","1",NULL,NULL
"272","St-Cleophas","1",NULL,NULL
"273","St-Cyprien-de-Temiscouata","1",NULL,NULL
"274","St-Damase-de-Matapedia","1",NULL,NULL
"275","St-Gabriel-de-Rimouski","1",NULL,NULL
"276","St-Louis-du-Ha-Ha","1",NULL,NULL
"277","St-Modeste","1",NULL,NULL
"278","St-Pacome","1",NULL,NULL
"279","St-Renee-de-Matane","1",NULL,NULL
"280","St-Ulric-de-Matane","1",NULL,NULL
"281","St-Valerien","1",NULL,NULL
"282","Ste-Irene","1",NULL,NULL
"283","Ste-Luce-sur-Mer","1",NULL,NULL
"284","Riviere-Trois-Pistoles","1",NULL,NULL
"285","Others - Bas-Saint-Laurent","1",NULL,NULL
"286","St-Andre-De-Kamouraska","1",NULL,NULL
"287","Val-Brillant","1",NULL,NULL
"288","McWatters","8",NULL,NULL
"289","Laferté","8",NULL,NULL
"290","Moffet","8",NULL,NULL
"291","Other - Abitibi-Témiscamingue","8",NULL,NULL
"292","Villemontel","8",NULL,NULL
"293","Becancour","17",NULL,NULL
"294","Chesterville","17",NULL,NULL
"295","Deschaillons","17",NULL,NULL
"296","Durham-Sud","17",NULL,NULL
"297","Gentilly","17",NULL,NULL
"298","Ham-Nord","17",NULL,NULL
"299","Inverness","17",NULL,NULL
"301","Lyster","17",NULL,NULL
"302","Manseau","17",NULL,NULL
"303","Parisville","17",NULL,NULL
"304","St-Charles-De-Drummond","17",NULL,NULL
"305","St-Cyrille-De-Wendove","17",NULL,NULL
"306","St-Ferdinand","17",NULL,NULL
"307","St-Fortunat","17",NULL,NULL
"308","St-Francois-Du-Lac","17",NULL,NULL
"309","St-Germain-De-Grantham","17",NULL,NULL
"310","St-Gregoire","17",NULL,NULL
"312","St-Jean-Chrysostome","17",NULL,NULL
"313","St-Joachim-De-Courval","17",NULL,NULL
"314","St-Leonard-D'Aston","17",NULL,NULL
"315","St-Nicephore","17",NULL,NULL
"316","St-Pierre-Baptiste","17",NULL,NULL
"317","St-Pierre-Les-Becquets","17",NULL,NULL
"318","St-Remi-De-Tingwick","17",NULL,NULL
"319","St-Wenceslas","17",NULL,NULL
"320","Ste-Angele-De-Laval","17",NULL,NULL
"321","Ste-Clothilde-De-Horton","17",NULL,NULL
"322","Ste-Eulalie","17",NULL,NULL
"323","Ste-Gertrude","17",NULL,NULL
"324","Ste-Helene-de-Chester","17",NULL,NULL
"325","Ste-Marie-De-Blandford","17",NULL,NULL
"327","Other - Centre-du-Québec","17",NULL,NULL
"328","Beaulac-Garthby","12",NULL,NULL
"329","Beaumont","12",NULL,NULL
"330","Berthier-Sur-Mer","12",NULL,NULL
"331","Black-Lake","12",NULL,NULL
"332","Breakeyville","12",NULL,NULL
"333","Charny","12",NULL,NULL
"334","East Broughton","12",NULL,NULL
"335","Grand-Lac-St-Francois","12",NULL,NULL
"336","Lac Trois-Saumon","12",NULL,NULL
"337","Lac-Etchemin","12",NULL,NULL
"338","Lac-Poulin","12",NULL,NULL
"339","L'Islet","12",NULL,NULL
"342","Notre-Dame-Auxiliatrice-de-Buckland","12",NULL,NULL
"343","Other - Chaudière-Appalaches","12",NULL,NULL
"344","Pintendre","12",NULL,NULL
"345","Robertsonville","12",NULL,NULL
"346","Scott","12",NULL,NULL
"347","Scott-Jonction","12",NULL,NULL
"348","St-Agapit","12",NULL,NULL
"349","St-Anselme","12",NULL,NULL
"350","St-Antoine-De-Tilly","12",NULL,NULL
"351","St-Apollinaire","12",NULL,NULL
"352","St-Benjamin","12",NULL,NULL
"353","St-Benoit-Labre","12",NULL,NULL
"354","St-Camille-De-Bellechasse","12",NULL,NULL
"355","St-Charles-De-Bellechasse","12",NULL,NULL
"356","St-Come-Liniere","12",NULL,NULL
"357","St-Cyprien","12",NULL,NULL
"358","St-Damien-De-Buckland","12",NULL,NULL
"359","St-Etienne-De-Lauzon","12",NULL,NULL
"360","St-Evariste-De-Forsyth","12",NULL,NULL
"361","St-Fabien-De-Panet","12",NULL,NULL
"362","St-Gedeon-De-Beauce","12",NULL,NULL
"363","St-Gervais","12",NULL,NULL
"364","St-Gilles","12",NULL,NULL
"365","St-Henri-de-Levis","12",NULL,NULL
"367","Other - Lanaudière","14",NULL,NULL
"368","St-Joseph-De-Coleraine","12",NULL,NULL
"369","St-Just-de-Bretenières","12",NULL,NULL
"370","St-Lambert-De-Lauzon","12",NULL,NULL
"371","St-Lazare-De-Bellechasse","12",NULL,NULL
"372","St-Louis-De-Gonzague","12",NULL,NULL
"373","St-Luc-de-Dijon","12",NULL,NULL
"374","St-Malachie","12",NULL,NULL
"375","St-Michel-de-Bellechasse","12",NULL,NULL
"376","St-Nazaire-De-Buckland","12",NULL,NULL
"377","St-Nicolas","12",NULL,NULL
"378","St-Odilon","12",NULL,NULL
"379","St-Patrice-De-Beaurivage","12",NULL,NULL
"380","St-Paul-De-Montminy","12",NULL,NULL
"381","St-Philemon","12",NULL,NULL
"382","St-Pierre-De-Broughton","12",NULL,NULL
"383","St-Raphael-de-Bellechasse","12",NULL,NULL
"384","St-Redempteur","12",NULL,NULL
"385","St-Romuald","12",NULL,NULL
"386","St-Sylvestre","12",NULL,NULL
"387","St-Vallier","12",NULL,NULL
"388","Ste-Agathe-de-Lotbiniere","12",NULL,NULL
"389","Ste-Claire","12",NULL,NULL
"390","Ste-Justine","12",NULL,NULL
"391","Ste-Marguerite-De-Beauce","12",NULL,NULL
"392","Sainte-Marie","12",NULL,NULL
"393","Ste-Perpétue L'Islet","12",NULL,NULL
"394","Ste-Sabine-De-Bellechasse","12",NULL,NULL
"395","Tourville","12",NULL,NULL
"396","Bergeronnes","9",NULL,NULL
"397","L'Île-d'Anticosti","9",NULL,NULL
"398","Les Escoumins","9",NULL,NULL
"399","Natashquan","9",NULL,NULL
"400","Other - Côte-Nord","9",NULL,NULL
"401","Pointe-Lebel","9",NULL,NULL
"402","Ragueneau","9",NULL,NULL
"403","St-Augustin","9",NULL,NULL
"405","Ascot Corner","5",NULL,NULL
"406","Audet","5",NULL,NULL
"407","Austin","5",NULL,NULL
"408","Bishopton","5",NULL,NULL
"409","Bury","5",NULL,NULL
"410","Canton De Stanstead","5",NULL,NULL
"411","Courcelles","5",NULL,NULL
"413","Dixville","5",NULL,NULL
"414","Dudswell","5",NULL,NULL
"415","Eastman","5",NULL,NULL
"417","Fleurimont","5",NULL,NULL
"418","Frontenac","5",NULL,NULL
"420","Johnville","5",NULL,NULL
"421","Lac-Brome","5",NULL,NULL
"422","Lac-Drolet","5",NULL,NULL
"423","Mandeville","14",NULL,NULL
"424","Lambton","5",NULL,NULL
"425","Lennoxville","5",NULL,NULL
"426","Lingwick","5",NULL,NULL
"427","Mansonville","5",NULL,NULL
"428","Marston","5",NULL,NULL
"429","Milan","5",NULL,NULL
"430","Notre-Dame-Des-Boies","5",NULL,NULL
"431","Other - Eastern Townships","5",NULL,NULL
"432","Rock Forest","5",NULL,NULL
"435","Shefford","5",NULL,NULL
"436","St-Adrien","5",NULL,NULL
"437","St-Elie-d'Orford","5",NULL,NULL
"438","St-Etienne-De-Bolton","5",NULL,NULL
"439","St-Gerard","5",NULL,NULL
"440","St-Romain","5",NULL,NULL
"441","St-Sebastien-De-Frontenac","5",NULL,NULL
"442","Ste-Catherine-De-Hatley","5",NULL,NULL
"443","Ste-Cecile-De-Whitton","5",NULL,NULL
"444","Ste-Marguerite-De-Lingwick","5",NULL,NULL
"445","Stornoway","5",NULL,NULL
"446","Stratford","5",NULL,NULL
"447","Stukely","5",NULL,NULL
"449","Ulverton","5",NULL,NULL
"450","Venise en Quebec","5",NULL,NULL
"452","Weedon","5",NULL,NULL
"453","Woburn","5",NULL,NULL
"454","Wotton","5",NULL,NULL
"455","Anse aux Gascons","11",NULL,NULL
"456","Grande-Vallee","11",NULL,NULL
"458","Iles de la Madeleine","11",NULL,NULL
"459","Les Mechins","11",NULL,NULL
"460","Matapedia","11",NULL,NULL
"462","Nouvelle","11",NULL,NULL
"463","Other - Gaspésie-Îles-de-la-Madeleine","11",NULL,NULL
"464","St-Simeon-De-Bonaventure","11",NULL,NULL
"465","Chertsey","14",NULL,NULL
"466","Lachenaie","14",NULL,NULL
"467","Lanoraie","14",NULL,NULL
"468","Le Gardeur","14",NULL,NULL
"469","Métabetchouan","14",NULL,NULL
"470","Notre-Dame-des-Lourdes","14",NULL,NULL
"471","Notre-Dame-de-la-Merci","14",NULL,NULL
"472","Rawdon","14",NULL,NULL
"473","Saint-Calixte","14",NULL,NULL
"474","Saint-Ignace De Loyola","14",NULL,NULL
"475","Saint-Michel-des-Saints","14",NULL,NULL
"476","Saint-Zenon","14",NULL,NULL
"477","St-Alphonse-Rodriguez","14",NULL,NULL
"478","St-Ambroise de Kildare","14",NULL,NULL
"479","St-Come","14",NULL,NULL
"480","St-Didace","14",NULL,NULL
"481","St-Donat-De-Montcalm","14",NULL,NULL
"482","St-Felix-De-Valois","14",NULL,NULL
"483","St-Gabriel de Brandon","14",NULL,NULL
"484","St-Jean-De-Matha","14",NULL,NULL
"485","St-Lin","14",NULL,NULL
"486","St-Roch-De-LAchigan","14",NULL,NULL
"487","St-Thomas-De-Joliette","14",NULL,NULL
"488","Ste-Émelie-de-l'Énergie","14",NULL,NULL
"489","Ste-Julienne","14",NULL,NULL
"490","Ste-Mélanie","14",NULL,NULL
"491","Beaurivage","15",NULL,NULL
"492","Brebeuf","15",NULL,NULL
"493","Brownsburg","15",NULL,NULL
"494","Chatham","15",NULL,NULL
"495","Chute-St-Philippe","15",NULL,NULL
"496","Entrelacs","15",NULL,NULL
"497","Estérel","15",NULL,NULL
"498","Ferme-neuve","15",NULL,NULL
"499","Gore","15",NULL,NULL
"500","Grenville","15",NULL,NULL
"501","Harrington","15",NULL,NULL
"502","Hautes-Laurentides","15",NULL,NULL
"503","Ivry-sur-le-Lac","15",NULL,NULL
"504","Labelle","15",NULL,NULL
"505","Lac-Des-Plages","7",NULL,NULL
"506","Lac-des-Seize-Iles","15",NULL,NULL
"508","Lantier","15",NULL,NULL
"509","Lower Laurentians","15",NULL,NULL
"510","Mille-Isles","15",NULL,NULL
"511","Mont St-Michel","15",NULL,NULL
"513","Mont-Ste-Anne","15",NULL,NULL
"514","Morin-Heights","15",NULL,NULL
"515","Namur","15",NULL,NULL
"516","ND-Du-Laus","15",NULL,NULL
"517","Nominingue","15",NULL,NULL
"518","Notre-Dame-de-la-Paix","15",NULL,NULL
"519","Other - Laurentides","15",NULL,NULL
"520","Piedmont","15",NULL,NULL
"521","Saint-Faustin","15",NULL,NULL
"522","St-Adolphe d'Howard","15",NULL,NULL
"523","St-Canut","15",NULL,NULL
"525","St-Donat","15",NULL,NULL
"526","St-Hippolyte","15",NULL,NULL
"527","St-Remi-D'Amherst","15",NULL,NULL
"528","Ste-Anne-Des-Lacs","15",NULL,NULL
"529","Ste-Lucie","15",NULL,NULL
"530","Ste-Marguerite","15",NULL,NULL
"531","Ste-Marguerite-Esterel","15",NULL,NULL
"532","Val David","15",NULL,NULL
"533","Val Morin","15",NULL,NULL
"534","Val-des-Lacs","15",NULL,NULL
"535","Wentworth","15",NULL,NULL
"537","Auteuil","13",NULL,NULL
"541","Chomedey","13",NULL,NULL
"542","Duvernay","13",NULL,NULL
"543","Fabreville","13",NULL,NULL
"544","Laval-des-Rapides","13",NULL,NULL
"546","Pont-Viau","13",NULL,NULL
"547","Ste. François","13",NULL,NULL
"549","Roxton Pond","16",NULL,NULL
"550","Ste-Dorothee","13",NULL,NULL
"551","Ste-Rose","13",NULL,NULL
"552","Ste-Therese","15",NULL,NULL
"553","Vimont","13",NULL,NULL
"554","Cap-De-La-Madeleine","4",NULL,NULL
"555","Champlain","4",NULL,NULL
"556","Clova","4",NULL,NULL
"557","Grand-Mere","4",NULL,NULL
"558","Herouxville","4",NULL,NULL
"559","La Croche","4",NULL,NULL
"560","Lac-A-La-Tortue","4",NULL,NULL
"561","Lac-Edouard","4",NULL,NULL
"562","Le Haut-Saint-Mauricie","4",NULL,NULL
"563","Louisville","4",NULL,NULL
"564","Notre-Dame du Mont-Carmel","4",NULL,NULL
"565","Other - Mauricie","4",NULL,NULL
"566","Pointe-Du-Lac","4",NULL,NULL
"567","Shawinigan-Sud","4",NULL,NULL
"568","St-Adelphe-De-Champlain","4",NULL,NULL
"569","St-Alexis-Des-Monts","4",NULL,NULL
"570","St-Barnabe-Nord","4",NULL,NULL
"571","St-Boniface-De-Shawinigan","4",NULL,NULL
"572","St-Élie-de-Caxton","4",NULL,NULL
"573","St-Étienne-des-Grè","4",NULL,NULL
"574","St-Georges-De-Champlain","4",NULL,NULL
"575","St-Jean-Des-Piles","4",NULL,NULL
"576","St-Louis-De-France","4",NULL,NULL
"577","St-Mathieu-Du-Parc","4",NULL,NULL
"578","St-Narcisse","4",NULL,NULL
"579","Ste-Flore-De-Grand-Mere","4",NULL,NULL
"580","Ste-Genevieve-De-Batiscan","4",NULL,NULL
"581","Ste-Marthe-Du-Cap","4",NULL,NULL
"582","Ste-Thecle","4",NULL,NULL
"583","Ste-Ursule","4",NULL,NULL
"584","Trois-Rivières-Ouest","4",NULL,NULL
"586","Greenfield Park","16",NULL,NULL
"588","Other - Montérégie","16",NULL,NULL
"589","St-Blaise","16",NULL,NULL
"590","St-Damase","16",NULL,NULL
"591","St-Denis-Sur-Richelieu","16",NULL,NULL
"592","St-Dominique","16",NULL,NULL
"593","St-Hubert","16",NULL,NULL
"594","St-Luc","16",NULL,NULL
"595","St-Marc-sur-Richelieu","16",NULL,NULL
"596","St-Marcel-De-Richelieu","16",NULL,NULL
"597","St-Simon-De-Bagot","16",NULL,NULL
"598","Ste-Anne-De-Sorel","16",NULL,NULL
"599","Valleyfield","16",NULL,NULL
"600","Vercheres","16",NULL,NULL
"601","Ahuntsic/Cartierville","6",NULL,NULL
"602","Anjou","6",NULL,NULL
"603","Cote-des-Neiges","6",NULL,NULL
"604","Lachine","6",NULL,NULL
"605","LaSalle","6",NULL,NULL
"607","Mercier/Hochelaga-Maisonneuve","6",NULL,NULL
"608","Nuns Island","6",NULL,NULL
"609","Old Montreal","6",NULL,NULL
"610","Other - Montreal","6",NULL,NULL
"611","Outremont","6",NULL,NULL
"612","Pierrefonds-Roxborro-Senneville-Ste.Genevieve","6",NULL,NULL
"613","Plateau Mont-Royal","6",NULL,NULL
"615","Pointe-St-Charles","6",NULL,NULL
"616","Rosemont","6",NULL,NULL
"617","St-Henri","6",NULL,NULL
"618","St-Laurent","6",NULL,NULL
"619","St-Leonard","6",NULL,NULL
"620","Verdun","6",NULL,NULL
"621","Ville Emard","6",NULL,NULL
"622","Ville-Marie (Montreal)","6",NULL,NULL
"623","Villeray/St-Michel/Parc-Extension","6",NULL,NULL
"626","Aylmer","7",NULL,NULL
"627","Buckingham","7",NULL,NULL
"628","Duhamel","7",NULL,NULL
"629","Grand-Remous","7",NULL,NULL
"630","Hull","7",NULL,NULL
"631","L'Ange-Gardien-Ouest","7",NULL,NULL
"632","Montpellier","7",NULL,NULL
"633","Other - Ottawa Valley","7",NULL,NULL
"634","Papineauville","7",NULL,NULL
"635","St-Andre-Avellin","7",NULL,NULL
"636","Val-des-Monts","7",NULL,NULL
"637","Wakefield","7",NULL,NULL
"638","Beauport","3",NULL,NULL
"639","Boischatel","3",NULL,NULL
"640","Cap-Rouge","3",NULL,NULL
"641","Charlesbourg","3",NULL,NULL
"646","Deschambault","3",NULL,NULL
"647","Fossambault-Sur-Le-Lac","3",NULL,NULL
"648","Île d'Orleans St-Laurent","3",NULL,NULL
"649","Île d'Orleans St-Jean","3",NULL,NULL
"650","Île-du-Havre-Aubert ","11",NULL,NULL
"651","Lac-Beauport","3",NULL,NULL
"653","Lac-St-Charles","3",NULL,NULL
"655","Lebourgneuf","3",NULL,NULL
"656","Les Saules","3",NULL,NULL
"657","Limoilou","3",NULL,NULL
"658","Loretteville","3",NULL,NULL
"659","Neufchatel","3",NULL,NULL
"660","Shannon","3",NULL,NULL
"661","Sillery","3",NULL,NULL
"662","St-Augustin-De-Desmaures","3",NULL,NULL
"663","Saint-Emile","3",NULL,NULL
"664","St-Ferreol-les-Neiges","3",NULL,NULL
"665","St-Francois-de-l'île-d'Orléans","3",NULL,NULL
"666","St-Gabriel-De-Valcartier","3",NULL,NULL
"667","St-Jean","3",NULL,NULL
"670","St-Ubalde","3",NULL,NULL
"671","Ste-Anne-de-Beaupre","3",NULL,NULL
"672","Ste-Brigitte-De-Laval","3",NULL,NULL
"673","Ste-Catherine-de-la-JC","3",NULL,NULL
"674","Ste-Foy","3",NULL,NULL
"675","Ste-Petronille","3",NULL,NULL
"676","Stoneham","3",NULL,NULL
"677","Tewkesbury","3",NULL,NULL
"678","Val-Belair","3",NULL,NULL
"679","Vanier","3",NULL,NULL
"681","La Baie","2",NULL,NULL
"682","Lac-Bouchette","2",NULL,NULL
"683","Lac-Kenogami","2",NULL,NULL
"684","Other - Saguenay-Lac-Saint-Jean","2",NULL,NULL
"686","Sacré-Cœur","2",NULL,NULL
"687","Saint-Nazaire","2",NULL,NULL
"688","St-David-de-Falardeau","2",NULL,NULL
"689","St-Fulgence","2",NULL,NULL
"690","St-Gedeon","2",NULL,NULL
"691","St-Henri-De-Taillon","2",NULL,NULL
"692","St-Methode","2",NULL,NULL
"693","Ste-Monique","2",NULL,NULL
"694","Tadoussac","2",NULL,NULL
"695","Baie-Sainte-Catherine","18",NULL,NULL
"696","Iles-Aux-Coudres St-Louis","3",NULL,NULL
"697","Les Éboulements","18",NULL,NULL
"698","Petite-Riviere-St-Francois","18",NULL,NULL
"699","Pointe-Au-Pic","18",NULL,NULL
"700","Sagard","3",NULL,NULL
"701","Saint-Hilarion","18",NULL,NULL
"702","Saint-Irénée","18",NULL,NULL
"703","Saint-Urbain","18",NULL,NULL
"704","St-Aimé Des Lacs","18",NULL,NULL
"705","St-Simeon","3",NULL,NULL
"706","St-Tite-Des-Caps","3",NULL,NULL
"707","Riviere-A-Pierre","3",NULL,NULL
"708","St-Alban","3",NULL,NULL
"709","St-Leonard-De-Portneuf","3",NULL,NULL
"710","St-Raymond","3",NULL,NULL
"711","Boucherville","16",NULL,NULL
"712","Notre-Dame-de-Grâce","6",NULL,NULL
"713","Pointe-aux-Trembles","6",NULL,NULL
"714","Rivière des Prairies","6",NULL,NULL
"715","Old Quebec City","3",NULL,NULL
"716","Orford","5",NULL,NULL
"717","London","0",NULL,NULL
"718","Saint-Patrice-de-Sherrington","16",NULL,NULL
"719","Saint-Antoine-sur-Richelieu","17",NULL,NULL
"720","Lake Superior","15",NULL,NULL
"721","La Cité-Limoilou","3",NULL,NULL
"722","Les Rivieres","3",NULL,NULL
"723","East Hereford","5",NULL,NULL
"725","Saint-Paulin","4",NULL,NULL
"726","Riviére-Windigo","4",NULL,NULL
"727","Larouche","2",NULL,NULL
"728","Sainte-Béatrix","14",NULL,NULL
"729","Laval-West","13",NULL,NULL
"730","Laval-sur-le-lac","13",NULL,NULL
"731","Saint-Vincent-de-Paul","13",NULL,NULL
"732","Racine","5",NULL,NULL
"733","Cap-à-l'Aigle","18",NULL,NULL
"734","Saint-Siméon","18",NULL,NULL
"735","Saint-Joseph-de-la-Rive","18",NULL,NULL
"736","Notre-Dame-des-monts","18",NULL,NULL
"737","Saint-Ferréol","18",NULL,NULL
"738","Saint-Fidèle-de Mont-Murray","18",NULL,NULL
"739","Saint Pacôme","18",NULL,NULL
"740","Saint-Tite-des-Caps","18",NULL,NULL
"741","L'Isle-aux-Courdes","18",NULL,NULL
"742","Ormstown","16",NULL,NULL
"743","Île du Cap-aux-Meules","11",NULL,NULL
"744","Île du Havre-aux-Maisons","11",NULL,NULL
"745","Grosse Île","11",NULL,NULL
"746","Pointe-aux-Loups","11",NULL,NULL
"747","Grande-Entrée","11",NULL,NULL
"748","Stoke","5",NULL,NULL
"749","L'Ange-Gardien","7",NULL,NULL
